<?xml version="1.0" encoding="UTF-8" standalone="no"?>
<svg
   xmlns:dc="http://purl.org/dc/elements/1.1/"
   xmlns:cc="http://creativecommons.org/ns#"
   xmlns:rdf="http://www.w3.org/1999/02/22-rdf-syntax-ns#"
   xmlns:svg="http://www.w3.org/2000/svg"
   xmlns="http://www.w3.org/2000/svg"
   xmlns:sodipodi="http://sodipodi.sourceforge.net/DTD/sodipodi-0.dtd"
   xmlns:inkscape="http://www.inkscape.org/namespaces/inkscape"
   version="1.2"
   width="300"
   height="564.3183"
   viewBox="0 0 300 564.3183"
   id="svg2"
   inkscape:version="0.91 r13725"
   sodipodi:docname="districts.svg"
   style="stroke-linecap:round;stroke-linejoin:round">
  <metadata
     id="metadata227">
    <rdf:RDF>
      <cc:Work
         rdf:about="">
        <dc:format>image/svg+xml</dc:format>
        <dc:type
           rdf:resource="http://purl.org/dc/dcmitype/StillImage" />
        <dc:title></dc:title>
      </cc:Work>
    </rdf:RDF>
  </metadata>
  <defs
     id="defs225" />
  <sodipodi:namedview
     pagecolor="#ffffff"
     bordercolor="#666666"
     borderopacity="1"
     objecttolerance="10"
     gridtolerance="10"
     guidetolerance="10"
     inkscape:pageopacity="0"
     inkscape:pageshadow="2"
     inkscape:window-width="1366"
     inkscape:window-height="715"
     id="namedview223"
     showgrid="false"
     fit-margin-top="0"
     fit-margin-left="0"
     fit-margin-right="0"
     fit-margin-bottom="0"
     inkscape:zoom="3.5695658"
     inkscape:cx="109.19569"
     inkscape:cy="82.649166"
     inkscape:window-x="-8"
     inkscape:window-y="-8"
     inkscape:window-maximized="1"
     inkscape:current-layer="districts" />
  <g
     id="districts"
     transform="matrix(0.37772372,0,0,0.37772372,-1.8012511,-0.51555511)"
     inkscape:label="districts">
    <path
       d="m 461.6698,763.4602 -7.6122,-2.2481 -1.7063,-8.9617 -7.3216,-5.134 -8.7145,-1.6059 8.2774,-3.9086 6.7031,-16.8388 11.3153,-12.6512 10.1671,-1.0769 4.5534,6.409 6.3002,-3.6347 7.2925,3.8161 -2.034,16.8511 -5.8741,3.8883 -2.681,-0.6057 -8.3438,17.5901 -2.4644,3.3996 -7.8571,4.7114 z"
       id="id1"
       class="svgpath neutral"
       inkscape:connector-curvature="0"
       inkscape:label="AMBOHIDRATRIMO" />
    <path
       d="m 511.3355,833.647 -16.6814,-15.1717 -13.1131,-3.4694 -2.5061,-11.1064 -5.8115,-8.7248 6.067,-8.2128 6.6725,-0.5584 9.1269,-1.4833 1.1575,2.7565 19.4375,3.5807 6.3249,5.2937 -1.3044,10.8297 -5.0409,9.9659 0.7442,10.2461 -5.0731,6.0542 z"
       id="id2"
       class="svgpath neutral"
       inkscape:connector-curvature="0"
       inkscape:label="ANDRAMASINA" />
    <path
       d="m 519.9598,732.6593 -7.4255,0.4548 -9.0138,-3.9856 -8.199,-13.9669 -4.3973,2.4638 -7.2925,-3.8161 -6.3002,3.6347 -4.5534,-6.409 -10.1671,1.0769 6.5657,-13.1753 -4.0433,-8.8169 4.7037,-12.1009 3.8071,-2.3786 -2.7808,-22.8049 12.4206,-3.3494 11.7311,-12.4515 14.0351,-1.3094 6.3646,5.1094 4.8706,9.0161 -3.1234,8.2238 10.3574,10.659 1.7831,29.1778 1.66,6.7283 -4.9111,6.4338 -0.2884,12.6412 -5.8032,8.9449 z"
       id="id3"
       class="svgpath neutral"
       inkscape:connector-curvature="0"
       inkscape:label="ANJOZOROBE" />
    <path
       d="m 436.3152,745.5105 -8.715,-4.471 -4.6916,-3.0842 -3.0378,-8.8232 -7.0875,-9.9912 -16.8642,-8.1691 -10.5816,-14.9449 -5.4041,-10.4127 -0.902,-11.1335 -4.4799,-13.9631 -8.9658,-15.7342 -2.2619,-7.2064 14.0835,-1.368 10.7777,-5.1405 13.8135,11.5856 13.4579,2.6091 8.3655,-1.1866 4.6311,-4.5136 18.9579,-3.9664 8.3009,3.0475 3.0804,9.5908 12.0712,4.6004 2.7808,22.8049 -3.8071,2.3786 -4.7037,12.1009 4.0433,8.8169 -6.5657,13.1753 -11.3153,12.6512 -6.7031,16.8388 -8.2774,3.9086 z"
       id="id4"
       class="svgpath neutral"
       inkscape:connector-curvature="0"
       inkscape:label="ANKAZOBE" />
    <path
       d="m 485.9629,786.4035 -0.7551,-12.7665 -8.3192,-6.7443 1.7189,-7.5429 -6.6162,-4.0006 8.3438,-17.5901 2.681,0.6057 5.4124,2.6135 4.5572,8.9345 -2.6643,7.1709 1.1546,11.4487 7.4034,11.9206 -3.7896,4.4672 -9.1269,1.4833 z"
       id="id6"
       class="svgpath neutral"
       inkscape:connector-curvature="0"
       inkscape:label="ANTANANARIVO-AVARADRANO" />
    <path
       d="m 479.2904,786.9619 -10.625,-0.3347 -6.9956,-23.167 7.8571,-4.7114 7.3617,8.1439 8.3192,6.7443 0.7551,12.7665 -6.6725,0.5584 z"
       id="id5"
       class="svgpath neutral"
       inkscape:connector-curvature="0"
       inkscape:label="ANTANANARIVO-ATSIMONDRANO" />
    <path
       d="m 476.8886,766.8927 -7.3617,-8.1439 2.4644,-3.3996 6.6162,4.0006 -1.7189,7.5429 z"
       id="id7"
       class="svgpath neutral"
       inkscape:connector-curvature="0"
       inkscape:label="ANTANANARIVO_I" />
    <path
       d="m 515.6848,791.2574 -19.4375,-3.5807 -1.1575,-2.7565 3.7896,-4.4672 -7.4034,-11.9206 -1.1546,-11.4487 2.6643,-7.1709 -4.5572,-8.9345 -5.4124,-2.6135 5.8741,-3.8883 2.034,-16.8511 4.3973,-2.4638 8.199,13.9669 9.0138,3.9856 7.4255,-0.4548 -0.4954,21.2708 1.2468,15.708 -5.3749,14.071 0.3485,7.5483 z"
       id="id13"
       class="svgpath neutral"
       inkscape:connector-curvature="0"
       inkscape:label="MANJAKANDRIANA" />
    <path
       d="m 295.7858,664.7479 6.6388,-10.0213 2.1759,-14.5872 3.9319,4.6225 16.5696,5.7391 9.9696,-3.3714 22.9804,-12.0628 5.2718,2.5102 2.2619,7.2064 8.9658,15.7342 4.4799,13.9631 0.902,11.1335 5.4041,10.4127 10.5816,14.9449 16.8642,8.1691 7.0875,9.9912 3.0378,8.8232 4.6916,3.0842 -0.5685,1.8117 -17.3526,-0.2431 -7.3784,-3.8247 -8.2265,2.7002 -7.436,-5.7562 -12.4757,1.7875 -11.3717,-3.8428 -6.4485,0.8787 -7.5219,-7.5128 -1.7823,-9.1386 -9.1745,-3.8042 -3.7959,3.2762 -16.7682,0.101 -17.3042,-2.9502 -10.5874,-6.7632 -3.0787,-6.4054 -7.785,-3.3668 7.4944,-9.6638 1.658,-9.0645 8.0892,-14.5106 z"
       id="id14"
       class="svgpath neutral"
       inkscape:connector-curvature="0"
       inkscape:label="FENOARIVOBE" />
    <path
       d="m 325.9676,816.4027 -3.5863,4.3326 -14.0125,-3.9749 -2.6359,2.4525 -19.0181,1.4189 2.944,-11.9936 -3.8422,-14.0579 -8.2116,4.5733 -10.2926,-7.3398 -1.3295,-9.1106 -7.6885,-8.0264 0.5389,-4.5633 -7.9031,-6.6667 3.0691,-3.9574 -4.3238,-17.2914 15.3478,-16.42 -2.9172,-14.9166 2.6217,-11.983 -4.4165,-2.8809 0.7976,-3.2714 4.8231,-16.6616 6.7627,-4.3111 10.1959,-1.4242 3.9027,-5.2845 8.9925,-0.2968 -8.0892,14.5106 -1.658,9.0645 -7.4944,9.6638 7.785,3.3668 3.0787,6.4054 10.5874,6.7632 17.3042,2.9502 16.7682,-0.101 3.7959,-3.2762 9.1745,3.8042 1.7823,9.1386 7.5219,7.5128 6.4485,-0.8787 11.3717,3.8428 -0.2893,7.6998 -7.1342,18.915 -5.4471,6.1646 8.7245,5.316 -3.4335,8.8451 -8.6336,-2.8794 -12.7269,11.7329 -1.784,9.8549 -6.7815,6.7274 -7.3079,1.0427 -3.3814,5.4688 z"
       id="id15"
       class="svgpath neutral"
       inkscape:connector-curvature="0"
       inkscape:label="TSIROANOMANDIDY" />
    <path
       d="m 442.0694,813.7341 -17.2073,-3.2894 -0.6825,-15.2474 -1.0239,-9.5673 6.8012,-11.4291 -3.0571,-13.1272 3.2286,-6.1001 -3.0967,-12.1224 0.5685,-1.8117 8.715,4.471 8.7145,1.6059 7.3216,5.134 1.7063,8.9617 7.6122,2.2481 6.9956,23.167 -2.6359,13.477 -5.9492,3.5012 -13.7738,-0.5357 -4.2371,10.6644 z"
       id="id16"
       class="svgpath neutral"
       inkscape:connector-curvature="0"
       inkscape:label="ARIVONIMAMO" />
    <path
       d="m 408.0404,793.0856 -3.7783,-6.7412 -9.1294,-0.9832 -4.1427,-9.2947 -10.17,-2.6747 -10.8036,2.2185 -8.7245,-5.316 5.4471,-6.1646 7.1342,-18.915 0.2893,-7.6998 12.4757,-1.7875 7.436,5.7562 8.2265,-2.7002 7.3784,3.8247 17.3526,0.2431 3.0967,12.1224 -3.2286,6.1001 3.0571,13.1272 -6.8012,11.4291 1.0239,9.5673 -16.1392,-2.1117 z"
       id="id17"
       class="svgpath neutral"
       inkscape:connector-curvature="0"
       inkscape:label="MIARINARIVO" />
    <path
       d="m 408.0404,793.0856 -12.4937,6.4353 -3.37,4.4422 -17.2174,8.1905 -5.3795,5.4723 -14.0506,-4.6993 -25.1934,6.4071 -4.3682,-2.931 3.3814,-5.4688 7.3079,-1.0427 6.7815,-6.7274 1.784,-9.8549 12.7269,-11.7329 8.6336,2.8794 3.4335,-8.8451 10.8036,-2.2185 10.17,2.6747 4.1427,9.2947 9.1294,0.9832 3.7783,6.7412 z"
       id="id18"
       class="svgpath neutral"
       inkscape:connector-curvature="0"
       inkscape:label="SOAVINANDRIANA" />
    <path
       d="m 442.0098,816.3964 0.0596,-2.6623 4.2371,-10.6644 13.7738,0.5357 5.9492,-3.5012 2.6359,-13.477 10.625,0.3347 -6.067,8.2128 5.8115,8.7248 2.5061,11.1064 13.1131,3.4694 16.6814,15.1717 -2.2419,17.439 -23.619,-3.3231 -8.7145,-4.611 5.9371,-4.9521 -8.5964,-9.1759 -10.3127,-2.2571 -13.2592,-9.9972 -8.5191,-0.3732 z"
       id="id19"
       class="svgpath neutral"
       inkscape:connector-curvature="0"
       inkscape:label="#AMBATOLAMPY" />
    <path
       d="m 467.932,886.7984 0.8703,-13.1329 -11.2577,-15.6327 -19.5811,-0.681 1.4588,-29.4438 -2.7365,-5.1754 5.324,-6.3362 8.5191,0.3732 13.2592,9.9972 10.3127,2.2571 8.5964,9.1759 -5.9371,4.9521 8.7145,4.611 23.619,3.3231 3.0734,5.3538 -0.8778,11.0824 -5.276,1.0573 -11.249,7.9914 6.3137,8.6729 -6.2252,3.0769 -13.3768,-2.8602 -13.5439,1.3379 z"
       id="id20"
       class="svgpath neutral"
       inkscape:connector-curvature="0"
       inkscape:label="#ANTANIFOTSY" />
    <path
       d="m 396.263,911.1594 2.4047,-7.9692 13.8556,-11.7843 -2.3613,-9.705 1.7122,-10.142 -3.0157,-3.4817 5.5656,-8.1915 3.0921,-16.7067 6.5578,-8.6102 1.5624,-8.1282 11.0494,-3.708 2.7365,5.1754 -1.4588,29.4438 19.5811,0.681 11.2577,15.6327 -0.8703,13.1329 -0.3685,3.8389 -17.2274,-3.8023 -14.5682,6.2278 0.9375,6.4772 -13.4875,0.521 -5.8686,6.3129 -6.1149,-6.098 -14.9714,10.8835 z m 21.3158,-36.5105 7.8547,0.8643 2.1634,-9.0407 -12.3985,-2.2861 2.3804,10.4625 z"
       id="id22"
       class="svgpath neutral"
       inkscape:connector-curvature="0"
       inkscape:label="#ANTSIRABE_II" />
    <path
       d="m 417.5788,874.6489 -2.3804,-10.4625 12.3985,2.2861 -2.1634,9.0407 -7.8547,-0.8643 z"
       id="id21"
       class="svgpath neutral"
       inkscape:connector-curvature="0"
       inkscape:label="#ANTSIRABE_I" />
    <path
       d="m 283.1231,868.8563 1.9943,-15.3531 5.6258,-5.7593 -2.8271,-7.9573 -13.5876,-12.8572 4.9662,-5.8831 7.4201,-0.4145 19.0181,-1.4189 2.6359,-2.4525 14.0125,3.9749 3.5863,-4.3326 4.3682,2.931 25.1934,-6.4071 14.0506,4.6993 13.5685,10.9902 6.7823,0.2089 8.2115,12.988 19.3741,1.366 -3.0921,16.7067 -5.5656,8.1915 3.0157,3.4817 -1.7122,10.142 2.3613,9.705 -13.8556,11.7843 -2.4047,7.9692 -12.3087,1.0847 -7.1852,-4.7223 -12.204,3.3599 -8.239,-5.6681 -7.9256,3.8461 -12.7162,-7.4671 4.1331,-3.362 -3.3663,-13.1861 -10.5085,3.5275 -7.9732,-3.7318 -3.6264,-8.3883 -13.6628,-1.9868 -17.5571,-5.6088 z"
       id="id23"
       class="svgpath neutral"
       inkscape:connector-curvature="0"
       inkscape:label="#BETAFO" />
    <path
       d="m 417.5162,843.179 -19.3741,-1.366 -8.2115,-12.988 -6.7823,-0.2089 -13.5685,-10.9902 5.3795,-5.4723 17.2174,-8.1905 3.37,-4.4422 12.4937,-6.4353 16.1392,2.1117 0.6825,15.2474 17.2073,3.2894 -0.0596,2.6623 -5.324,6.3362 -11.0494,3.708 -1.5624,8.1282 -6.5578,8.6102 z"
       id="id24"
       class="svgpath neutral"
       inkscape:connector-curvature="0"
       inkscape:label="#FARATSIHO" />
    <path
       d="m 577.2924,246.5782 -8.8731,-2.9646 -1.852,-6.1909 -11.5011,-3.9478 -5.6287,-11.5884 3.8151,-9.9852 -25.8488,12.7954 -0.0418,-0.052 -0.0254,-0.0325 -0.1824,-4.3178 -12.0967,-5.8966 -3.6473,-14.8323 4.255,-18.9357 11.7928,-0.6381 6.8997,-3.4648 10.6074,14.0722 0.5472,8.389 6.1091,5.6532 9.6353,-2.6442 1.033,-23.9506 10.2126,-4.1032 3.2219,3.2217 7.7503,-6.5957 1.4897,-7.6593 13.2212,4.772 4.6273,4.603 -9.0167,15.7488 6.3291,-0.4726 7.5916,4.4592 2.6025,6.9777 24.5119,14.804 -1.4563,27.4977 -17.5075,13.0345 -9.6716,-6.0974 -6.4814,3.5781 -13.1022,-5.7967 -9.3197,0.5599 z"
       id="id48"
       class="svgpath neutral"
       inkscape:connector-curvature="0"
       inkscape:label="#AMBANJA" />
    <path
       d="m 598.1854,167.682 12.0362,-7.2642 4.1335,-13.2215 0.7296,-16.504 14.498,-26.9599 3.07,0.7646 13.0501,-5.1143 5.5167,0.6022 8.2896,16.7954 11.7816,4.1081 17.2328,-5.5995 -1.4734,10.0656 -5.6378,4.1504 4.0888,11.301 -5.3782,12.6185 -8.1326,6.5624 5.533,19.1169 -2.1371,5.5355 5.9981,5.7673 -7.2152,29.3545 -14.5594,8.1762 -6.5694,17.3207 -4.8118,1.7859 -14.8537,-5.744 1.4563,-27.4977 -24.5119,-14.804 -2.6025,-6.9777 -7.5916,-4.4592 -6.3291,0.4726 9.0167,-15.7488 -4.6273,-4.603 z"
       id="id49"
       class="svgpath neutral"
       inkscape:connector-curvature="0"
       inkscape:label="#AMBILOBE" />
    <path
       d="m 632.6527,104.497 -6.8387,-13.1957 -0.6687,-9.6349 -4.6202,-2.4621 0.4562,-12.6438 -3.8296,-1.2158 -9.24,-11.4588 12.1576,-1.7931 9.6654,8.115 1.4287,-12.6438 7.2641,-7.1729 13.0391,-3.9819 0.5773,-6.2611 8.3889,-11.9449 -4.6198,-8.8144 7.2336,-8.0239 5.5928,2.5225 4.9846,9.7261 -2.7962,10.79 -10.1988,8.2977 -0.5952,1.2766 -2.3366,5.8662 16.7779,0.3341 20.5161,9.2096 5.5318,16.8688 -4.6503,9.4525 10.425,8.2066 0.8511,10.4219 -7.8434,0.7627 -8.1506,12.0425 -2.6313,8.1462 -17.2328,5.5995 -11.7816,-4.1081 -8.2896,-16.7954 -5.5167,-0.6022 -13.0501,5.1143 z"
       id="id51"
       class="svgpath neutral"
       inkscape:connector-curvature="0"
       inkscape:label="#ANTSIRANANA_II" />
    <path
       d="m 564.8734,152.1201 0.6383,7.9328 -17.5071,-1.4589 0.7601,-12.1271 10.4555,-2.2492 5.6532,7.9024 z"
       id="id52"
       class="svgpath neutral"
       inkscape:connector-curvature="0"
       inkscape:label="#NOSY_BE" />
    <path
       d="m 722.9065,340.2278 -8.3618,4.5209 -6.0085,-5.6513 -19.8052,-25.379 -5.6763,-8.1498 1.38,-2.7372 -10.1062,-16.9454 5.3707,-4.733 -11.5152,-5.5997 -20.1517,-21.7639 0.1962,-6.7456 4.8118,-1.7859 8.3108,4.4877 12.2232,-0.7666 12.6786,-8.9146 17.0116,7.2962 10.9313,20.2904 -7.3438,9.6766 11.8776,5.277 3.6706,9.0352 6.2761,6.0553 4.9374,9.2997 -0.9099,11.9728 -3.7153,4.2475 -6.082,17.0127 z"
       id="id53"
       class="svgpath neutral"
       inkscape:connector-curvature="0"
       inkscape:label="#ANDAPA" />
    <path
       d="m 747.026,425.8958 6.168,-1.9006 -2.8747,-8.958 -6.395,-7.1243 2.5479,-3.7015 1.3035,-16.6799 3.815,-9.874 -7.2928,-4.6457 5.1144,-5.7129 -4.919,-5.7877 -10.0344,2.8144 -9.8623,-12.0553 -1.6901,-12.0425 6.082,-17.0127 3.7153,-4.2475 0.9099,-11.9728 -4.9374,-9.2997 7.2602,-4.2434 5.9392,-8.2364 13.4433,-3.0035 8.6539,4.3437 1.9885,-6.4335 8.6624,40.5947 5.6537,8.6016 1.9755,8.6017 10.6684,12.8263 6.0786,13.2518 -2.7962,21.1241 -11.1546,25.5616 -6.5348,18.9659 -5.8962,4.7719 -2.6447,8.6625 -21.5796,-11.3371 -1.3679,-5.8512 z"
       id="id54"
       class="svgpath neutral"
       inkscape:connector-curvature="0"
       inkscape:label="#ANTALAHA" />
    <path
       d="m 728.6763,297.6951 -6.2761,-6.0553 -3.6706,-9.0352 -11.8776,-5.277 7.3438,-9.6766 -10.9313,-20.2904 -17.0116,-7.2962 -12.6786,8.9146 -12.2232,0.7666 -8.3108,-4.4877 6.5694,-17.3207 14.5594,-8.1762 7.0937,-3.755 9.4592,1.7038 20.0653,-1.6486 3.5258,7.719 9.4378,0.2492 1.064,5.2316 7.4786,2.3501 7.4806,12.0895 7.2645,-4.3946 -0.3168,-9.1189 7.0599,-7.7998 -10.4129,-5.2435 0.6411,-7.3171 16.5345,-4.4559 0.25,20.7594 3.1005,6.5346 -2.5228,17.1727 6.4434,8.7232 -2.3403,11.6409 0.4862,9.9204 -1.9885,6.4335 -8.6539,-4.3437 -13.4433,3.0035 -5.9392,8.2364 -7.2602,4.2434 z"
       id="id55"
       class="svgpath neutral"
       inkscape:connector-curvature="0"
       inkscape:label="#SAMBAVA" />
    <path
       d="m 674.1691,219.761 7.2152,-29.3545 -5.9981,-5.7673 2.1371,-5.5355 -5.533,-19.1169 8.1326,-6.5624 5.3782,-12.6185 -4.0888,-11.301 5.6378,-4.1504 1.4734,-10.0656 2.6313,-8.1462 8.1506,-12.0425 7.8434,-0.7627 7.7808,-3.553 13.5259,19.7304 9.5434,10.5119 -1.1245,15.4403 5.8962,10.9723 5.5928,25.0449 6.8082,12.8265 0.2129,6.565 5.1599,13.495 -16.5345,4.4559 -0.6411,7.3171 10.4129,5.2435 -7.0599,7.7998 0.3168,9.1189 -7.2645,4.3946 -7.4806,-12.0895 -7.4786,-2.3501 -1.064,-5.2316 -9.4378,-0.2492 -3.5258,-7.719 -20.0653,1.6486 -9.4592,-1.7038 -7.0937,3.755 z"
       id="id56"
       class="svgpath neutral"
       inkscape:connector-curvature="0"
       inkscape:label="#VOHEMAR" />
    <path
       d="m 400.2671,991.8374 -8.0295,-4.4025 -1.1537,-5.0071 -13.9316,-10.6085 -6.2523,-12.0725 -16.4214,7.2281 -7.9606,-4.4513 -9.9175,11.0797 -0.9032,9.7221 -7.4373,7.7486 -19.281,-4.7888 -21.3309,8.3605 -2.2873,-1.3248 -1.7807,-10.1948 -1.1169,-9.5314 2.6772,-12.6389 5.6395,-0.9197 -2.4084,-16.7416 1.1946,-23.584 -4.3464,-18.1183 -3.5725,-7.7209 3.2227,-11.908 -3.6113,-2.538 1.8645,-10.569 17.5571,5.6088 13.6628,1.9868 3.6264,8.3883 7.9732,3.7318 10.5085,-3.5275 3.3663,13.1861 -4.1331,3.362 12.7162,7.4671 7.9256,-3.8461 8.239,5.6681 12.204,-3.3599 7.1852,4.7223 12.3087,-1.0847 14.9714,-10.8835 6.1149,6.098 4.0621,13.4971 -7.5871,12.6846 4.9646,7.5635 -6.0552,6.8515 2.4267,8.866 -8.4073,2.9763 -4.1005,5.752 7.0144,7.571 -2.8705,6.0769 6.1738,9.2021 -2.1934,5.44 -10.5098,-1.0175 z"
       id="id25"
       class="svgpath neutral"
       inkscape:connector-curvature="0"
       inkscape:label="#AMBATOFINANDRAHANA" />
    <path
       d="m 436.2726,973.4776 -7.3488,-6.0633 5.9492,-7.4254 -1.9826,-8.0913 -8.4294,-12.6896 -5.6721,0.9111 -4.9646,-7.5635 7.5871,-12.6846 -4.0621,-13.4971 5.8686,-6.3129 13.4875,-0.521 5.6245,25.6437 6.9289,11.149 20.3245,4.2798 9.336,-8.7091 9.5923,-0.8183 1.6558,4.5411 -1.5715,10.2105 2.3312,10.3852 -4.6161,6.6967 -15.223,-0.3416 0.2383,6.2952 -5.6278,5.7514 2.668,10.99 -12.6756,1.9012 -4.1569,-4.5757 -3.9595,-14.5041 -11.3019,5.0426 z"
       id="id27"
       class="svgpath neutral"
       inkscape:connector-curvature="0"
       inkscape:label="#AMBOSITRA" />
    <path
       d="m 436.7054,899.54 -0.9375,-6.4772 14.5682,-6.2278 17.2274,3.8023 0.3685,-3.8389 13.5439,-1.3379 13.3768,2.8602 0.4984,8.6429 -5.0489,12.1289 0.8323,13.7406 -2.6229,8.252 -9.5923,0.8183 -9.336,8.7091 -20.3245,-4.2798 -6.9289,-11.149 -5.6245,-25.6437 z"
       id="id28"
       class="svgpath neutral"
       inkscape:connector-curvature="0"
       inkscape:label="#FANDRIANA" />
    <path
       d="m 412.9703,987.4149 -6.1738,-9.2021 2.8705,-6.0769 -7.0144,-7.571 4.1005,-5.752 8.4073,-2.9763 -2.4267,-8.866 6.0552,-6.8515 5.6721,-0.9111 8.4294,12.6896 1.9826,8.0913 -5.9492,7.4254 7.3488,6.0633 -11.9444,5.21 -3.732,7.54 -7.6259,1.1873 z"
       id="id26"
       class="svgpath neutral"
       inkscape:connector-curvature="0"
       inkscape:label="#MANANDRIANA" />
    <path
       d="m 405.1858,1352.0024 0.95,-12.9248 -4.712,-7.1206 -12.9186,-1.9382 -1.8153,-10.5181 -11.4489,-6.1515 -9.2705,-0.8254 -5.9195,-7.4704 -8.576,-4.2377 6.4147,-17.1614 4.9119,-6.0444 10.4609,-1.929 7.2449,5.504 13.7638,-1.5448 7.2356,-4.8393 3.722,3.1874 0.5764,12.1068 5.6024,6.2351 7.6914,-6.7974 9.3511,2.2068 6.349,-2.3326 -3.8029,27.3994 -1.7794,11.3573 -8.7975,2.5687 1.4095,12.7028 -6.8195,6.63 -9.8235,1.9373 z"
       id="id33"
       class="svgpath neutral"
       inkscape:connector-curvature="0"
       inkscape:label="#BEFOTAKA_SUD" />
    <path
       d="m 498.5835,1234.273 -10.5569,-5.5153 -17.6569,-5.4753 -3.131,-9.5364 -4.9554,-5.0223 4.9696,-14.2071 8.7425,-12.2827 -9.0029,-12.4469 12.6802,-11.1874 0.5668,-9.7448 11.014,2.1867 8.0512,-1.2935 15.5094,6.2022 -3.6472,27.0812 -5.1975,24.0721 -5.6838,16.1395 -1.7021,11.03 z"
       id="path69"
       class="svgpath neutral"
       inkscape:connector-curvature="0" />
    <path
       d="m 401.5068,1274.8008 -2.2923,-6.8433 7.691,-8.1391 -3.6494,-21.8468 -4.5404,-8.5194 4.1598,-6.29 -9.291,-15.2794 4.763,-5.474 9.993,-0.5046 9.5501,5.4869 14.6412,3.3085 0.3398,13.7288 4.0722,2.155 0.9625,7.017 -5.0539,21.2185 5.1557,4.9855 -4.3748,21.8622 1.1658,7.7403 -6.349,2.3326 -9.3511,-2.2068 -7.6914,6.7974 -5.6024,-6.2351 -0.5764,-12.1068 -3.722,-3.1874 z"
       id="id122"
       class="svgpath neutral"
       inkscape:connector-curvature="0"
       inkscape:label="#MIDONGY_SUD" />
    <path
       d="m 462.9312,1334.7611 -3.6786,-4.5005 -10.809,-3.6992 -7.4665,-7.0902 -9.9809,-2.6649 3.8029,-27.3994 -1.1658,-7.7403 4.3748,-21.8622 -5.1557,-4.9855 5.0539,-21.2185 -0.9625,-7.017 6.0055,1.4657 6.5996,-6.9512 17.6898,-7.3519 3.131,9.5364 17.6569,5.4753 10.5569,5.5153 -12.1272,35.7469 -4.1945,26.4427 -12.7958,28.145 -6.5348,10.1535 z"
       id="id30"
       class="svgpath neutral"
       inkscape:connector-curvature="0"
       inkscape:label="#VANGAINDRANO" />
    <path
       d="m 467.2387,1213.746 -17.6898,7.3519 -6.5996,6.9512 -6.0055,-1.4657 -4.0722,-2.155 -0.3398,-13.7288 1.7064,-6.277 6.3553,-3.0448 0.2108,-12.6671 -4.2036,-23.2841 2.721,-9.002 -2.5578,-9.7812 1.5247,-7.2791 -7.8997,-4.7396 -8.5158,-16.116 6.0419,-2.939 3.4485,5.4974 19.2497,7.8687 0.6053,7.7244 13.8251,-2.7686 11.595,13.8627 3.6009,1.1005 -0.5668,9.7448 -12.6802,11.1874 9.0029,12.4469 -8.7425,12.2827 -4.9696,14.2071 4.9554,5.0223 z"
       id="path75"
       class="svgpath neutral"
       inkscape:connector-curvature="0" />
    <path
       d="m 427.915,1115.5697 -6.0419,2.939 -7.737,-1.2988 -6.6667,5.8994 -13.4879,-5.9998 -14.5418,4.9817 -12.6991,-7.8208 -3.5692,-5.5275 -7.0699,-1.3619 0.2676,-8.189 -3.6861,-10.966 -9.0484,-4.0621 -1.6963,-6.7181 -19.0849,-3.1721 9.0297,-8.7883 5.2738,-12.0976 12.2295,-11.6741 8.6397,11.0804 9.6796,-0.2582 3.0654,9.7248 15.9201,2.2684 2.8721,-1.133 13.3593,7.2139 9.3135,-1.368 21.8222,16.359 11.9835,2.3005 6.8271,8.9443 -7.3079,12.2052 -9.4738,-3.0329 -8.1722,9.5516 z"
       id="id36"
       class="svgpath neutral"
       inkscape:connector-curvature="0"
       inkscape:label="#ISANDRA" />
    <path
       d="m 400.2671,991.8374 10.5098,1.0175 2.1934,-5.44 7.6259,-1.1873 3.732,-7.54 11.9444,-5.21 11.3019,-5.0426 3.9595,14.5041 4.1569,4.5757 -1.3065,9.4734 11.6355,4.4299 -4.8535,15.5375 -8.6177,3.8896 -16.7599,-4.3842 -10.1825,10.0203 -12.9094,-15.7592 1.5949,-7.0255 -9.0125,-1.0923 -5.0122,-10.7669 z"
       id="id35"
       class="svgpath neutral"
       inkscape:connector-curvature="0"
       inkscape:label="#AMBOHIMAHASOA" />
    <path
       d="m 446.0418,1087.9015 -11.9835,-2.3005 -21.8222,-16.359 -9.3135,1.368 -13.3593,-7.2139 -2.8721,1.133 -1.0744,-9.8768 8.5346,-5.6447 1.1674,-24.0851 7.1263,-0.1467 -2.9101,-14.7985 -6.7185,-1.4444 -7.7302,-7.5921 -2.5454,-11.6274 9.6967,-1.8785 8.0295,4.4025 5.0122,10.7669 9.0125,1.0923 -1.5949,7.0255 12.9094,15.7592 10.1825,-10.0203 16.7599,4.3842 8.6177,-3.8896 -2.0086,4.8306 5.8545,12.196 -4.965,36.7059 -6.703,12.4179 -7.3025,4.7955 z m -24.8746,-46.8986 4.5727,6.1139 6.64,-8.4469 -4.8456,-4.1822 -6.3671,6.5152 z"
       id="id127"
       class="svgpath neutral"
       inkscape:connector-curvature="0"
       inkscape:label="#LALANGINA" />
    <path
       d="m 421.1672,1041.0029 6.3671,-6.5152 4.8456,4.1822 -6.64,8.4469 -4.5727,-6.1139 z"
       id="id34"
       class="svgpath neutral"
       inkscape:connector-curvature="0"
       inkscape:label="#FIANARANTSOA" />
    <path
       d="m 258.7089,1059.0013 -2.9264,-12.1556 4.5008,-8.4939 2.3692,-12.1618 17.171,-8.1224 1.5653,-5.3964 -2.4577,-12.7625 6.4297,-6.5878 2.2873,1.3248 21.3309,-8.3605 19.281,4.7888 7.4373,-7.7486 0.9032,-9.7221 9.9175,-11.0797 7.9606,4.4513 16.4214,-7.2281 6.2523,12.0725 13.9316,10.6085 1.1537,5.0071 -9.6967,1.8785 2.5454,11.6274 7.7302,7.5921 6.7185,1.4444 2.9101,14.7985 -7.1263,0.1467 -1.1674,24.0851 -8.5346,5.6447 1.0744,9.8768 -15.9201,-2.2684 -3.0654,-9.7248 -9.6796,0.2582 -8.6397,-11.0804 -12.2295,11.6741 -5.2738,12.0976 -9.0297,8.7883 -4.8903,-2.6744 -14.0138,-0.2795 -14.4082,2.7229 -9.9559,-5.9957 -10.645,-3.1145 -3.1251,-5.2914 -7.1062,-0.6398 z"
       id="id37"
       class="svgpath neutral"
       inkscape:connector-curvature="0"
       inkscape:label="#IKALAMAVONY" />
    <path
       d="m 362.8016,1277.6099 -10.7643,-19.8769 5.0109,-3.7691 2.365,-12.9248 -0.4646,-10.521 -10.3098,-3.7767 -10.1846,-15.558 -0.9796,-5.0426 14.6708,-7.9419 9.5247,-9.1826 -1.1024,-6.3489 10.5051,-8.6719 6.5942,-1.3409 14.8807,11.6091 8.7287,0.8223 6.8187,8.6302 0.2454,8.188 -9.993,0.5046 -4.763,5.474 9.291,15.2794 -4.1598,6.29 4.5404,8.5194 3.6494,21.8468 -7.691,8.1391 2.2923,6.8433 -7.2356,4.8393 -13.7638,1.5448 -7.2449,-5.504 -10.4609,1.929 z"
       id="id41"
       class="svgpath neutral"
       inkscape:connector-curvature="0"
       inkscape:label="#IAKORA" />
    <path
       d="m 236.4547,1223.0545 -23.5305,-7.5017 -5.9847,0.3097 -7.8505,-6.4576 -2.2749,-13.0044 6.9243,-14.6879 -1.9559,-6.6761 5.4057,-13.4243 7.7925,-14.3367 9.5205,-8.1203 -0.3494,-10.0258 4.907,-9.9498 4.8686,-3.143 -6.2097,-8.4304 3.037,-4.8703 -8.4319,-5.4477 -1.4058,-7.6349 13.3084,0.1444 6.003,-3.4915 3.2933,-19.0043 14.233,-1.6763 0.9542,-6.6243 7.1062,0.6398 3.1251,5.2914 10.645,3.1145 9.9559,5.9957 14.4082,-2.7229 14.0138,0.2795 4.8903,2.6744 19.0849,3.1721 1.6963,6.7181 9.0484,4.0621 3.6861,10.966 -0.2676,8.189 7.0699,1.3619 3.5692,5.5275 2.1735,11.1984 -1.4276,9.0556 4.7985,9.544 6.8199,0.1576 7.2048,5.4068 -2.2678,11.7094 -9.2963,3.7449 2.9214,7.5675 -6.5942,1.3409 -10.5051,8.6719 1.1024,6.3489 -9.5247,9.1826 -14.6708,7.9419 -5.4116,-11.0367 -10.7878,-4.3875 -2.7619,-7.7597 -10.4175,-5.8134 -15.7861,-2.2064 -22.7425,6.7183 -27.4826,14.8303 -5.6299,26.5688 z"
       id="id39"
       class="svgpath neutral"
       inkscape:connector-curvature="0"
       inkscape:label="#IHOSY" />
    <path
       d="m 432.5318,1210.6996 -14.6412,-3.3085 -9.5501,-5.4869 -0.2454,-8.188 -6.8187,-8.6302 -8.7287,-0.8223 -14.8807,-11.6091 -2.9214,-7.5675 9.2963,-3.7449 2.2678,-11.7094 -7.2048,-5.4068 -6.8199,-0.1576 -4.7985,-9.544 1.4276,-9.0556 -2.1735,-11.1984 12.6991,7.8208 14.5418,-4.9817 13.4879,5.9998 6.6667,-5.8994 7.737,1.2988 8.5158,16.116 7.8997,4.7396 -1.5247,7.2791 2.5578,9.7812 -2.721,9.002 4.2036,23.2841 -0.2108,12.6671 -6.3553,3.0448 -1.7064,6.277 z"
       id="id40"
       class="svgpath neutral"
       inkscape:connector-curvature="0"
       inkscape:label="#IVOHIBE" />
    <path
       d="m 483.5474,1061.628 1.4351,-17.2487 -19.9702,-10.3971 -5.8545,-12.196 2.0086,-4.8306 4.8535,-15.5375 -11.6355,-4.4299 1.3065,-9.4734 12.6756,-1.9012 -2.668,-10.99 5.6278,-5.7514 -0.2383,-6.2952 15.223,0.3416 4.6161,-6.6967 -2.3312,-10.3852 1.5715,-10.2105 13.5317,8.1423 -0.5484,7.1878 4.404,6.4078 6.2668,1.8996 1.1859,6.8021 -3.5196,8.4228 -5.5606,5.9202 0.6432,11.955 3.128,7.0326 -3.4143,5.7563 1.41,13.2356 -5.6111,5.9616 6.0005,15.6955 -4.6457,16.2158 -1.3866,3.9044 -14.9291,-0.8624 -3.5747,2.3248 z"
       id="id42"
       class="svgpath neutral"
       inkscape:connector-curvature="0"
       inkscape:label="#IFANADIANA" />
    <path
       d="m 465.0436,1133.8916 -13.8251,2.7686 -0.6053,-7.7244 -19.2497,-7.8687 -3.4485,-5.4974 8.1722,-9.5516 9.4738,3.0329 7.3079,-12.2052 -6.8271,-8.9443 7.3025,-4.7955 6.703,-12.4179 4.965,-36.7059 19.9702,10.3971 -1.4351,17.2487 -2.2201,9.2191 12.1635,10.0675 -4.7146,4.0782 -2.3708,12.2027 2.8792,9.8874 -0.0826,13.1987 -6.7745,8.0523 -16.2715,-0.5226 -1.1124,6.0803 z"
       id="id43"
       class="svgpath neutral"
       inkscape:connector-curvature="0"
       inkscape:label="#IKONGO" />
    <path
       d="m 489.202,1120.2816 0.0826,-13.1987 -2.8792,-9.8874 2.3708,-12.2027 4.7146,-4.0782 -12.1635,-10.0675 2.2201,-9.2191 3.5747,-2.3248 14.9291,0.8624 1.3866,-3.9044 20.1321,7.991 8.1039,-6.8673 5.4041,11.3815 12.3855,-0.8275 -8.2061,21.5998 -16.6259,38.4016 -8.9462,-3.483 -7.7044,3.2753 -11.2698,0.6309 -7.509,-8.0819 z"
       id="id44"
       class="svgpath neutral"
       inkscape:connector-curvature="0"
       inkscape:label="#MANAKARA" />
    <path
       d="m 503.4378,1056.2612 4.6457,-16.2158 -6.0005,-15.6955 5.6111,-5.9616 -1.41,-13.2356 3.4143,-5.7563 -3.128,-7.0326 -0.6432,-11.955 5.5606,-5.9202 10.2109,-1.1184 4.3669,-8.8066 11.3403,-0.4479 14.2468,7.7063 11.552,-4.1057 14.6821,7.5401 -2.5579,15.4403 -10.1821,26.2604 -4.2854,19.0272 -11.398,31.9546 -12.3855,0.8275 -5.4041,-11.3815 -8.1039,6.8673 -20.1321,-7.991 z"
       id="id45"
       inkscape:label="MANANJARY"
       class="svgpath neutral" />
    <path
       d="m 577.8868,975.2564 -14.6821,-7.5401 -11.552,4.1057 -14.2468,-7.7063 -11.3403,0.4479 -4.3669,8.8066 -10.2109,1.1184 3.5196,-8.4228 -1.1859,-6.8021 -6.2668,-1.8996 -4.404,-6.4078 0.5484,-7.1878 -13.5317,-8.1423 -1.6558,-4.5411 2.6229,-8.252 10.486,9.5147 21.6681,-6.0521 11.9464,3.326 0.1503,-4.9441 8.5196,-19.1393 13.3489,10.6786 8.9512,-1.7066 2.1191,10.088 22.7492,3.1992 -0.8206,6.3658 -8.4799,25.5618 -3.886,15.5313 z"
       id="id47"
       class="svgpath neutral"
       inkscape:connector-curvature="0"
       inkscape:label="#NOSY_VARIKA" />
    <path
       d="m 480.2395,1148.8548 -3.6009,-1.1005 -11.595,-13.8627 1.1124,-6.0803 16.2715,0.5226 6.7745,-8.0523 7.509,8.0819 11.2698,-0.6309 7.7044,-3.2753 8.9462,3.483 -9.8173,28.0099 -15.5094,-6.2022 -8.0512,1.2935 -11.014,-2.1867 z"
       id="id47"
       class="svgpath neutral"
       inkscape:connector-curvature="0"
       inkscape:label="#VOHIPENO" />
    <path
       d="m 304.6005,640.1394 -3.9023,-20.2992 2.2034,-6.447 -5.887,-12.5855 -10.9689,3.7919 -15.8883,-1.2787 -5.8808,-5.924 -5.516,-7.2456 -6.9117,-20.2223 -0.4788,-11.4577 4.3585,-4.8529 17.3322,-5.3517 10.3106,0.3736 12.8138,4.9992 8.7404,-0.5994 11.3103,-8.5452 10.17,18.1375 10.3265,1.6828 4.2613,10.1581 0.8844,13.9539 -5.831,12.8453 1.617,21.392 -10.3528,18.7543 -2.2093,9.0822 -16.5696,-5.7391 -3.9319,-4.6225 z"
       id="id57"
       class="svgpath neutral"
       inkscape:connector-curvature="0"
       inkscape:label="#KANDREHO" />
    <path
       d="m 363.3238,637.577 -5.2718,-2.5102 -22.9804,12.0628 -9.9696,3.3714 2.2093,-9.0822 10.3528,-18.7543 -1.617,-21.392 5.831,-12.8453 -0.8844,-13.9539 6.7978,-10.044 11.4539,0.8325 2.4898,-12.9559 8.8585,0.3058 5.8787,-9.9198 3.411,-10.8407 2.5578,-19.577 11.2039,-1.0739 12.4435,4.3178 4.8907,-5.4709 11.3967,-4.0812 19.6876,5.9743 10.4442,8.0623 -3.4423,6.951 3.9303,19.0539 -5.6642,9.1034 -19.4534,13.2952 5.1366,9.7465 11.0348,7.0679 1.9501,8.0901 6.1308,10.19 2.7561,11.6519 5.2012,6.3356 -0.3239,12.2655 -4.0521,4.8905 -8.3009,-3.0475 -18.9579,3.9664 -4.6311,4.5136 -8.3655,1.1866 -13.4579,-2.6091 -13.8135,-11.5856 -10.7777,5.1405 -14.0835,1.368 z"
       id="id58"
       class="svgpath neutral"
       inkscape:connector-curvature="0"
       inkscape:label="#MAEVATANANA" />
    <path
       d="m 455.7118,638.6441 4.0521,-4.8905 0.3239,-12.2655 -5.2012,-6.3356 -2.7561,-11.6519 -6.1308,-10.19 -1.9501,-8.0901 -11.0348,-7.0679 -5.1366,-9.7465 19.4534,-13.2952 5.6642,-9.1034 -3.9303,-19.0539 3.4423,-6.951 2.4422,-6.798 -19.3799,-14.0495 18.7559,-17.8493 6.534,7.2776 11.9381,3.4475 14.3306,-2.1073 3.2975,8.5962 10.5986,6.0298 15.4764,3.464 4.9375,6.4182 -2.6334,9.2878 5.9935,5.667 6.0364,12.0784 1.8867,10.5654 5.5147,7.6364 8.6644,0.8333 0.0321,16.7146 -3.9824,10.7291 -8.497,11.4001 -16.4193,6.7663 5.4667,12.301 6.1554,5.7224 -3.8965,5.3823 -3.8209,14.2351 -1.6537,6.0995 -4.8706,-9.0161 -6.3646,-5.1094 -14.0351,1.3094 -11.7311,12.4515 -12.4206,3.3494 -12.0712,-4.6004 -3.0804,-9.5908 z"
       id="id59"
       class="svgpath neutral"
       inkscape:connector-curvature="0"
       inkscape:label="#TSARATANANA" />
    <path
       d="m 452.5078,520.0026 -10.4442,-8.0623 -19.6876,-5.9743 -11.3967,4.0812 -4.8907,5.4709 -12.4435,-4.3178 -11.2039,1.0739 -2.5578,19.577 -3.411,10.8407 -5.8787,9.9198 -8.8585,-0.3058 -2.4898,12.9559 -11.4539,-0.8325 -6.7978,10.044 -4.2613,-10.1581 -10.3265,-1.6828 -10.17,-18.1375 -11.3103,8.5452 -8.7404,0.5994 -12.8138,-4.9992 -10.3106,-0.3736 -0.2358,-9.5848 4.0771,-4.8552 -0.4499,-10.526 6.0728,-8.3996 6.9192,2.0236 7.0545,-7.6793 5.8975,-4.049 10.248,-0.2641 10.0706,0.1466 3.6143,3.599 13.159,-4.6686 4.6866,-10.0734 12.6113,-5.7382 6.7578,-8.3263 24.7615,2.6665 14.9421,-3.6825 6.2865,1.9591 9.8949,-6.5461 14.2321,-1.9956 8.3672,-12.9392 4.7872,8.726 9.187,5.5639 -1.344,5.5853 8.2975,2.0755 -2.0958,7.2991 -6.534,-7.2776 -18.7559,17.8493 19.3799,14.0495 -2.4422,6.798 z"
       id="id60"
       class="svgpath neutral"
       inkscape:connector-curvature="0"
       inkscape:label="#AMBATO_BOENI" />
    <path
       d="m 341.3347,433.8052 -2.6952,-7.286 11.4243,-12.5529 -4.1661,-9.6652 9.9241,-8.7234 24.6196,-16.1392 2.4009,-3.404 20.577,-16.0786 7.9328,-3.3739 2.9485,9.9694 11.0027,5.5012 -9.2096,9.5439 -2.2189,6.4132 9.6654,0.3342 9.4683,-3.3736 0.1281,8.2345 -3.4114,7.4339 4.4028,15.4709 -4.5184,5.5136 7.7303,7.8337 2.2314,7.0889 -13.1991,-4.3536 -4.7437,3.4384 -15.3216,-2.0243 -16.7298,7.0112 -6.643,-9.3692 -9.3648,2.7129 -6.2017,-2.8646 -13.4387,11.6409 -12.5942,-8.9323 z"
       id="MAHAJANGA_II"
       class="svgpath neutral"
       inkscape:connector-curvature="0"
       inkscape:label="#MAHAJANGA_II" />
    <path
       d="m 350.0638,413.9663 -8.4661,0.4255 4.3,-10.0907 4.1661,9.6652 z"
       id="path115"
       class="svgpath neutral"
       inkscape:connector-curvature="0" />
    <path
       d="m 312.6442,504.9323 1.3954,-14.5228 10.2351,-13.3385 -4.3185,-9.6732 0.7764,-10.0093 8.0446,-8.135 8.8435,-14.0898 3.714,-1.3585 12.5942,8.9323 13.4387,-11.6409 6.2017,2.8646 9.3648,-2.7129 6.643,9.3692 16.7298,-7.0112 15.3216,2.0243 4.7437,-3.4384 13.1991,4.3536 -3.9027,5.9737 6.3595,16.8141 -8.3672,12.9392 -14.2321,1.9956 -9.8949,6.5461 -6.2865,-1.9591 -14.9421,3.6825 -24.7615,-2.6665 -6.7578,8.3263 -12.6113,5.7382 -4.6866,10.0734 -13.159,4.6686 -3.6143,-3.599 -10.0706,-0.1466 z"
       id="id63"
       class="svgpath neutral"
       inkscape:connector-curvature="0"
       inkscape:label="#MAROVOAY" />
    <path
       d="m 296.4987,509.2454 -9.7175,-11.7971 -5.8132,-0.788 -5.1849,-7.8298 -2.7498,-15.8273 -7.4411,-0.009 -2.7151,-22.2771 4.9537,-15.2315 -2.3404,-8.085 6.6258,-5.6836 10.2126,0.4254 13.0997,-3.7385 13.5255,4.5288 9.088,-9.3311 15.5011,-0.1518 -0.0305,11.337 5.1269,1.7325 2.6952,7.286 -3.714,1.3585 -8.8435,14.0898 -8.0446,8.135 -0.7764,10.0093 4.3185,9.6732 -10.2351,13.3385 -1.3954,14.5228 -10.248,0.2641 -5.8975,4.049 z"
       id="id64"
       class="svgpath neutral"
       inkscape:connector-curvature="0"
       inkscape:label="#MITSINJO" />
    <path
       d="m 273.0608,548.2667 -17.3322,5.3517 -0.379,-5.5236 -19.1762,-0.7332 1.1241,-7.9448 -7.7057,-8.5563 -0.9805,-11.9041 -10.0147,-6.3587 -4.5325,0.7893 -13.0856,-11.8151 -0.6774,-6.2473 -7.312,-7.2626 1.5702,-11.2009 -8.5801,-8.9756 20.158,-15.38 5.7985,-6.534 14.0118,-8.6318 4.7417,10.881 -2.8271,7.7505 12.9787,-4.4071 4.2854,-8.9057 12.7654,-3.6776 4.9855,11.7362 2.7151,22.2771 7.4411,0.009 2.7498,15.8273 5.1849,7.8298 5.8132,0.788 9.7175,11.7971 -7.0545,7.6793 -6.9192,-2.0236 -6.0728,8.3996 0.4499,10.526 -4.0771,4.8552 0.2358,9.5848 z"
       id="id65"
       class="svgpath neutral"
       inkscape:connector-curvature="0"
       inkscape:label="#SOALALA" />
    <path
       d="m 261.1089,692.7261 -3.1714,-4.0189 -0.2416,-10.8817 -2.8868,-8.7019 3.6126,-3.5177 -2.6501,-8.5991 -10.6103,-1.479 -9.5702,-8.4459 -6.0348,2.0911 -4.8539,-21.2175 -7.3325,1.4889 -6.514,-15.2763 10.38,-6.3159 30.3788,2.6588 -1.8177,-8.1003 4.6177,-4.411 9.8619,-0.6028 5.8808,5.924 15.8883,1.2787 10.9689,-3.7919 5.887,12.5855 -2.2034,6.447 3.9023,20.2992 -2.1759,14.5872 -6.6388,10.0213 -8.9925,0.2968 -3.9027,5.2845 -10.1959,1.4242 -6.7627,4.3111 -4.8231,16.6616 z"
       id="id73"
       class="svgpath neutral"
       inkscape:connector-curvature="0"
       inkscape:label="#AMBATOMAINTY" />
    <path
       d="m 211.9082,798.38 -3.3254,2.161 -18.392,1.543 -10.6387,3.6685 -9.4938,-12.5089 -14.046,-2.4318 -32.6662,-0.413 -6.6354,-6.1093 -1.8541,-15.3186 2.9176,-12.4008 -1.1549,-6.7172 -11.8822,-28.6037 11.5303,-0.657 5.4124,3.8994 5.4142,-5.9872 7.6238,-0.5691 3.9741,-8.9318 9.0822,-0.831 11.2773,-7.9348 -0.6544,-6.4967 15.185,-2.2637 -0.6516,7.5658 4.0739,3.8879 5.3753,9.0624 10.1157,32.0879 6.9138,8.3849 -3.3517,8.1179 7.4172,11.5659 2.1258,8.6056 -3.2064,11.2177 9.5142,6.4067 z"
       id="id74"
       class="svgpath neutral"
       inkscape:connector-curvature="0"
       inkscape:label="#ANTSALOVA" />
    <path
       d="m 185.6073,606.6803 -5.3744,-8.919 -8.2792,-2.849 -1.1103,-9.9251 -7.0937,-0.9066 -3.8756,-10.1093 -8.209,-0.6085 -5.8549,-9.0084 -13.2053,-8.492 -10.3929,-14.8639 4.8632,-9.1027 8.6318,-9.27 0.5168,-15.9569 4.5288,-7.6595 -6.9907,-16.7776 4.9846,-17.5375 34.1021,1.7933 8.1156,5.2885 5.015,-3.8906 8.5801,8.9756 -1.5702,11.2009 7.312,7.2626 0.6774,6.2473 13.0856,11.8151 4.5325,-0.7893 10.0147,6.3587 0.9805,11.9041 7.7057,8.5563 -1.1241,7.9448 19.1762,0.7332 0.379,5.5236 -4.3585,4.8529 0.4788,11.4577 6.9117,20.2223 5.516,7.2456 -9.8619,0.6028 -4.6177,4.411 1.8177,8.1003 -30.3788,-2.6588 -5.4651,-2.7221 -12.9891,3.904 -9.0263,-4.8786 -8.1481,2.5248 z"
       id="id75"
       class="svgpath neutral"
       inkscape:connector-curvature="0"
       inkscape:label="#BESALAMPY" />
    <path
       d="m 122.212,540.9985 10.3929,14.8639 13.2053,8.492 5.8549,9.0084 8.209,0.6085 3.8756,10.1093 7.0937,0.9066 1.1103,9.9251 8.2792,2.849 5.3744,8.919 -1.9204,1.9485 -23.3273,0.4092 -8.1673,11.1102 -2.2168,9.9605 -10.0974,-0.8824 4.356,23.5374 4.6724,10.0803 -3.2499,11.1748 1.1258,9.3093 11.6146,10.4129 0.6544,6.4967 -11.2773,7.9348 -9.0822,0.831 -3.9741,8.9318 -7.6238,0.5691 -5.4142,5.9872 -5.4124,-3.8994 -11.5303,0.657 -10.7614,-14.6777 0,-20.4856 -3.3739,-18.8444 -0.1519,-13.3431 2.7966,-11.7625 -8.5104,-9.6351 -3.2829,-23.0391 7.6593,-17.6588 9.7263,-12.5224 5.4104,-13.8292 7.7808,-6.9301 10.182,-17.5227 z"
       id="id76"
       class="svgpath neutral"
       inkscape:connector-curvature="0"
       inkscape:label="#MAINTIRANO" />
    <path
       d="m 177.0043,702.931 -4.0739,-3.8879 0.6516,-7.5658 -15.185,2.2637 -11.6146,-10.4129 -1.1258,-9.3093 3.2499,-11.1748 -4.6724,-10.0803 -4.356,-23.5374 10.0974,0.8824 2.2168,-9.9605 8.1673,-11.1102 23.3273,-0.4092 1.9204,-1.9485 8.1481,-2.5248 9.0263,4.8786 12.9891,-3.904 5.4651,2.7221 -10.38,6.3159 6.514,15.2763 7.3325,-1.4889 4.8539,21.2175 6.0348,-2.0911 9.5702,8.4459 10.6103,1.479 2.6501,8.5991 -3.6126,3.5177 2.8868,8.7019 0.2416,10.8817 3.1714,4.0189 -0.7976,3.2714 -25.1438,-2.4906 -17.6974,-7.7464 -8.308,5.5193 -9.02,-7.9147 -10.5774,12.5412 -9.7496,2.6547 -2.8108,4.37 z"
       id="id77"
       class="svgpath neutral"
       inkscape:connector-curvature="0"
       inkscape:label="#MORAFENOBE" />
    <path
       d="m 503.3448,379.1745 -16.0996,6.1208 -4.7534,-5.4892 -16.3813,4.6667 -17.4394,-4.6177 -6.9994,0.86 -8.8005,-6.626 0.8511,-7.4465 -6.2915,-0.9118 -5.0151,-10.5468 6.4739,-8.5713 10.3035,-5.9876 1.4288,-6.0181 8.1151,-6.9906 -0.6991,-8.024 18.8748,-20.1212 5.1975,4.7415 -2.2189,5.623 3.9516,5.4406 -12.7049,17.8414 -0.2129,13.2519 8.1156,-1.6716 18.601,-30.1208 5.5014,-13.0999 11.4585,-11.7018 12.2185,9.9692 9.1791,-0.8812 -1.5197,12.9552 -4.2513,5.8743 -12.0896,-5.6634 -3.0211,18.3398 -0.4012,11.7782 -8.7591,8.9194 -3.4185,16.9234 2.1037,6.2508 8.7024,4.9333 z m 21.416,-86.754 -8.0621,-3.739 -4.8632,3.6168 -16.0787,-5.7141 -2.006,-17.5071 2.4923,-6.3829 13.7079,-9.027 9.7872,-1.3981 3.1305,7.7201 6.8082,-4.5287 -2.5833,-6.5348 4.8932,-10.5165 -4.583,-13.7125 25.8488,-12.7954 -3.8151,9.9852 5.6287,11.5884 11.5011,3.9478 1.852,6.1909 8.8731,2.9646 -4.9112,20.1256 -9.8055,23.0882 -11.2173,3.3956 -1.4943,-10.7967 -18.2947,-0.0879 -6.8086,10.1175 z"
       id="id66"
       class="svgpath neutral"
       inkscape:connector-curvature="0"
       inkscape:label="#ANALALAVA" />
    <path
       d="m 531.4212,382.8663 -10.6324,-7.7797 -6.0949,3.702 -4.9537,-5.1973 -6.3954,5.5832 -8.7024,-4.9333 -2.1037,-6.2508 3.4185,-16.9234 8.7591,-8.9194 0.4012,-11.7782 3.0211,-18.3398 12.0896,5.6634 4.2513,-5.8743 4.1639,-6.2077 -3.8826,-13.1905 6.8086,-10.1175 18.2947,0.0879 1.4943,10.7967 11.2173,-3.3956 3.8693,10.2951 -2.5282,3.4882 7.7891,7.4394 8.7174,-3.7321 6.0273,1.3384 3.6898,9.5883 6.0056,-3.2553 1.4926,5.478 -7.5783,10.1346 -13.5631,0.6559 -9.1081,-13.4292 -9.6403,3.58 0.67,10.7342 5.2571,5.144 -12.2966,12.1157 -0.5351,12.2004 -3.507,5.2163 3.4452,8.4725 -10.5298,1.028 -8.8314,6.5819 z"
       id="id67"
       class="svgpath neutral"
       inkscape:connector-curvature="0"
       inkscape:label="#ANTSOHIHY" />
    <path
       d="m 596.146,314.954 -6.0056,3.2553 -3.6898,-9.5883 -6.0273,-1.3384 -8.7174,3.7321 -7.7891,-7.4394 2.5282,-3.4882 -3.8693,-10.2951 9.8055,-23.0882 4.9112,-20.1256 9.3197,-0.5599 13.1022,5.7967 6.4814,-3.5781 9.6716,6.0974 17.5075,-13.0345 14.8537,5.744 -0.1962,6.7456 20.1517,21.7639 11.5152,5.5997 -5.3707,4.733 10.1062,16.9454 -1.38,2.7372 -8.3171,1.4073 -12.5817,-2.7126 -3.2061,3.3774 -13.9946,1.0589 2.7582,7.3632 -15.8596,14.835 -6.4509,3.3631 -5.3937,-9.8443 -8.416,-3.1382 -4.4328,-5.3016 -11.0144,-1.0228 z"
       id="id68"
       class="svgpath neutral"
       inkscape:connector-curvature="0"
       inkscape:label="#BEALANANA" />
    <path
       d="m 552.6048,397.1119 -14.329,-1.879 -6.8546,-12.3666 8.8314,-6.5819 10.5298,-1.028 -3.4452,-8.4725 3.507,-5.2163 0.5351,-12.2004 12.2966,-12.1157 -5.2571,-5.144 -0.67,-10.7342 9.6403,-3.58 9.1081,13.4292 13.5631,-0.6559 7.5783,-10.1346 -1.4926,-5.478 11.0144,1.0228 4.4328,5.3016 8.416,3.1382 5.3937,9.8443 6.4509,-3.3631 15.8596,-14.835 -2.7582,-7.3632 13.9946,-1.0589 3.2061,-3.3774 12.5817,2.7126 8.3171,-1.4073 5.6763,8.1498 -3.0642,31.5916 -10.3937,-2.0092 1.3979,17.4358 -20.7273,6.6841 -16.201,6.8469 -0.4379,10.0119 -12.3834,6.7418 -5.3344,-8.2024 -14.4797,-4.617 -4.3731,6.736 -13.3927,8.4648 -1.1633,8.8412 -13.2391,3.5059 -5.7243,-8.2263 -10.079,2.2453 -6.531,-2.6569 z"
       id="id69"
       class="svgpath neutral"
       inkscape:connector-curvature="0"
       inkscape:label="#BEFANDRIANA_NORD" />
    <path
       d="m 516.5012,508.0136 -15.4764,-3.464 -10.5986,-6.0298 -3.2975,-8.5962 -14.3306,2.1073 -11.9381,-3.4475 2.0958,-7.2991 -8.2975,-2.0755 1.344,-5.5853 -9.187,-5.5639 -4.7872,-8.726 -6.3595,-16.8141 3.9027,-5.9737 8.0421,8.8301 12.3125,-4.0415 7.9193,-9.0495 12.2186,-0.6311 4.2045,-9.8765 5.4759,-1.3961 2.1512,10.4783 7.0057,-0.7085 7.9832,10.389 23.7239,3.3531 21.7845,26.587 -12.9599,4.6429 -16.8396,-3.9555 -5.8027,10.9288 2.6755,8.9151 -3.6113,4.7319 0.6465,12.2703 z"
       id="id70"
       class="svgpath neutral"
       inkscape:connector-curvature="0"
       inkscape:label="#MAMPIKONY" />
    <path
       d="m 629.1403,519.1772 -24.8546,-0.115 -5.2359,-2.892 -7.461,-22.8462 -8.9817,-4.6682 -5.7826,-7.4304 -5.1854,0.695 -13.6532,-10.8063 2.1797,-8.9712 -9.7397,-11.2769 -2.6041,-14.9304 11.2272,-11.4692 3.0395,-7.9264 -9.4837,-19.4281 6.531,2.6569 10.079,-2.2453 5.7243,8.2263 13.2391,-3.5059 1.1633,-8.8412 13.3927,-8.4648 4.3731,-6.736 14.4797,4.617 5.3344,8.2024 12.3834,-6.7418 9.6533,1.5577 -4.834,6.6588 2.1626,4.3848 -5.1616,21.4586 4.9095,2.9576 2.4602,12.4905 3.35,2.8199 10.5457,10.2597 -5.3607,7.9297 2.4676,5.2282 0.1056,12.1856 -7.0423,9.7332 0.654,12.8616 -10.6683,3.0128 -13.4061,21.359 z"
       id="id71"
       class="svgpath neutral"
       inkscape:connector-curvature="0"
       inkscape:label="#MANDRITSARA" />
    <path
       d="m 557.9859,471.1141 -5.5932,-0.634 -21.7845,-26.587 -23.7239,-3.3531 -7.9832,-10.389 -7.0057,0.7085 -2.1512,-10.4783 -5.4759,1.3961 -4.2045,9.8765 -12.2186,0.6311 -7.9193,9.0495 -12.3125,4.0415 -8.0421,-8.8301 -2.2314,-7.0889 -7.7303,-7.8337 4.5184,-5.5136 -4.4028,-15.4709 3.4114,-7.4339 -0.1281,-8.2345 8.6632,-4.2552 6.9994,-0.86 17.4394,4.6177 16.3813,-4.6667 4.7534,5.4892 16.0996,-6.1208 6.3954,-5.5832 4.9537,5.1973 6.0949,-3.702 10.6324,7.7797 6.8546,12.3666 14.329,1.879 9.4837,19.4281 -3.0395,7.9264 -11.2272,11.4692 2.6041,14.9304 9.7397,11.2769 -2.1797,8.9712 z"
       id="id72"
       class="svgpath neutral"
       inkscape:connector-curvature="0"
       inkscape:label="#PORT_BERGE" />
    <path
       d="m 529.3025,697.9111 -1.7831,-29.1778 -10.3574,-10.659 3.1234,-8.2238 1.6537,-6.0995 9.8432,0.6351 9.8791,8.5118 6.6066,-10.54 18.0188,-7.551 11.5624,-9.0173 2.893,-6.4599 -1.2217,-8.6317 10.0577,-14.5009 19.8278,1.4419 3.5128,-3.3256 5.5105,-0.2384 -0.763,10.8341 -4.6807,3.0034 -9.5585,17.818 13.5359,-0.744 2.2506,12.2885 -1.2985,11.8943 -8.0988,0.841 -8.6027,9.6518 10.5302,11.4426 1.1671,9.1276 0.543,3.0647 -12.5746,6.8846 -10.584,-0.9844 -11.5904,14.0443 -0.1783,3.5957 -17.3826,-11.7859 0.942,-18.7885 -11.6045,0.6791 -4.7901,3.7061 -0.0518,14.8739 -16.3371,2.3892 z"
       id="id121"
       class="svgpath neutral"
       inkscape:connector-curvature="0"
       inkscape:label="#AMBATONDRAZAKA" />
    <path
       d="m 521.9391,643.751 3.8209,-14.2351 3.8965,-5.3823 -6.1554,-5.7224 -5.4667,-12.301 16.4193,-6.7663 8.497,-11.4001 3.9824,-10.7291 -0.0321,-16.7146 8.2683,-3.9277 16.5182,17.0982 11.6977,5.0998 6.7715,-3.8069 7.0678,0.7014 11.5182,-6.2445 5.271,0.5132 2.4693,2.1164 -3.5642,22.2634 -3.5128,3.3256 -19.8278,-1.4419 -10.0577,14.5009 1.2217,8.6317 -2.893,6.4599 -11.5624,9.0173 -18.0188,7.551 -6.6066,10.54 -9.8791,-8.5118 -9.8432,-0.6351 z"
       id="id120"
       class="svgpath neutral"
       inkscape:connector-curvature="0"
       inkscape:label="#AMPARAFARAVOLA" />
    <path
       d="m 546.901,560.5001 -8.6644,-0.8333 -5.5147,-7.6364 -1.8867,-10.5654 -6.0364,-12.0784 -5.9935,-5.667 2.6334,-9.2878 -4.9375,-6.4182 -0.6465,-12.2703 3.6113,-4.7319 -2.6755,-8.9151 5.8027,-10.9288 16.8396,3.9555 12.9599,-4.6429 5.5932,0.634 13.6532,10.8063 5.1854,-0.695 5.7826,7.4304 8.9817,4.6682 7.461,22.8462 5.2359,2.892 24.8546,0.115 -6.2777,5.0883 -6.7064,16.1013 2.6588,1.7115 -1.6458,10.9927 -4.5296,8.001 1.3741,8.8616 -5.271,-0.5132 -11.5182,6.2445 -7.0678,-0.7014 -6.7715,3.8069 -11.6977,-5.0998 -16.5182,-17.0982 -8.2683,3.9277 z"
       id="id99"
       class="svgpath neutral"
       inkscape:connector-curvature="0"
       inkscape:label="#ANDILAMENA" />
    <path
       d="m 512.167,856.4398 -3.0734,-5.3538 2.2419,-17.439 5.0731,-6.0542 -0.7442,-10.2461 5.0409,-9.9659 5.0464,0.5802 11.0799,-5.0024 3.9874,-7.5305 16.3755,-1.3338 11.4289,11.2702 -1.7715,6.8999 4.5964,16.9872 -9.1523,2.5129 -2.3855,16.3254 1.7439,6.9656 -4.828,6.1237 -12.3372,-0.116 -7.6388,-3.8877 -24.6834,-0.7357 z"
       id="id123"
       class="svgpath neutral"
       inkscape:connector-curvature="0"
       inkscape:label="#ANOSIBE_ANALA" />
    <path
       d="m 515.6848,791.2574 -0.3485,-7.5483 5.3749,-14.071 -1.2468,-15.708 0.4954,-21.2708 5.8032,-8.9449 0.2884,-12.6412 4.9111,-6.4338 -1.66,-6.7283 16.3371,-2.3892 0.0518,-14.8739 4.7901,-3.7061 11.6045,-0.6791 -0.942,18.7885 17.3826,11.7859 5.8086,18.3172 -4.2099,5.1796 7.7674,21.6136 6.6571,2.6301 -1.2359,7.8648 4.6536,7.6178 0.9195,14.949 2.9874,2.388 -11.5904,3.487 0.1778,9.9349 -6.9597,2.4967 -7.5095,7.5932 -7.3692,-5.5446 -11.4289,-11.2702 -16.3755,1.3338 -3.9874,7.5305 -11.0799,5.0024 -5.0464,-0.5802 1.3044,-10.8297 -6.3249,-5.2937 z"
       id="id119"
       class="svgpath neutral"
       inkscape:connector-curvature="0"
       inkscape:label="#MORAMANGA" />
    <path
       d="m 688.3954,617.1356 -8.8948,1.9747 -9.728,-4.9833 2.7895,-16.7706 -1.074,-9.8074 -9.6027,10.8165 -4.9178,-9.7323 -14.6032,-12.7569 -7.8918,1.9873 -8.8936,-6.4253 -9.096,0.6117 -2.4693,-2.1164 -1.3741,-8.8616 4.5296,-8.001 1.6458,-10.9927 13.0246,4.2678 8.3664,-5.9946 7.1568,7.2528 10.9739,-3.2774 9.0534,7.8657 9.4195,-2.8519 6.4676,6.8631 10.2881,5.8991 -11.1876,25.9616 -0.6386,7.2642 6.5348,10.9117 0.1215,10.8952 z"
       id="id114"
       class="svgpath neutral"
       inkscape:connector-curvature="0"
       inkscape:label="#FENERIVE_EST" />
    <path
       d="m 724.0481,511.573 -13.9178,-0.8542 -18.1958,-3.9609 -13.6098,-5.3217 -11.256,-12.1779 -8.0784,-12.1931 0.6127,-4.8546 -0.1056,-12.1856 -2.4676,-5.2282 5.3607,-7.9297 -10.5457,-10.2597 18.7589,-6.1013 14.4775,0.282 10.5874,-4.5864 14.0539,1.3761 4.6903,5.0091 -4.255,15.9377 5.5319,11.793 11.2456,3.7384 3.4043,4.6808 -4.7417,11.7928 5.0456,12.6744 -3.1305,13.9508 -3.4649,4.4182 z"
       id="id117"
       class="svgpath neutral"
       inkscape:connector-curvature="0"
       inkscape:label="#MANANARA_NORD" />
    <path
       d="m 747.026,425.8958 -5.1974,-9.8626 0.3343,-12.1577 -8.3889,-7.6897 1.5197,-12.5833 -4.3464,-2.1275 -14.7714,2.006 -5.8661,3.009 -6.5653,8.8446 3.8601,16.9298 6.8082,20.3225 -4.6903,-5.0091 -14.0539,-1.3761 -10.5874,4.5864 -14.4775,-0.282 -18.7589,6.1013 -3.35,-2.8199 -2.4602,-12.4905 -4.9095,-2.9576 5.1616,-21.4586 -2.1626,-4.3848 4.834,-6.6588 -9.6533,-1.5577 0.4379,-10.0119 16.201,-6.8469 20.7273,-6.6841 -1.3979,-17.4358 10.3937,2.0092 3.0642,-31.5916 19.8052,25.379 6.0085,5.6513 8.3618,-4.5209 1.6901,12.0425 9.8623,12.0553 10.0344,-2.8144 4.919,5.7877 -5.1144,5.7129 7.2928,4.6457 -3.815,9.874 -1.3035,16.6799 -2.5479,3.7015 6.395,7.1243 2.8747,8.958 -6.168,1.9006 z"
       id="id115"
       class="svgpath neutral"
       inkscape:connector-curvature="0"
       inkscape:label="#MAROANTSETRA" />
    <path
       d="m 724.9981,564.3264 5.1286,-18.419 7.1731,1.0944 -12.3017,17.3246 z"
       id="path163"
       class="svgpath neutral"
       inkscape:connector-curvature="0" />
    <path
       d="m 693.5653,562.1029 -10.2881,-5.8991 -6.4676,-6.8631 -9.4195,2.8519 -9.0534,-7.8657 -10.9739,3.2774 -7.1568,-7.2528 -8.3664,5.9946 -13.0246,-4.2678 -2.6588,-1.7115 6.7064,-16.1013 6.2777,-5.0883 13.4061,-21.359 10.6683,-3.0128 -0.654,-12.8616 7.0423,-9.7332 -0.6127,4.8546 8.0784,12.1931 11.256,12.1779 13.6098,5.3217 18.1958,3.9609 13.9178,0.8542 -7.3859,17.405 7.7808,8.3585 -19.8775,4.2249 -11.0002,20.5415 z"
       id="id116"
       class="svgpath neutral"
       inkscape:connector-curvature="0"
       inkscape:label="#SOANIERANA_IVONGO" />
    <path
       d="m 619.2136,637.275 -2.2506,-12.2885 -13.5359,0.744 9.5585,-17.818 4.6807,-3.0034 0.763,-10.8341 -5.5105,0.2384 3.5642,-22.2634 9.096,-0.6117 8.8936,6.4253 7.8918,-1.9873 14.6032,12.7569 4.9178,9.7323 9.6027,-10.8165 1.074,9.8074 -2.7895,16.7706 -4.5484,2.6492 -0.7121,9.6547 -12.3004,11.1127 -9.02,-5.0739 -15.5503,6.2005 -8.4278,-1.3952 z"
       id="id113"
       class="svgpath neutral"
       inkscape:connector-curvature="0"
       inkscape:label="#VAVATENINA" />
    <path
       d="m 601.8744,787.3973 -2.9874,-2.388 -0.9195,-14.949 -4.6536,-7.6178 1.2359,-7.8648 -6.6571,-2.6301 -7.7674,-21.6136 4.2099,-5.1796 -5.8086,-18.3172 0.1783,-3.5957 11.5904,-14.0443 10.584,0.9844 12.5746,-6.8846 -0.543,-3.0647 7.1714,-2.8498 11.1696,1.2325 5.4479,11.1672 -1.5452,7.7975 20.6317,14.9623 13.46,1.9065 -8.4182,20.0553 -12.401,33.5856 -10.6683,24.8881 -9.8682,-7.5522 0.4687,-6.3785 -8.699,0.2174 -7.1009,-3.3642 -1.1015,9.456 -9.5835,2.0413 z"
       id="id102"
       class="svgpath neutral"
       inkscape:connector-curvature="0"
       inkscape:label="#BRICKAVILLE" />
    <path
       d="m 567.4,863.0953 -10.5736,-1.9161 4.828,-6.1237 -1.7439,-6.9656 2.3855,-16.3254 9.1523,-2.5129 -4.5964,-16.9872 1.7715,-6.8999 7.3692,5.5446 7.5095,-7.5932 10.0117,11.8559 4.1645,19.5934 -6.8529,12.5678 -4.3001,4.3741 -14.8369,0.8142 -4.2884,10.574 z"
       id="id129"
       class="svgpath neutral"
       inkscape:connector-curvature="0"
       inkscape:label="#ANTANAMBAO_MANAMPOTSY" />
    <path
       d="m 591.0733,927.7975 -22.7492,-3.1992 -2.1191,-10.088 -8.9512,1.7066 -13.3489,-10.6786 4.3213,-5.3521 -1.4337,-11.4598 2.4284,-4.8765 9.9028,-4.1479 1.6062,-10.6786 6.6701,-5.9281 4.2884,-10.574 14.8369,-0.8142 4.3001,-4.3741 13.3856,2.1748 10.3399,-3.8031 5.4575,1.7631 -4.1031,18.643 1.1245,5.8052 -9.9387,23.2518 -4.7722,6.5953 -11.2456,26.0344 z"
       id="id107"
       class="svgpath neutral"
       inkscape:connector-curvature="0"
       inkscape:label="#MAHANORO" />
    <path
       d="m 491.1345,922.8331 -0.8323,-13.7406 5.0489,-12.1289 -0.4984,-8.6429 6.2252,-3.0769 -6.3137,-8.6729 11.249,-7.9914 5.276,-1.0573 0.8778,-11.0824 24.6834,0.7357 7.6388,3.8877 12.3372,0.116 10.5736,1.9161 -6.6701,5.9281 -1.6062,10.6786 -9.9028,4.1479 -2.4284,4.8765 1.4337,11.4598 -4.3213,5.3521 -8.5196,19.1393 -0.1503,4.9441 -11.9464,-3.326 -21.6681,6.0521 -10.486,-9.5147 z"
       id="id108"
       class="svgpath neutral"
       inkscape:connector-curvature="0"
       inkscape:label="#MAROLAMBO" />
    <path
       d="m 669.2463,714.4485 -13.46,-1.9065 -20.6317,-14.9623 1.5452,-7.7975 -5.4479,-11.1672 -11.1696,-1.2325 -7.1714,2.8498 -1.1671,-9.1276 -10.5302,-11.4426 8.6027,-9.6518 8.0988,-0.841 1.2985,-11.8943 8.4278,1.3952 15.5503,-6.2005 9.02,5.0739 12.3004,-11.1127 0.7121,-9.6547 4.5484,-2.6492 9.728,4.9833 8.8948,-1.9747 4.8936,12.9033 -9.8782,30.1208 -3.1915,14.2851 2.067,4.0425 -5.3799,9.1181 -3.5863,20.2123 -4.0738,6.6308 z"
       id="id109"
       class="svgpath neutral"
       inkscape:connector-curvature="0"
       inkscape:label="#TOAMASINA_II" />
    <path
       d="m 590.8254,847.333 6.8529,-12.5678 -4.1645,-19.5934 -10.0117,-11.8559 6.9597,-2.4967 -0.1778,-9.9349 11.5904,-3.487 9.5835,-2.0413 1.1015,-9.456 7.1009,3.3642 8.699,-0.2174 -0.4687,6.3785 9.8682,7.5522 -3.0395,15.6883 -13.0693,29.4518 -1.6416,9.3502 -5.4575,-1.7631 -10.3399,3.8031 -13.3856,-2.1748 z"
       id="id105"
       class="svgpath neutral"
       inkscape:connector-curvature="0"
       inkscape:label="#VATOMANDRY" />
    <path
       d="m 287.5868,1473.2051 1.0376,-15.1694 -7.9786,1.5289 -8.7917,-9.303 -1.6099,-11.9613 -6.557,-1.646 -13.957,6.2051 -12.1101,-0.9214 0.3581,-8.2107 -6.4054,-4.936 7.4928,-12.7005 1.1052,-11.2535 15.0661,-23.1969 11.0925,-10.2808 15.0715,-18.0803 0.9863,-10.7673 5.3665,-0.1716 7.9415,5.756 1.6366,7.1163 11.916,16.7259 -11.6296,0.379 6.8024,13.8729 1.5285,12.468 5.8332,8.8143 -4.7822,5.8354 8.9812,10.5311 8.2579,2.7214 2.8513,6.2529 10.4008,4.4608 -0.8895,14.4723 -32.4196,12.3096 -16.5954,9.1488 z"
       id="id78"
       class="svgpath neutral"
       inkscape:connector-curvature="0"
       inkscape:label="#AMBOVOMBE" />
    <path
       d="m 240.1708,1404.8373 -22.0287,-12.8228 -4.1532,-10.1547 -6.8245,0.8154 2.1008,-6.4159 -4.8281,-11.9512 1.7356,-14.6235 8.788,-10.7913 -0.1524,-9.8719 4.2103,-11.6797 -0.9412,-6.275 3.4093,-11.1415 24.1346,-6.2011 7.9222,12.2211 -2.5156,10.6785 5.7831,3.2994 9.0296,-2.3141 16.7946,2.1659 1.2922,12.487 6.7047,3.2638 -2.8784,6.8147 -5.3665,0.1716 -0.9863,10.7673 -15.0715,18.0803 -11.0925,10.2808 -15.0661,23.1969 z"
       id="id79"
       class="svgpath neutral"
       inkscape:connector-curvature="0"
       inkscape:label="#BEKILY" />
    <path
       d="m 145.8891,1460.744 -2.2373,-5.3548 6.6196,-8.5528 27.488,-24.7467 11.4075,-5.7175 6.8137,-11.6434 7.9561,-4.3644 3.2277,-17.6892 6.8245,-0.8154 4.1532,10.1547 22.0287,12.8228 -1.1052,11.2535 -7.4928,12.7005 6.4054,4.936 -0.3581,8.2107 -8.2057,2.0173 0.3035,10.089 9.1757,2.5399 -5.708,9.5213 -6.8658,-0.1567 -12.5262,8.3081 -0.6353,15.5434 -17.2708,-8.3889 -3.8296,-6.2308 -16.9294,-9.696 -29.2394,-4.7406 z"
       id="id80"
       class="svgpath neutral"
       inkscape:connector-curvature="0"
       inkscape:label="#BELOHA_ANDROY" />
    <path
       d="m 213.1583,1489.8003 0.6353,-15.5434 12.5262,-8.3081 6.8658,0.1567 5.708,-9.5213 -9.1757,-2.5399 -0.3035,-10.089 8.2057,-2.0173 12.1101,0.9214 13.957,-6.2051 6.557,1.646 1.6099,11.9613 8.7917,9.303 7.9786,-1.5289 -1.0376,15.1694 -23.2513,15.501 -13.2826,3.7689 -22.4612,0.6687 -9.2095,2.2187 -6.2239,-5.5621 z"
       id="id81"
       class="svgpath neutral"
       inkscape:connector-curvature="0"
       inkscape:label="#TSIHOMBE" />
    <path
       d="m 363.4323,1447.0956 -26.8305,4.6511 0.8895,-14.4723 -10.4008,-4.4608 -2.8513,-6.2529 -8.2579,-2.7214 -8.9812,-10.5311 4.7822,-5.8354 -5.8332,-8.8143 -1.5285,-12.468 -6.8024,-13.8729 11.6296,-0.379 -11.916,-16.7259 -1.6366,-7.1163 -7.9415,-5.756 2.8784,-6.8147 1.7439,-9.9479 4.6649,-5.1745 14.6967,-2.4458 4.4737,-5.6841 12.118,-2.8482 8.184,-9.0812 14.9617,0.4717 8.576,4.2377 5.9195,7.4704 9.2705,0.8254 11.4489,6.1515 1.8153,10.5181 12.9186,1.9382 4.712,7.1206 -0.95,12.9248 1.4192,2.7975 -7.1092,20.2128 -8.0312,7.3131 -6.7761,1.9708 -0.0781,6.4726 -16.514,7.7203 -1.5536,6.1633 2.8655,13.405 -4.1039,12.1105 1.0927,6.9326 -2.9648,9.9947 z"
       id="id84"
       class="svgpath neutral"
       inkscape:connector-curvature="0"
       inkscape:label="#AMBOASARY_SUD" />
    <path
       d="m 290.6321,1335.5257 -6.7047,-3.2638 -1.2922,-12.487 -16.7946,-2.1659 -9.0296,2.3141 -5.7831,-3.2994 2.5156,-10.6785 -7.9222,-12.2211 2.1905,-17.2637 4.1648,-3.6853 -4.8898,-10.1428 -11.1459,-4.9314 -11.0282,3.5062 -2.0732,-8.638 6.1308,-2.7713 3.2779,-6.8228 4.2065,-19.9205 5.6299,-26.5688 27.4826,-14.8303 22.7425,-6.7183 15.7861,2.2064 10.4175,5.8134 2.7619,7.7597 10.7878,4.3875 5.4116,11.0367 0.9796,5.0426 10.1846,15.558 10.3098,3.7767 0.4646,10.521 -2.365,12.9248 -5.0109,3.7691 10.7643,19.8769 -4.9119,6.0444 -6.4147,17.1614 -14.9617,-0.4717 -8.184,9.0812 -12.118,2.8482 -4.4737,5.6841 -14.6967,2.4458 -4.6649,5.1745 -1.7439,9.9479 z"
       id="id82"
       class="svgpath neutral"
       inkscape:connector-curvature="0"
       inkscape:label="#BETROKA" />
    <path
       d="m 363.4323,1447.0956 2.9648,-9.9947 -1.0927,-6.9326 4.1039,-12.1105 -2.8655,-13.405 1.5536,-6.1633 16.514,-7.7203 0.0781,-6.4726 6.7761,-1.9708 8.0312,-7.3131 7.1092,-20.2128 -1.4192,-2.7975 9.8235,-1.9373 6.8195,-6.63 -1.4095,-12.7028 8.7975,-2.5687 1.7794,-11.3573 9.9809,2.6649 7.4665,7.0902 10.809,3.6992 3.6786,4.5005 -7.325,17.3229 -7.2035,26.5038 -9.2701,18.5405 0.3648,7.3554 -8.085,9.2398 -1.7932,8.6928 -12.1576,6.6259 -4.4658,5.7741 -36.0497,15.8362 -13.5138,-3.5569 z"
       id="id83"
       class="svgpath neutral"
       inkscape:connector-curvature="0"
       inkscape:label="#TAOLANARO" />
    <path
       d="m 52.7915,1343.0874 23.4718,1.1516 10.3803,-2.3686 8.8422,-5.3156 11.6351,1.2543 6.0982,-7.8682 10.332,-6.0072 8.2031,-1.06 9.9951,2.5284 6.1463,-7.2194 8.5346,1.348 15.885,-7.1313 10.208,-0.2108 15.9413,4.3992 9.2785,-9.184 10.3344,3.6629 0.9412,6.275 -4.2103,11.6797 0.1524,9.8719 -8.788,10.7913 -1.7356,14.6235 4.8281,11.9512 -2.1008,6.4159 -3.2277,17.6892 -7.9561,4.3644 -6.8137,11.6434 -11.4075,5.7175 -27.488,24.7467 -6.6196,8.5528 2.2373,5.3548 -9.331,-2.1891 -11.8233,-12.3095 -17.659,-9.8173 -4.5897,1.2461 -7.6898,-7.7204 -3.4649,-15.0753 -6.9906,-6.322 -3.7687,-8.2977 2.4923,-5.1668 -2.8571,-9.2705 -16.2916,-14.7106 -9.331,-10.3645 -1.7932,-17.659 z"
       id="id85"
       class="svgpath neutral"
       inkscape:connector-curvature="0"
       inkscape:label="#AMPANIHY" />
    <path
       d="m 227.7177,1107.6062 6.2097,8.4304 -4.8686,3.143 -4.907,9.9498 0.3494,10.0258 -9.5205,8.1203 -7.7925,14.3367 -3.214,-6.9862 -11.3274,-5.7944 -13.7479,2.2074 -9.0013,-5.1649 -2.1225,6.026 -8.2879,7.3142 -10.0134,-0.7735 -10.1354,-6.5027 -11.0344,3.425 -13.2996,-2.5532 -9.0514,4.9092 -10.8032,-12.6084 12.1652,-10.8677 7.7879,-21.2714 0.9024,-12.8995 6.2076,-3.3219 -4.6015,-11.379 18.9359,-2.4848 18.1139,-8.8973 19.3378,-2.7121 17.4966,-2.6812 3.2912,23.2662 -5.5614,15.1917 18.9237,-2.0803 8.7349,6.7965 10.8337,-4.1637 z"
       id="id86"
       class="svgpath neutral"
       inkscape:connector-curvature="0"
       inkscape:label="#ANKAZOABO_SUD" />
    <path
       d="m 218.0774,1311.0667 -10.3344,-3.6629 -0.7238,-8.0751 -6.2969,-9.8154 -10.9752,-5.8181 -3.0549,-13.3617 -6.9339,-8.3816 -9.965,-7.2801 -3.1644,-6.7759 4.9341,-10.7837 -9.6499,-2.8793 3.9816,-8.742 6.9026,1.0696 8.2412,-9.5218 7.6806,-4.9218 10.3699,-2.712 7.8505,6.4576 5.9847,-0.3097 23.5305,7.5017 -4.2065,19.9205 -3.2779,6.8228 -6.1308,2.7713 2.0732,8.638 11.0282,-3.5062 11.1459,4.9314 4.8898,10.1428 -4.1648,3.6853 -2.1905,17.2637 -24.1346,6.2011 -3.4093,11.1415 z"
       id="id87"
       class="svgpath neutral"
       inkscape:connector-curvature="0"
       inkscape:label="#BENENITRA" />
    <path
       d="m 227.7177,1107.6062 -10.8337,4.1637 -8.7349,-6.7965 -18.9237,2.0803 5.5614,-15.1917 -3.2912,-23.2662 -17.4966,2.6812 -5.177,-5.3607 -5.0226,-13.9787 3.8442,-30.5505 -2.7844,-11.5121 7.7603,4.1918 12.7892,0.3852 6.2727,7.9803 17.8539,0.017 2.0461,-5.9323 11.9122,-9.1764 15.5352,-0.7502 15.1442,-17.792 15.4129,0.7157 4.0505,-8.1018 9.9437,1.7141 1.7807,10.1948 -6.4297,6.5878 2.4577,12.7625 -1.5653,5.3964 -17.171,8.1224 -2.3692,12.1618 -4.5008,8.4939 2.9264,12.1556 -0.9542,6.6243 -14.233,1.6763 -3.2933,19.0043 -6.003,3.4915 -13.3084,-0.1444 1.4058,7.6349 8.4319,5.4477 -3.037,4.8703 z"
       id="id88"
       class="svgpath neutral"
       inkscape:connector-curvature="0"
       inkscape:label="#BEROROHA" />
    <path
       d="m 207.743,1307.4038 -9.2785,9.184 -15.9413,-4.3992 -10.208,0.2108 -15.885,7.1313 -8.5346,-1.348 -6.1463,7.2194 -9.9951,-2.5284 -8.2031,1.06 -10.332,6.0072 -6.0982,7.8682 -11.6351,-1.2543 -8.8422,5.3156 -10.3803,2.3686 -23.4718,-1.1516 0.9726,-35.0753 -4.2245,-15.1665 2.3099,-15.5012 9.9692,-3.2317 11.5403,12.863 7.4389,-9.1615 15.6935,-6.4359 6.5653,2.8544 5.8983,-18.8878 2.0974,-14.0942 10.3365,-10.3338 9.5794,8.6792 16.8926,-8.3205 4.5238,3.8537 9.5284,-0.8964 9.6499,2.8793 -4.9341,10.7837 3.1644,6.7759 9.965,7.2801 6.9339,8.3816 3.0549,13.3617 10.9752,5.8181 6.2969,9.8154 0.7238,8.0751 z"
       id="id89"
       class="svgpath neutral"
       inkscape:connector-curvature="0"
       inkscape:label="#BETIOKY_SUD" />
    <path
       d="m 75.3204,1147.6627 -4.2717,-4.5019 -15.3245,-0.663 -4.1264,-5.2253 -17.381,4.5192 -6.7131,-0.5875 -0.5827,11.9506 -17.8059,-5.115 -4.3464,-11.5724 0.5168,-19.8475 4.7717,-26.0779 7.234,-0.3041 -1.1855,-10.6988 15.2581,-20.6683 -2.1884,-17.9931 7.8259,-15.3491 21.3571,25.5692 5.8829,17.1122 11.1692,13.9313 0.7772,3.9034 12.2737,4.4883 6.1462,-1.3424 4.3627,-6.3591 9.9546,-3.9006 8.6865,6.4403 4.6015,11.379 -6.2076,3.3219 -0.9024,12.8995 -7.7879,21.2714 -12.1652,10.8677 -10.5356,4.4754 -9.2938,-1.9234 z"
       id="id90"
       class="svgpath neutral"
       inkscape:connector-curvature="0"
       inkscape:label="#MOROMBE" />
    <path
       d="m 121.3889,1230.9169 4.5952,-8.3712 -10.2785,-0.4746 -15.4564,-20.3932 -14.3131,-7.9431 -14.3966,12.7197 -15.2163,8.8017 -4.2692,-15.1907 1.6742,-14.3918 21.522,-9.3132 -4.4858,-5.3211 -0.8598,-16.8751 5.4158,-6.5016 9.2938,1.9234 10.5356,-4.4754 10.8032,12.6084 9.0514,-4.9092 13.2996,2.5532 11.0344,-3.425 10.1354,6.5027 10.0134,0.7735 8.2879,-7.3142 2.1225,-6.026 9.0013,5.1649 13.7479,-2.2074 11.3274,5.7944 3.214,6.9862 -5.4057,13.4243 1.9559,6.6761 -6.9243,14.6879 2.2749,13.0044 -10.3699,2.712 -7.6806,4.9218 -8.2412,9.5218 -6.9026,-1.0696 -3.9816,8.742 -9.5284,0.8964 -4.5238,-3.8537 -16.8926,8.3205 -9.5794,-8.6792 z"
       id="id91"
       class="svgpath neutral"
       inkscape:connector-curvature="0"
       inkscape:label="#SAKARAHA" />
    <path
       d="m 61.8187,1274.1127 1.9146,-13.3633 -5.5619,-6.0951 0.2613,-9.9916 -10.3219,-0.055 -1.4588,-22.9456 -2.2494,-4.3769 -10.8808,-5.775 -13.1911,-18.2062 -4.3464,-17.6892 -4.2859,-9.7261 -2.5833,-17.8493 17.8059,5.115 0.5827,-11.9506 6.7131,0.5875 17.381,-4.5192 4.1264,5.2253 15.3245,0.663 4.2717,4.5019 -5.4158,6.5016 0.8598,16.8751 4.4858,5.3211 -21.522,9.3132 -1.6742,14.3918 4.2692,15.1907 15.2163,-8.8017 14.3966,-12.7197 14.3131,7.9431 15.4564,20.3932 10.2785,0.4746 -4.5952,8.3712 -10.3365,10.3338 -2.0974,14.0942 -5.8983,18.8878 -6.5653,-2.8544 -15.6935,6.4359 -7.4389,9.1615 -11.5403,-12.863 z"
       id="id93"
       class="svgpath neutral"
       inkscape:connector-curvature="0"
       inkscape:label="#TOLIARA_II" />
    <path
       d="m 58.1714,1254.6543 -10.0606,-10.0462 10.3219,0.055 -0.2613,9.9916 z"
       id="path211"
       class="svgpath neutral"
       inkscape:connector-curvature="0" />
    <path
       d="m 222.5544,890.2898 -12.1776,8.8422 -3.5826,-5.9031 -9.0134,1.9793 -18.6645,-2.5542 -0.3978,-3.8491 -19.3699,-10.2578 -15.9518,0.8763 -4.3769,-16.1697 -6.9906,-5.2275 2.067,-11.6109 6.2915,-5.8659 0,-17.7807 -6.1091,-11.8233 -6.7782,-5.2582 -4.1544,-15.2884 32.6662,0.413 14.046,2.4318 9.4938,12.5089 10.6387,-3.6685 18.392,-1.543 3.3254,-2.161 4.7651,-2.2271 6.8265,11.5261 4.8294,18.1386 -2.6918,10.2499 3.3918,16.7967 -4.1223,8.5761 7.1685,7.1676 0.379,8.8785 -7.0621,2.8369 -2.8379,9.9665 z"
       id="id94"
       class="svgpath neutral"
       inkscape:connector-curvature="0"
       inkscape:label="#TSIRIBIHINA" />
    <path
       d="m 164.8592,1009.875 -11.5074,0.7227 -2.2823,-7.4741 -0.4383,-11.4798 14.2893,-6.3243 1.6028,-24.281 -14.1002,-9.9999 2.0144,-9.844 -3.9511,-8.1903 1.9125,-8.7418 5.2125,-7.2271 -6.7949,-3.3534 4.3372,-8.6016 23.9626,-12.4264 18.6645,2.5542 9.0134,-1.9793 3.5826,5.9031 12.1776,-8.8422 3.4298,3.1211 9.7038,-1.9768 5.776,13.0597 5.6712,-4.3865 6.6116,2.9602 6.885,-5.3321 14.3403,3.2098 8.0967,15.0638 6.4973,3.7015 -1.1946,23.584 2.4084,16.7416 -5.6395,0.9197 -2.6772,12.6389 1.1169,9.5314 -9.9437,-1.7141 -4.0505,8.1018 -15.4129,-0.7157 -15.1442,17.792 -15.5352,0.7502 -11.9122,9.1764 -2.0461,5.9323 -17.8539,-0.017 -6.2727,-7.9803 -12.7892,-0.3852 -7.7603,-4.1918 z"
       id="id95"
       class="svgpath neutral"
       inkscape:connector-curvature="0"
       inkscape:label="#MAHABO" />
    <path
       d="m 37.0013,1025.5286 6.0034,-3.7992 14.9539,1.3067 9.3919,-6.7778 4.2855,-9.5134 3.4648,-14.9834 5.9467,-3.1769 16.272,0.9033 3.2766,-6.471 14.8478,0.0409 17.0362,7.3465 13.6265,12.2071 4.9629,0.5122 2.2823,7.4741 11.5074,-0.7227 2.7844,11.5121 -3.8442,30.5505 5.0226,13.9787 5.177,5.3607 -19.3378,2.7121 -18.1139,8.8973 -18.9359,2.4848 -8.6865,-6.4403 -9.9546,3.9006 -4.3627,6.3591 -6.1462,1.3424 -12.2737,-4.4883 -0.7772,-3.9034 -11.1692,-13.9313 -5.8829,-17.1122 -21.3571,-25.5692 z"
       id="id96"
       class="svgpath neutral"
       inkscape:connector-curvature="0"
       inkscape:label="#MANJA" />
    <path
       d="m 222.5544,890.2898 2.8379,-9.9665 7.0621,-2.8369 -0.379,-8.8785 -7.1685,-7.1676 4.1223,-8.5761 -3.3918,-16.7967 2.6918,-10.2499 -4.8294,-18.1386 -6.8265,-11.5261 -4.7651,2.2271 -9.5142,-6.4067 3.2064,-11.2177 -2.1258,-8.6056 -7.4172,-11.5659 3.3517,-8.1179 -6.9138,-8.3849 -10.1157,-32.0879 -5.3753,-9.0624 2.8108,-4.37 9.7496,-2.6547 10.5774,-12.5412 9.02,7.9147 8.308,-5.5193 17.6974,7.7464 25.1438,2.4906 4.4165,2.8809 -2.6217,11.983 2.9172,14.9166 -15.3478,16.42 4.3238,17.2914 -3.0691,3.9574 7.9031,6.6667 -0.5389,4.5633 7.6885,8.0264 1.3295,9.1106 10.2926,7.3398 8.2116,-4.5733 3.8422,14.0579 -2.944,11.9936 -7.4201,0.4145 -4.9662,5.8831 13.5876,12.8572 2.8271,7.9573 -5.6258,5.7593 -1.9943,15.3531 -1.8645,10.569 3.6113,2.538 -3.2227,11.908 3.5725,7.7209 4.3464,18.1183 -6.4973,-3.7015 -8.0967,-15.0638 -14.3403,-3.2098 -6.885,5.3321 -6.6116,-2.9602 -5.6712,4.3865 -5.776,-13.0597 -9.7038,1.9768 -3.4298,-3.1211 z"
       id="id97"
       class="svgpath neutral"
       inkscape:connector-curvature="0"
       inkscape:label="#MIANDRIVAZO" />
    <path
       d="m 75.1008,991.7615 1.5198,-11.2469 9.5438,-16.9296 7.9937,-3.3129 7.5065,-24.984 14.4989,-11.0636 4.9241,-12.2488 10.2426,-16.9296 12.0666,-15.6227 15.9518,-0.8763 19.3699,10.2578 0.3978,3.8491 -23.9626,12.4264 -4.3372,8.6016 6.7949,3.3534 -5.2125,7.2271 -1.9125,8.7418 3.9511,8.1903 -2.0144,9.844 14.1002,9.9999 -1.6028,24.281 -14.2893,6.3243 0.4383,11.4798 -4.9629,-0.5122 -13.6265,-12.2071 -17.0362,-7.3465 -14.8478,-0.0409 -3.2766,6.471 -16.272,-0.9033 -5.9467,3.1769 z"
       id="id98"
       class="svgpath neutral"
       inkscape:connector-curvature="0"
       inkscape:label="#MORONDAVA" />
  </g>
</svg>
