<?xml version="1.0" encoding="UTF-8" standalone="no"?>
<!-- Created with Inkscape (http://www.inkscape.org/) -->

<svg
   xmlns:dc="http://purl.org/dc/elements/1.1/"
   xmlns:cc="http://creativecommons.org/ns#"
   xmlns:rdf="http://www.w3.org/1999/02/22-rdf-syntax-ns#"
   xmlns:svg="http://www.w3.org/2000/svg"
   xmlns="http://www.w3.org/2000/svg"
   xmlns:sodipodi="http://sodipodi.sourceforge.net/DTD/sodipodi-0.dtd"
   xmlns:inkscape="http://www.inkscape.org/namespaces/inkscape"
   width="55.816528mm"
   height="71.393501mm"
   viewBox="0 0 197.7751 252.9691"
   id="svg3609"
   version="1.1"
   inkscape:version="0.91 r13725"
   sodipodi:docname="district_10.svg">
  <defs
     id="defs3611" />
  <sodipodi:namedview
     id="base"
     pagecolor="#ffffff"
     bordercolor="#666666"
     borderopacity="1.0"
     inkscape:pageopacity="0.0"
     inkscape:pageshadow="2"
     inkscape:zoom="1.4"
     inkscape:cx="-285.53215"
     inkscape:cy="58.742329"
     inkscape:document-units="px"
     inkscape:current-layer="layer1"
     showgrid="false"
     inkscape:window-width="1366"
     inkscape:window-height="715"
     inkscape:window-x="-8"
     inkscape:window-y="-8"
     inkscape:window-maximized="1"
     showguides="false"
     fit-margin-top="0"
     fit-margin-left="0"
     fit-margin-right="0"
     fit-margin-bottom="0" />
  <metadata
     id="metadata3614">
    <rdf:RDF>
      <cc:Work
         rdf:about="">
        <dc:format>image/svg+xml</dc:format>
        <dc:type
           rdf:resource="http://purl.org/dc/dcmitype/StillImage" />
        <dc:title />
      </cc:Work>
    </rdf:RDF>
  </metadata>
  <g
     inkscape:label="Calque 1"
     inkscape:groupmode="layer"
     id="layer1"
     transform="translate(-215.39816,-477.30623)">
    <path
       inkscape:connector-curvature="0"
       d="m 282.35636,625.17413 1.4589,0.2127 0.9424,1.1853 0.0606,1.307 -1.094,1.0943 0.2128,1.7021 2.9786,1.3676 -0.5167,1.4286 -1.7327,-0.9424 -1.094,-1.6412 -0.6991,-0.3648 -0.1824,-1.398 -2.006,-3.3131 1.6716,-0.6381 z m -1.076,97.3454 -0.6382,-1.7389 -1.8236,-1.51 -2.9999,-0.0399 -1.4484,0.4209 -1.963,-0.0967 -0.8056,-3.6196 -1.0464,-2.5713 -2.163,1.3739 -2.7937,-3.0864 -0.2972,-1.0339 -2.0786,0.3209 -1.5586,-0.5875 -0.8135,-0.8737 -1.7965,-0.0611 0.4821,-2.2503 -0.7142,-1.7175 1.1558,-0.5824 -2.7523,-1.9271 -1.5023,0.2953 -1.4158,-1.0118 -0.7309,-1.3472 0.5882,-1.5543 -0.7393,-1.4931 1.4447,-1.4576 0.7851,-1.3651 1.751,-1.7946 2.3671,-1.6958 0.1928,-1.5028 -0.9304,-1.2945 -1.7952,-0.8748 -2.9506,1.8397 -1.1354,0.372 -0.6561,1.3542 -2.1755,0.3136 -1.3728,-0.3632 -2.8864,0.9327 -0.9976,0.8311 -0.6832,2.6038 -1.1245,0.1943 -1.4505,1.3451 -2.9318,0.3694 -0.1177,1.7554 1.4826,1.2565 -1.1804,0.5697 0.2567,1.1838 -3.8664,1.6462 -1.5724,0.2052 -1.187,-0.4498 -0.6224,-2.378 -0.6774,-0.7863 -0.0418,-0.052 -0.0254,-0.0325 -0.1824,-1.5519 1.5807,-0.5776 -1.5807,-2.1883 -1.3374,0.091 -0.7597,-0.7293 0.3039,-2.0972 -0.912,0.3037 -0.6687,1.5199 -2.8571,-2.2492 -1.6412,-0.699 -1.4893,-0.1823 -0.6687,-0.7599 -2.0665,-1.0943 -0.4258,-2.7051 -0.5167,-0.6079 -0.091,-1.702 -1.064,-2.6139 0.1824,-1.6413 -1.2459,-2.705 -0.4863,-2.8571 1.3674,-1.9149 1.3983,-3.8904 -0.6077,-0.5775 0.5772,-5.1366 0.4863,-1.6413 0.1519,-3.5865 0.8816,-2.1885 1.6412,-0.1518 2.0365,0.9725 2.3099,-0.6684 -0.0609,-1.5807 -0.5468,-0.6686 1.1245,-2.5531 -0.6992,-0.3648 1.915,-2.9787 1.0031,-0.395 2.5833,1.5501 -0.9726,1.2462 -1.1854,0.1519 -1.0635,1.5197 0.9116,0.9422 1.7631,0.0303 1.033,2.3101 0.6992,0.2127 1.7931,-1.155 -1.7931,-0.9118 0.6991,-0.6078 2.8267,0.1518 0.091,-1.7324 -1.3979,-0.9421 -1.6717,-0.2737 0.3648,-1.1247 1.5498,-0.3039 3.1309,1.2463 0.6988,0.7902 -0.091,1.1856 2.4923,3.4648 -0.6382,1.1245 2.0365,0 1.7931,0.9421 0.6687,-0.4863 2.3099,0.304 -0.7597,1.3071 -0.0914,1.7628 1.4288,0.1823 -0.2129,1.7324 -0.6382,1.6719 1.3373,0.6382 0.8812,1.4284 -0.3039,2.0668 0.3648,0.5168 -0.2129,2.1276 1.7022,0.2433 -0.2129,1.5194 -1.3373,0.1522 0.5472,1.7629 2.2189,1.0335 2.097,1.7624 1.7932,2.8573 1.976,0.5167 1.003,-0.8207 0.7901,0.8512 1.246,-0.6991 2.0974,-0.3649 2.5228,-2.1274 -0.152,-1.0943 1.185,-0.4863 -0.942,-1.0335 -0.5473,-1.6107 0.3649,-2.6748 0.5776,-1.2462 -0.0914,-1.8237 -0.4558,-0.4558 0.9726,-3.1002 -0.3949,-1.6414 0.2125,-1.3675 1.1549,-1.6717 1.6717,-0.5776 -0.5468,-1.7629 -1.3983,-1.9755 -0.5777,-1.4285 0.4563,-1.7933 1.4283,-0.2432 1.4288,-1.5197 1.6412,1.8543 0.8206,2.492 1.3678,-0.3038 -1.0639,-1.3375 1.3373,-0.3039 0.091,-1.5197 2.7052,-1.4284 2.5837,1.4284 -0.0305,1.3374 0.6687,0.4559 0.5159,-1.0335 -0.0601,-1.4893 -0.5472,-0.8509 1.7631,-0.5167 3.9816,0.7295 1.8236,1.1549 1.3069,-1.4285 -0.7597,-0.8207 -0.2738,-2.3405 -0.7901,-0.9117 -0.4863,-2.2188 -0.8511,-0.4558 -1.094,-2.7355 -0.9425,-0.5471 -0.0605,-2.7963 -1.1245,-1.6415 1.1245,-2.3402 1.4893,-0.0304 0.3038,1.3375 0.8816,0.7902 0.6077,1.7629 1.0945,0 1.3373,2.1274 1.3979,0.9118 1.7931,0.5168 3.3434,1.7022 2.1885,-0.912 2.6442,0.3648 1.4592,-0.1825 -0.2738,1.5198 0.6687,0.8511 2.1759,1.9367 0.5794,1.5585 0.7934,-0.5353 1.0786,1.6431 -0.538,1.403 0.4391,1.5018 -2.4222,1.4135 0.4433,1.4714 -1.2397,1.9926 -1.0527,0.1356 -1.3311,-2.1409 -2.4743,1.4152 -0.8369,-0.2561 -0.6278,2.7235 -2.11,-0.3936 -0.9174,0.7226 0.0643,2.1516 0.8415,0.8478 1.2956,0.005 1.0648,1.508 0.3848,1.2475 1.6525,0.4104 1.1299,1.0142 2.7043,-1.6595 0.8424,-0.2377 2.2952,2.0212 0.3586,0.8659 2.0473,-0.018 -0.0955,1.0315 1.0092,1.0216 1.9768,-0.463 0.9943,0.6668 0.3944,1.5138 0.7397,0.7362 -0.003,2.7217 0.4766,1.3392 1.6446,0.2561 1.3778,-0.5711 1.7723,1.3177 0.4592,1.2112 -0.2567,1.8387 2.7932,1.0502 0.8924,1.0517 2.3128,0.7261 1.1512,1.1601 1.9226,-0.0436 0.7317,1.832 1.6875,0.4997 2.5211,1.7971 0.6157,-0.4915 1.8562,0.4286 3.0303,2.741 0.311,2.3472 -0.614,1.207 0.6332,0.8648 -0.892,1.303 -0.8423,2.2761 0.9258,3.4746 -1.6629,2.4539 1.5794,1.0108 0.6804,1.3319 -0.6149,5.3233 0.4442,1.6488 -0.7422,1.3463 0.3552,1.3289 -1.0172,1.5811 -2.0937,1.3158 -2.3529,0.6331 -1.4208,1.381 -0.7889,1.8233 -1.4843,0.313 -1.5681,2.2235 -5.0493,2.292 -1.8299,2.5128 -0.9196,0.54 -2.1554,-0.4512 -1.0711,-1.0014 -0.2312,-1.8465 -0.8728,-1.4051 -1.2605,-0.4695 -0.291,-0.9213 -1.3144,0.4053 -0.9884,-0.8277 -1.4868,0.42 -1.7589,1.4601 -1.2351,1.6141 -3.4874,0.5039 -0.8857,-0.9544 -1.9902,-0.0244 -0.7225,-1.138 -1.0982,-0.4929 -2.2172,0.3646 -2.7553,-1.7136 -3.4331,-1.838 -2.3792,1.2158 -1.5661,0.1421 -1.5531,-1.2741 -3.8213,0.4761 z"
       id="id48"
       class="svgpath antsiranana"
       inkscape:label="#path43" />
    <path
       inkscape:connector-curvature="0"
       d="m 298.40466,572.22723 1.7021,2.006 -1.5548,1.942 -1.0289,1.9486 0.152,2.1274 0.6686,0.6081 -1.1854,1.9755 0.061,1.0943 -1.7627,1.2765 -1.2464,-1.459 -1.3373,-0.6384 -0.8206,-1.7322 -0.9421,-0.8207 -0.1824,-1.4285 1.5803,0.4863 1.4588,2.9177 0.5167,-1.3678 0.9425,-0.79 0.6382,-1.5806 1.3678,-1.0639 0.6992,-2.1579 -0.061,-2.0059 0.3344,-1.3375 z m 3.7687,71.3961 -0.2125,-0.9421 1.7018,-2.5228 1.2768,0.6076 2.6747,-0.4861 0.6382,-0.9118 3.3739,-1.5197 2.5833,-1.4893 2.6747,-3.2218 1.0335,0.0913 1.4283,-1.1552 -1.7017,-0.3344 -1.1249,-0.7294 -0.3949,-1.0333 0.3949,-2.553 1.2463,-1.9151 -0.1519,-0.8812 0.7292,-1.4894 2.4318,-2.6444 -1.4893,-0.7599 -0.3343,-0.7598 0.0909,-2.4316 -0.6686,-1.7324 0.1444,-2.6159 0.6157,-0.3627 0.2734,-2.4619 -0.3344,-2.7354 1.7326,-4.3162 1.0941,-0.6078 -0.3953,-1.0335 1.1854,-1.3676 0.8511,-2.006 1.7326,-1.6108 0.4253,-1.3983 0.9121,-1.003 0.6991,-1.7629 2.006,-2.8571 0.8227,0.2728 0.4538,-3.1602 1.4892,-0.9117 0,-1.7639 1.4893,-3.4337 1.2764,0.6385 1.0335,-0.8512 0.7601,0.9773 0.7129,-0.8995 1.9243,1.1272 0.4971,-0.9942 1.435,-0.3991 0.9154,-1.2511 1.526,0.003 0.8335,-0.7584 1.8278,-0.6042 1.5644,0.0743 1.8137,-1.4118 1.2171,-0.2494 0.6198,0.9731 3.6798,-0.1215 3.6406,3.074 0.6432,0.8072 -0.5138,3.1135 1.1224,1.0098 1.6128,0.2408 -0.2345,2.3785 0.9984,1.4163 0.1177,1.7437 0.8565,0.8993 0.0463,2.1123 2.6196,0.2392 1.5202,-0.1779 1.7948,0.7761 0.0881,1.6016 1.3637,0.5461 0.7338,-0.495 3.6614,1.618 1.6433,-0.7188 0.8381,-0.8134 1.802,-0.3312 0.5163,-0.6404 1.9601,-0.2664 2.6693,-0.9247 2.4485,-1.3783 2.3387,-0.391 0.4716,-0.4754 2.5449,0.3401 -0.7334,2.7453 0.7798,2.0105 -0.2217,2.0051 0.7922,0.888 -1.1996,0.7561 -0.8907,1.6606 -1.9401,-0.0179 -1.1566,1.5636 -0.4007,1.3165 -1.7765,0.6092 -0.3639,0.679 0.8711,3.4597 0.0651,1.4512 1.3895,0.4649 1.117,1.0693 -0.1386,0.9389 1.2071,0.4599 -0.6102,1.2147 0.1878,2.2424 -0.9483,1.1327 -0.2463,1.918 -1.3369,1.0349 -0.958,1.989 -1.1628,0.5701 0.2149,1.4088 1.1804,1.1898 0.6729,2.5714 -1.1241,1.4108 -1.67,-0.607 -3.1981,3.0826 -1.569,-0.0593 -0.4809,1.5196 -1.3803,1.2614 -0.8432,-0.3391 -0.6611,1.0972 1.3644,3.438 -0.2487,0.8478 0.7116,1.4759 -0.874,1.6733 1.294,1.9376 0.1565,1.5324 0.94,0.1641 -0.7973,3.9242 1.6479,0.5425 0.053,1.3869 1.2856,2.1942 0.1148,3.919 -1.3298,0.2514 -0.9221,1.3651 1.4363,1.6018 1.003,2.7833 2.6722,0.8252 0.8866,0.557 -0.6253,2.5263 -0.4842,0.7156 0.3419,1.4057 -0.8849,2.7613 0.389,0.8896 -0.3456,2.3943 -0.7233,0.5147 -0.8215,2.515 0.4604,1.0889 -0.8815,2.9456 -1.0824,0.5275 -0.1815,1.3145 -1.0844,0.4693 -0.6792,1.9666 -1.3669,1.3422 0.2767,1.4806 -0.8674,1.1413 -0.1732,1.9722 1.5181,1.3833 -1.5102,1.538 -1.3782,3.0229 -2.5144,-0.4391 -1.039,0.4601 -1.3987,-0.4945 -0.9575,1.2661 -1.1512,-0.3885 -1.2079,1.1571 -1.5515,-0.1003 -1.8508,2.1544 0.6082,1.5304 -1.4,2.4437 -0.5672,0.0694 -0.0889,2.6881 -1.2355,3.1233 -1.5215,1.0146 -1.4659,0.0143 0.0793,1.1955 -1.4312,2.3312 0.4533,2.9102 -0.7013,1.3749 -2.4146,1.2198 -1.6959,-0.8088 -1.7498,0.1078 -1.3449,0.7292 -2.1066,-1.6964 -1.3929,-0.5946 -0.864,0.4328 -1.4738,-0.7099 -0.566,-0.824 -2.1626,-1.1355 -2.6976,-0.7267 -0.4955,-1.3267 1.0172,-1.5811 -0.3552,-1.3289 0.7422,-1.3463 -0.4442,-1.6488 0.6149,-5.3233 -0.6804,-1.3319 -1.5794,-1.0108 1.6629,-2.4539 -0.9258,-3.4746 0.8423,-2.2761 0.892,-1.303 -0.6332,-0.8648 0.614,-1.207 -0.311,-2.3472 -3.0303,-2.741 -1.8562,-0.4286 -0.6157,0.4915 -2.5211,-1.7971 -1.6875,-0.4997 -0.7317,-1.832 -1.9226,0.0436 -1.1512,-1.1601 -2.3128,-0.7261 -0.8924,-1.0517 -2.7932,-1.0502 0.2567,-1.8387 -0.4592,-1.2112 -1.7723,-1.3177 -1.3778,0.5711 -1.6446,-0.2561 -0.4766,-1.3392 0.003,-2.7217 -0.7397,-0.7362 -0.3944,-1.5138 -0.9943,-0.6668 -1.9768,0.463 -1.0092,-1.0216 0.0955,-1.0315 -2.0473,0.018 -0.3586,-0.8659 -2.2952,-2.0212 -0.8424,0.2377 -2.7043,1.6595 -1.1299,-1.0142 -1.6525,-0.4104 -0.3848,-1.2475 -1.0648,-1.508 -1.2956,-0.005 -0.8415,-0.8478 -0.0643,-2.1516 0.9174,-0.7226 2.11,0.3936 0.6278,-2.7235 0.8369,0.2561 2.4743,-1.4152 1.3311,2.1409 1.0527,-0.1356 1.2397,-1.9926 -0.4433,-1.4714 2.4222,-1.4135 -0.4391,-1.5018 0.538,-1.403 -1.0786,-1.6431 -0.7934,0.5353 -0.5794,-1.5585 -2.1759,-1.9367 z"
       id="id49"
       class="svgpath antsiranana"
       inkscape:label="#path45" />
    <path
       inkscape:connector-curvature="0"
       d="m 411.92686,555.84483 1.003,1.5198 -0.6686,0.4254 -2.0365,-0.2128 1.7021,-1.7324 z m -11.8233,-29.8775 1.4588,1.7628 -1.3068,0.4255 -1.246,-1.7629 1.094,-0.4254 z m -92.307,-2.1684 1.2764,0.7095 -0.7601,1.1244 -0.8206,-0.4863 0.3043,-1.3476 z m -1.8845,38.2767 0.5772,0.5472 -0.2124,1.9147 -1.5807,1.0943 -0.3648,-1.3069 0.76,-1.6111 0.8207,-0.6382 z m 97.1096,-12.3401 2.8871,1.3679 -1.4283,1.094 -0.912,-0.5471 -0.5468,-1.9148 z m 2.4923,-2.0061 0.8206,0.76 -0.0609,1.4588 -1.2159,0.3953 -1.8237,-0.608 0.2434,-1.5501 1.3069,0.1518 0.7296,-0.6078 z m -68.8733,32.7089 -0.5472,-1.0987 -1.2764,0.6989 -1.3073,-1.7324 0.7601,-2.6444 -0.0914,-3.4345 -0.9116,-0.6077 -0.6078,-2.0061 -1.1854,-1.8541 -1.6717,-0.5167 -0.5167,-1.5807 0.3038,-1.1244 -0.4558,-4.012 -1.0944,-1.2767 1.0944,-1.6411 -1.3678,-2.006 -1.8846,-0.6689 -1.3678,0.2128 0.2738,-2.553 0.8206,-0.9119 -0.3952,-1.4894 -1.003,-0.3949 1.0944,-2.2188 -0.0305,-1.4589 2.2794,-1.6718 0.1824,-1.5803 -1.3068,-0.5168 -1.4589,0.152 -0.912,0.8812 -1.8845,0.4864 -0.3344,1.2463 -1.1549,-0.5775 0.3648,-1.0031 0.0914,-2.2491 -1.9151,-2.5836 -0.5472,-1.3981 -1.9755,-0.4257 -0.0605,-1.3676 -1.1249,-0.6384 0.5472,-0.9117 -0.5168,-3.1305 -1.2159,-0.0608 0.061,2.4314 -2.4923,-1.1548 -0.091,-0.5472 -2.1584,-0.395 2.2494,-1.2768 0.2129,-2.8266 2.097,-1.2766 2.0974,1.7325 2.6138,-0.2736 1.1549,0.6382 2.2189,-0.1518 1.7627,0.3648 1.2764,1.7324 0.2738,2.2492 1.8237,1.4894 0.6382,0.9724 0.091,1.6112 1.0944,0.8204 0.8815,1.3375 0.5773,-1.5503 1.3983,0.1217 1.6108,-0.6689 0,-1.6107 1.003,-2.7658 0.0609,-2.7658 0.4558,-2.0366 1.2464,-0.7293 0.1214,-1.3981 -1.4588,-1.3375 1.4284,-1.8236 0.6382,-1.6716 1.6111,-1.0335 1.7627,0.5471 1.155,-0.1823 -0.1824,-1.7022 0.8511,-1.3068 0.912,0.4254 1.3373,-0.3648 0.3644,-1.1549 1.3678,0.3345 0.4258,1.3979 1.3979,-0.5167 1.4893,0.395 -0.2125,-1.2461 0.9421,-0.9726 -0.6687,-3.009 1.1854,0.1521 1.3374,-0.6385 3.1609,1.2158 0.8816,-0.6686 0.8811,-2.0669 0.2738,-2.1275 -1.4592,-1.3981 0.8816,-2.1275 1.0335,-0.8207 -0.2734,-1.2158 1.033,-0.6078 2.2189,0.0607 0.5134,-3.1306 -0.9996,-0.1216 -0.8207,-1.398 -2.006,-0.1217 -1.7021,-2.857 -1.7932,0.7901 -2.006,0.3039 -2.3404,-0.0606 -0.0355,-0.8846 2.5908,-2.27 1.9126,-0.4624 0.6077,0.608 1.1554,-1.2461 0.4253,-1.6111 2.4314,1.8542 0.4562,1.1853 1.5239,1.5442 1.3937,-0.1158 1.3678,1.6716 0.8206,-0.9116 -1.5502,-1.9756 -0.3948,-1.2766 -0.9726,-1.0638 0.4253,-2.5834 -1.3983,0.7901 -0.7292,-1.4286 0,-1.2765 2.1275,0.4865 1.4589,-0.0913 -0.0606,-0.9424 -2.0974,-0.699 -0.0605,-1.003 1.3978,-0.1215 2.3709,1.5197 0.8815,-1.4589 -0.3343,-0.7902 -3.009,-0.304 4.5588,-4.6198 3.2783,0.3287 0.5213,1.1302 1.7932,1.0636 1.094,1.7932 -0.2734,1.0944 1.094,0.7903 0.2738,2.7659 0.6687,0.2127 0.4862,1.7325 -0.7296,0.7293 2.3709,0.6078 0.3343,2.8573 1.7022,1.9755 -1.8541,1.4588 -0.0914,2.7051 1.1854,1.1248 0.4562,3.3735 0.8511,1.064 -1.1854,0.6383 -1.7327,-1.7629 -0.912,-1.9147 -1.5498,-0.7297 -1.915,1.4287 0.6686,2.31 -3.4999,-1.6417 -1.1503,3e-4 -0.1824,-2.0973 -1.3624,-1.5796 -1.069,1.0325 -1.6112,2.3708 0.3648,1.6111 1.2464,-0.4864 0.5773,0.6991 -0.3644,1.1548 -1.6112,1.0031 -1.0335,1.3678 0.7434,1.1245 -0.5952,1.2766 -0.7559,1.2765 -1.155,0.4559 0.7902,1.0944 -1.0335,0.942 -0.5167,1.1854 0.3343,0.912 1.7936,0.7294 1.1244,0.9726 1.3069,-2.0061 1.6413,0.3342 2.0669,-0.3646 1.094,-2.401 3.4044,-0.5472 0.6382,1.3068 -1.1245,1.1247 -0.0914,1.5197 2.9485,0.5473 1.9756,-0.8817 0.8815,-2.6442 -0.2129,-0.8207 -1.3373,-0.6078 -0.4258,-1.6109 0.7601,-1.5198 1.3678,-1.1853 1.155,0.3342 1.0635,1.1551 1.2464,0.5777 0.5472,1.3675 -0.2129,1.4284 1.003,0.4258 -0.5776,1.4893 1.7021,1.8237 -0.3648,1.3676 0.7296,0.7294 -0.1519,1.4285 1.2764,0.6384 1.6412,1.4285 -0.3038,1.5502 0.8815,1.003 2.2794,-1.6111 1.4288,-1.4589 2.5833,0.8816 0.3343,-0.8207 1.8846,1.6412 0.3343,1.1551 1.0031,1.0638 -0.7902,2.3098 0.6687,0.9726 -0.7296,1.1247 -0.7902,-1.2157 -0.9725,-0.4254 -0.4562,-1.4895 -0.8812,-0.152 -2.0365,2.3707 0.9116,1.3981 0.6387,-1.0029 1.7017,-0.3952 1.1249,1.3373 -0.6386,0.9118 -0.091,1.915 0.3953,0.9118 1.8841,-0.4255 -1.0635,-1.2158 0.4558,-0.6384 1.4893,0.1522 1.7326,0.7599 -1.3073,-2.2187 0.5777,-1.1552 1.2459,1.611 -0.2124,1.6412 1.4892,3.8297 0.091,1.1244 0.8511,1.7629 0.2434,3.07 -2.0061,0.304 -1.3983,-0.6689 0.4258,-2.1579 -1.064,-3.7689 -0.9395,0.6079 0.5142,1.3071 0.0605,2.401 0.4258,1.003 -0.5472,1.0031 1.5802,2.4618 0.152,2.6749 -0.4254,2.3098 -1.4283,1.9756 -0.0914,2.4013 1.5807,-0.7904 0.6077,1.9147 0.6992,0.7296 1.0335,-1.3677 2.4923,0.2127 0.5468,1.4286 2.6747,2.1885 0.8815,1.4893 1.2464,4.468 0.8511,1.1548 0.7901,2.006 -0.5777,1.1549 -1.4588,1.6382 -1.0761,0.7873 -1.5489,0.1629 -0.4759,-1.3797 -1.6245,0.6609 -1.1495,-0.0788 -1.9685,0.6101 -0.8903,2.0628 -1.1892,0.9604 -0.3431,1.7165 -2.7369,-0.8209 -1.4738,2.4351 1.0623,1.929 -0.7852,1.6427 -1.7944,2.1169 -0.0705,0.9489 1.104,1.6928 1.5586,-0.517 -0.8206,3.2495 -2.4736,-0.4023 -0.29,1.4769 -1.6392,1.6974 -2.5449,-0.3401 -0.4716,0.4754 -2.3387,0.391 -2.4485,1.3783 -2.6693,0.9247 -1.9601,0.2664 -0.5163,0.6404 -1.802,0.3312 -0.8381,0.8134 -1.6433,0.7188 -3.6614,-1.618 -0.7338,0.495 -1.3637,-0.5461 -0.0881,-1.6016 -1.7948,-0.7761 -1.5202,0.1779 -2.6196,-0.2392 -0.0463,-2.1123 -0.8565,-0.8993 -0.1177,-1.7437 -0.9984,-1.4163 0.2345,-2.3785 -1.6128,-0.2408 -1.1224,-1.0098 0.5138,-3.1135 -0.6432,-0.8072 -3.6406,-3.074 -3.6798,0.1215 -0.6198,-0.9731 -1.2171,0.2494 -1.8137,1.4118 -1.5644,-0.0743 -1.8278,0.6042 -0.8335,0.7584 -1.526,-0.003 -0.9154,1.2511 -1.435,0.3991 -0.4971,0.9942 -1.9243,-1.1272 -0.7129,0.8995 z"
       id="id50"
       class="svgpath antsiranana"
       inkscape:label="#path47" />
    <path
       inkscape:connector-curvature="0"
       d="m 269.01291,640.67876 1.6112,0.9725 1.2154,2.0061 -0.2429,1.9756 -1.6107,1.3679 -1.4593,0.0605 -0.851,-0.4863 -1.0941,-2.6138 0.091,-1.5197 0.7906,-1.0333 1.5498,-0.7295 z m -18.8139,-16.2914 0.1519,1.155 -0.9116,1.2158 -1.3678,0 -0.7296,-1.0637 0.912,-1.2462 1.9451,-0.0609 z m 18.8748,4.1944 -0.2734,2.1275 -0.9729,-0.4255 -1.9146,0.1217 -0.061,2.097 1.9455,1.5807 1.5198,0.1521 0.3949,2.2793 -1.0941,0.3954 -1.0639,1.4284 -1.4588,0.699 -1.0335,-0.2127 -0.9116,-2.2188 -3.6777,-0.0305 -0.7297,1.4589 -1.0639,-0.3037 -0.6077,-0.9425 -1.7022,-0.7293 -1.4588,-0.1519 -1.1245,0.6382 -0.5167,-1.2463 -1.064,-0.2431 -0.5773,-1.702 0.3344,-1.9147 -0.6992,-1.8541 -0.1214,-4.073 0.8206,-0.2127 1.003,-2.3706 -2.2799,-0.9422 -0.6077,-1.8542 2.7657,0.152 0.0914,0.6992 2.5833,1.6108 0.9726,-1.0031 0.821,1.3677 1.8537,-0.395 0.5513,-1.6443 -0.9462,-1.4561 -0.1519,-2.0971 -0.6387,-0.7598 1.1249,-1.6109 1.155,-0.6992 1.6412,0.152 1.2464,0.8207 0.5468,-0.5168 1.3068,1.5807 0.3649,1.1244 -0.8511,1.4287 -1.155,0.7599 0.061,1.0334 2.006,2.1884 1.3373,-0.304 0.4254,1.8236 -0.6687,2.1275 1.915,0.1826 0.6382,1.8843 z"
       id="id52"
       class="svgpath antsiranana"
       inkscape:label="#path51" />
  </g>
</svg>
