<?xml version="1.0" encoding="UTF-8" standalone="no"?>
<!-- Created with Inkscape (http://www.inkscape.org/) -->

<svg
   xmlns:dc="http://purl.org/dc/elements/1.1/"
   xmlns:cc="http://creativecommons.org/ns#"
   xmlns:rdf="http://www.w3.org/1999/02/22-rdf-syntax-ns#"
   xmlns:svg="http://www.w3.org/2000/svg"
   xmlns="http://www.w3.org/2000/svg"
   xmlns:sodipodi="http://sodipodi.sourceforge.net/DTD/sodipodi-0.dtd"
   xmlns:inkscape="http://www.inkscape.org/namespaces/inkscape"
   width="75.280037mm"
   height="86.834587mm"
   viewBox="0 0 266.74029 307.68161"
   id="svg3642"
   version="1.1"
   inkscape:version="0.91 r13725"
   sodipodi:docname="district_14.svg">
  <defs
     id="defs3644" />
  <sodipodi:namedview
     id="base"
     pagecolor="#ffffff"
     bordercolor="#666666"
     borderopacity="1.0"
     inkscape:pageopacity="0.0"
     inkscape:pageshadow="2"
     inkscape:zoom="1.4"
     inkscape:cx="26.942929"
     inkscape:cy="157.754"
     inkscape:document-units="px"
     inkscape:current-layer="layer1"
     showgrid="false"
     fit-margin-top="0"
     fit-margin-left="0"
     fit-margin-right="0"
     fit-margin-bottom="0"
     inkscape:window-width="1366"
     inkscape:window-height="715"
     inkscape:window-x="-8"
     inkscape:window-y="-8"
     inkscape:window-maximized="1" />
  <metadata
     id="metadata3647">
    <rdf:RDF>
      <cc:Work
         rdf:about="">
        <dc:format>image/svg+xml</dc:format>
        <dc:type
           rdf:resource="http://purl.org/dc/dcmitype/StillImage" />
        <dc:title></dc:title>
      </cc:Work>
    </rdf:RDF>
  </metadata>
  <g
     inkscape:label="Calque 1"
     inkscape:groupmode="layer"
     id="layer1"
     transform="translate(-229.48699,-504.23569)">
    <path
       inkscape:connector-curvature="0"
       d="m 333.92109,594.96669 1.2159,0.9727 0.1824,1.0638 -1.2159,3.6168 -0.7901,-0.3343 0.7296,-1.4286 -0.1219,-3.8904 z m -5.9571,-8.3584 0.2433,0.9421 -0.6686,1.3375 -3.3739,0.0912 -1.4283,-0.9725 0.5772,-0.6081 4.6503,-0.7902 z m -34.9227,-8.8446 0.7901,2.401 -2.2189,1.2462 -0.3648,-0.9726 -2.7047,1.2766 -0.5473,-1.0334 -0.3038,-2.0061 0.8511,-0.7597 -0.3953,-2.8876 1.8845,-1.8845 1.3374,0.6081 0.1215,1.1245 -0.4863,1.7629 1.2159,0.1823 0.8206,0.9423 z m 17.8001,93.7452 0.202,0.782 -0.9826,1.6532 -2.979,0.65 -2.9318,0.2014 -1.0072,1.7154 -0.6307,-0.8326 -2.4864,0.1519 -0.8169,0.7469 -1.415,-0.2609 -3.052,1.3135 -1.2998,-0.3743 -0.6132,-2.1907 -1.8081,-2.2041 -1.0323,-0.7201 -1.3945,0.6879 -1.7581,2.7606 -0.8273,-0.1015 -1.4613,-1.4965 -1.1099,0.0264 -2.633,0.8025 -1.7497,-0.085 -3.1522,0.8785 -1.0548,0.8793 -1.2405,0.3145 -2.7102,-1.8594 -1.7097,-0.2827 -1.3953,0.7972 -2.4986,0.3731 -3.6264,-0.9117 -1.7956,-0.8875 -2.0349,0.0889 -1.6687,-1.9356 -1.3979,0.4369 -2.062,-0.6262 -1.2852,0.035 -2.2543,1.0143 -1.4146,0.5168 -2.1275,-0.1218 -1.155,-0.6686 -0.5776,-1.4286 -1.6413,-2.7657 -1.8845,-2.1581 0.3648,-4.6502 0.4863,-2.7963 -1.6413,0.7598 -2.1275,1.5197 -2.1579,0.3951 0.091,-1.4894 -0.4558,-2.097 1.0335,-0.8511 -3.5563,-0.1823 -0.1778,-3.1031 -2.5274,-1.4866 -0.2124,-1.2461 0.6686,-1.4589 -0.5776,-0.912 0.3343,-1.3067 3.009,-3.9208 0.2129,-0.8815 1.2155,-0.8512 2.0365,-2.9178 1.1249,0.2128 2.0665,-0.4254 1.9451,-1.2158 5.167,-4.5592 2.0061,-2.6746 0.3952,-1.5502 -0.9725,-1.7933 2.4013,-1.307 1.185,-0.0608 1.1249,-1.1853 0.5167,-1.7629 2.8872,-2.6746 1.915,-0.3345 1.2765,-0.9725 4.2554,-0.304 0.1824,-0.9726 2.4923,-2.0669 -0.2738,-2.5226 -2.5228,-1.5501 -1.5198,1.155 0,2.4923 -1.4283,0.0608 -0.5472,-0.6076 -2.0971,0.8507 -1.1549,-0.7294 0,-1.0942 -1.2768,-1.4284 1.7631,-1.8239 1.7931,-3.1608 2.6747,-2.8876 1.7022,-2.4619 1.1549,-0.7903 5.1061,-5.1669 2.1279,-1.8542 0.6687,-0.2125 1.8841,-1.7631 1.3983,-0.5772 -0.1519,1.9755 1.0635,1.7325 2.8876,1.6107 -1.7322,2.2492 -0.4867,3.3738 2.067,2.9482 -0.9116,1.1552 2.7962,1.3372 -1.2464,1.8237 -0.6687,1.9147 -1.3979,1.3983 -0.5167,1.6107 -0.6992,0.5472 -2.3708,3.1308 -2.097,2.2187 -0.7296,1.3979 -2.3709,2.7051 -0.6077,1.0943 0.9725,3.3434 0.4258,0.456 0,2.2187 -1.1249,1.8236 0.1824,1.6413 -0.6687,3.7689 2.8876,1.4284 1.094,-0.8813 1.3374,-0.0608 0.1519,-1.1247 1.0944,-0.0605 1.5503,-0.9727 1.5802,-0.1823 -0.3952,-1.9759 1.2158,-2.2187 0.3039,-1.9756 2.7052,-3.708 1.8541,-0.7904 1.4283,0.1523 1.3983,-1.216 -0.6077,-1.8235 -0.9726,-1.003 1.9451,-1.459 1.0636,-1.307 1.003,-2.614 -0.2429,-0.6685 0.9116,-1.6415 1.2768,-1.2461 1.0335,-1.7325 -0.2129,-1.6107 1.8541,-0.7601 1.4588,-2.3403 -1.3069,-1.6716 2.4923,-3.8601 1.9756,-1.6411 1.6107,-2.462 -0.4862,-0.5472 1.2159,-2.9179 0.7901,0.3649 1.5502,-0.3649 1.3679,-1.9757 0.1519,-1.6411 0.6991,-1.7629 1.3679,-1.1552 0.6987,-1.7019 1.5197,-1.155 0.9121,-0.0608 2.4009,-2.2492 1.2463,0.7294 0.1824,1.3375 2.3404,1.7324 0.6991,1.7933 3.2825,2.2796 1.9146,0.6686 1.2768,1.0941 1.2764,0.3343 1.7022,3.5259 -0.3953,0.7293 -1.3678,0.3345 0.821,1.1549 1.185,-2.2491 0.0305,-0.851 -0.9725,-1.8236 0.4862,-1.8844 -1.6412,-1.6111 3.5563,-0.3648 0.6686,-1.003 -0.2738,-1.246 1.1854,-1.0941 2.4318,0.4254 -0.5167,2.3405 0.8811,2.2793 1.3983,0.4561 -0.7901,2.6746 -0.061,1.4285 0.7902,3.8905 -1.3979,3.1001 -0.0609,1.8615 -3.8593,1.6638 -0.2547,1.2368 0.3995,1.1856 -0.5368,1.7881 -1.7885,0.7516 -1.2856,-1.4693 -0.8945,0.4528 -1.6208,-0.4261 -0.5368,-1.5776 -1.2351,-0.6302 0.5894,-1.8025 -1.5452,-1.4337 -1.8938,0.4502 -1.8787,0.0214 -0.5914,0.889 0.1632,2.5474 -0.3123,3.1849 0.4237,0.6987 -0.6344,1.7486 -1.059,0.1617 -2.0536,-0.4441 -1.3733,1.8534 -0.0496,1.1431 -1.3758,1.109 0.7058,1.5229 2.0553,0.9562 0.3423,2.3724 0.738,0.5966 -0.1662,2.4995 -0.9274,1.1492 -0.2329,1.2059 1.5423,1.6688 0.1252,2.0066 -0.7422,3.2482 -3.0357,0.4356 -2.3037,1.3874 -0.5234,1.3785 0.2605,2.7213 -1.2397,0.9155 -1.9171,2.0811 0.313,0.9498 -0.4186,1.7331 0.9821,2.9776 -1.3741,0.5217 -0.5405,1.0349 -0.2646,3.2267 -0.92,1.5354 -0.1014,2.9956 -1.0944,1.9486 0.1794,1.0769 1.0039,0.9859 0.9204,4.188 2.2043,1.0062 2.6822,2.2656 1.7122,1.0425 2.1037,0.619 z m 0.3452,-157.0262 0.7901,1.6415 0.912,0.9116 -0.1519,0.9727 1.5498,1.9149 1.7931,3.8296 -2.1274,-0.3342 -0.9726,-0.6688 -1.8541,-0.4255 -0.0605,-2.0668 -1.064,-2.2796 0.7902,-0.8814 -0.243,-1.0942 0.6383,-1.5198 z m -1.7327,-4.0501 0.7601,1.7401 -1.5807,1.1248 -0.4558,-1.6111 1.2764,-1.2538 z m 22.8035,74.3223 -2.196,-0.4868 -1.3073,-1.216 -4.5588,-2.0362 -2.1275,0.4558 -2.7357,3.161 -1.5502,-0.3646 -0.5773,-0.6994 -2.1579,0.365 -1.5502,-2.3709 0,-1.2462 -0.6383,-1.5502 -1.2768,0.1217 -0.9116,2.0971 0.091,1.0334 -0.7597,0.9424 -2.7356,1.6109 -1.5498,0.4558 -1.003,-1.9148 -0.061,-2.0364 -0.9421,-0.7295 -0.4562,-1.4284 1.7631,-2.006 -0.4862,-2.7963 -1.5503,-1.8846 0.3039,-0.699 -1.3979,-0.7598 0.8507,-1.2463 -1.9756,-3.4343 0.4863,-1.2158 0,-3.465 0.912,-1.6716 0.2129,-2.0972 1.3674,-2.6141 1.4897,-0.6989 0.6987,-1.0335 3.7692,-2.8267 -0.4563,-3.0392 -0.8506,-1.8846 1.9755,-2.158 1.2155,0.4559 1.4288,-2.2795 1.6412,1.4588 0.5472,1.1248 2.249,1.8539 3.7082,0.547 2.6747,-2.4618 0.0304,1.2157 0.7902,0.8511 1.1854,-0.1823 1.3983,-1.3678 -0.2738,-1.7324 0.912,-1.4285 0.7597,-5.2886 -1.4284,-1.0944 -0.0592,-1.3989 -2.7069,-2.5827 0.2129,-2.8569 -1.3983,0.7292 -1.2155,-0.699 2.4009,-0.8205 2.6442,1.1245 3.131,2.4315 1.8541,0.7903 1.094,-0.1215 0.9725,0.6079 0.5472,3.7688 -1.0639,0.6992 -1.8541,5.0453 -0.2125,2.8876 -0.5472,3.2825 -0.5472,1.2766 0.3343,0.9422 -0.4253,2.1579 0.3949,1.1551 1.3678,0.4861 0.3648,3.2828 1.0944,-0.912 -0.4257,-2.0364 1.1244,-0.2736 -1.3674,-2.9178 0.8812,-2.3706 0.5777,0.6078 2.7961,-1.5501 1.003,-0.2128 -1.003,-1.4285 -1.1244,-0.5774 -0.3344,-1.2158 1.0335,-1.5501 -1.4897,-0.0911 -0.6683,-1.4591 1.155,-0.8814 -0.0305,-1.2157 1.155,-1.4591 2.2189,0 -0.8816,-4.4984 0.3344,-1.3067 0.942,-1.1552 -0.4862,-1.6106 -1.3679,-2.0062 0.8206,-0.6989 -0.8811,-1.003 -2.8876,-0.3953 -3.8906,-1.8844 -1.003,-1.915 -2.0665,-1.4285 -1.1855,-0.0909 -0.5167,-1.6718 1.4893,-0.304 2.006,0.2735 2.3099,-0.1215 0.7977,-0.6996 -0.129,-1.1545 1.3983,-0.6382 1.0093,1.6364 0.6774,0.7863 0.6224,2.378 1.187,0.4498 1.5724,-0.2052 3.8664,-1.6462 -0.2567,-1.1838 1.1804,-0.5697 -1.4826,-1.2565 0.1177,-1.7554 2.9318,-0.3694 1.4505,-1.3451 1.1245,-0.1943 0.6832,-2.6038 0.9976,-0.8311 2.8864,-0.9327 1.3728,0.3632 2.1755,-0.3136 0.6561,-1.3542 1.1354,-0.372 2.9506,-1.8397 1.7952,0.8748 0.9304,1.2945 -0.1928,1.5028 -2.3671,1.6958 -1.751,1.7946 -0.7851,1.3651 -1.4447,1.4576 0.7393,1.4931 -0.5882,1.5543 0.7309,1.3472 1.4158,1.0118 1.5023,-0.2953 2.7523,1.9271 -1.1558,0.5824 0.7142,1.7175 -0.4821,2.2503 1.7965,0.0611 0.8135,0.8737 1.5586,0.5875 2.0786,-0.3209 0.2972,1.0339 2.7937,3.0864 2.163,-1.3739 1.0464,2.5713 0.8056,3.6196 1.963,0.0967 1.4484,-0.4209 2.9999,0.0399 1.8236,1.51 0.6382,1.7389 -0.6382,0.9941 -1.2506,3.8524 0.018,1.0881 -0.8511,3.0821 -3.8509,0.2972 0.3802,1.2746 0.8448,0.112 0.6153,2.304 2.0181,0.8277 -0.8198,3.6913 -0.7221,0.7759 -0.6549,1.8262 1.1638,0.2853 1.076,1.0177 0.6487,2.5088 -0.1461,2.3474 -0.8878,1.2107 -2.085,0.0302 -1.1879,0.5354 -1.9589,-0.03 -0.8573,1.1401 0.3473,1.3673 -1.5152,1.808 -0.4324,1.0961 -0.9951,0.4855 -1.0247,3.3944 0.1628,1.8601 -0.3761,2.2536 -1.7376,1.7776 -1.794,-0.527 -3.4482,1.5812 -0.6023,1.8492 -1.516,0.9476 -1.2818,0.2022 -2.575,-0.6576 -0.1269,-3.2702 0.2701,-1.8796 -0.6478,-3.3175 -1.0176,-1.5521 0.0279,-0.7773 -3.1969,-1.3409 -0.8694,1.9421 -2.2018,0.9429 -0.7839,-1.1196 -1.9492,-0.1217 -0.3456,-1.0705 -1.1258,-0.6803 -0.9646,0.7834 -0.9596,-0.7994 -0.8227,1.0362 0.8043,1.6233 -1.508,1.201 -0.4696,1.0419 -1.8796,-0.1167 -0.7496,-0.6589 -1.2727,-2.7507 -0.8427,0.417 -1.3632,1.9113 -1.9593,1.1202 -0.3139,0.9077 1.099,1.7901 0.1269,0.9881 -1.0815,1.0183 -1.8603,-0.1695 -0.6136,2.1343 z m -24.7486,-55.5307 0.6382,0.79 -1.6717,1.3678 -1.1549,-0.6989 2.1884,-1.4589 z m 5.1061,4.103 3.009,2.9178 0.3344,0.8816 -0.9116,0.7903 -2.6443,-1.7629 0.2125,-2.8268 z"
       id="id66"
       class="svgpath mahajanga"
       inkscape:label="#path135" />
    <path
       inkscape:connector-curvature="0"
       d="m 338.91779,675.20069 -1.9814,-1.4763 -0.004,-0.7958 -2.7482,-2.3532 -2.7523,-1.5365 -1.2456,-0.386 -0.7292,-0.9678 -1.1716,-0.2641 -0.7108,0.9838 -1.4643,0.8526 -1.5398,-0.0382 -2.38,1.9038 -1.0327,-0.4161 0.286,-2.8505 -1.2422,-1.5424 -2.9648,-0.3883 -2.3199,1.222 -2.3425,1.8117 -1.503,1.628 -0.23,0.9215 -2.1037,-0.619 -1.7122,-1.0425 -2.6822,-2.2656 -2.2043,-1.0062 -0.9204,-4.188 -1.0039,-0.9859 -0.1794,-1.0769 1.0944,-1.9486 0.1014,-2.9956 0.92,-1.5354 0.2646,-3.2267 0.5405,-1.0349 1.3741,-0.5217 -0.9821,-2.9776 0.4186,-1.7331 -0.313,-0.9498 1.9171,-2.0811 1.2397,-0.9155 -0.2605,-2.7213 0.5234,-1.3785 2.3037,-1.3874 3.0357,-0.4356 0.7422,-3.2482 -0.1252,-2.0066 -1.5423,-1.6688 0.2329,-1.2059 0.9274,-1.1492 0.1662,-2.4995 -0.738,-0.5966 -0.3423,-2.3724 -2.0553,-0.9562 -0.7058,-1.5229 1.3758,-1.109 0.0496,-1.1431 1.3733,-1.8534 2.0536,0.4441 1.059,-0.1617 0.6344,-1.7486 -0.4237,-0.6987 0.3123,-3.1849 -0.1632,-2.5474 0.5914,-0.889 1.8787,-0.0214 1.8938,-0.4502 1.5452,1.4337 -0.5894,1.8025 1.2351,0.6302 0.5368,1.5776 1.6208,0.4261 0.8945,-0.4528 1.2856,1.4693 1.7885,-0.7516 0.5368,-1.7881 -0.3995,-1.1856 0.2547,-1.2368 3.8593,-1.6638 0.4862,0.5703 2.0365,-2.2188 1.6412,-4.5592 -0.4862,-2.4315 -1.0335,-1.4592 -0.1519,-1.5802 0.6081,-1.3374 0.091,-3.0396 -0.3343,-1.5197 -0.9726,-1.0635 -1.6032,-0.7594 0.6136,-2.1343 1.8603,0.1695 1.0815,-1.0183 -0.1269,-0.9881 -1.099,-1.7901 0.3139,-0.9077 1.9593,-1.1202 1.3632,-1.9113 0.8427,-0.417 1.2727,2.7507 0.7496,0.6589 1.8796,0.1167 0.4696,-1.0419 1.508,-1.201 -0.8043,-1.6233 0.8227,-1.0362 0.9596,0.7994 0.9646,-0.7834 1.1258,0.6803 0.3456,1.0705 1.9492,0.1217 0.7839,1.1196 2.2018,-0.9429 0.8694,-1.9421 3.1969,1.3409 -0.0279,0.7773 1.0176,1.5521 0.6478,3.3175 -0.2701,1.8796 0.1269,3.2702 2.575,0.6576 1.2818,-0.2022 1.516,-0.9476 0.6023,-1.8492 3.4482,-1.5812 1.794,0.527 0.9479,1.0791 2.1759,3.801 0.3706,3.675 0.3749,1.74 -2.0891,0.8171 -0.695,0.7606 0.2559,1.9105 1.2772,1.5589 0.8114,0.1886 2.3154,2.1625 3.3851,3.5294 3.075,-0.9739 2.3458,-1.424 3.2966,-1.3342 2.7665,1.3043 -0.2024,0.8955 0.8928,1.2274 2.5704,-2.0888 1.5352,3.0327 -0.8678,1.3453 -0.0184,2.1085 1.1529,0.9266 1.8879,2.1752 1.0506,-0.4829 1.7013,-2.115 1.2744,-0.5708 1.9793,-0.0866 -0.0309,2.2437 0.8673,1.6917 -0.6749,0.6448 1.3311,0.8978 -0.6628,2.1528 -2.0466,-1.1593 -1.0205,0.926 0.3302,2.1559 -1.3311,1.0351 -1.0285,1.5844 -0.1678,1.4267 -1.6512,2.013 -4.0693,-0.4953 -1.076,-0.617 -2.2866,1.1337 -0.2963,1.8698 -0.6871,0.1657 -1.5193,-1.7753 -2.2206,-0.1682 -1.4079,0.5425 -1.7468,-1.4031 0.0847,-1.5102 -2.6104,-2.24 0.0718,-1.3666 -1.6963,-1.9397 -0.7739,-0.2048 0.0489,-1.7493 -2.4861,-3.0155 -3.0837,-0.5627 -3.1548,2.0038 -0.1239,1.3893 -2.1066,0.0895 -1.1713,0.6601 2.1722,5.1425 0.2763,1.9134 -0.9842,0.5575 -0.1115,1.7299 -0.6828,1.3909 1.9722,3.5664 1.5481,0.0813 1.7368,1.4963 1.1053,2.3539 -1.3365,0.6865 -2.0403,0.0569 -0.9788,-0.5893 -2.092,1.5944 -1.1378,1.363 -1.2923,0.8358 0.124,1.6278 -2.4456,0.8837 -1.3398,2.6007 -0.8628,0.7023 -0.427,2.0676 0.1653,1.5904 -0.2734,8.5424 -0.5351,1.5215 -0.9342,0.6456 -0.008,1.1876 -1.266,0.7053 -0.7634,1.1563 0.136,1.8796 0.5727,0.3906 0.6904,2.391 0.5748,0.9389 1.2705,0.7185 0.2008,2.1539 -1.1837,1.0855 -2.6485,-0.1643 -1.6036,0.8484 -1.2764,0.1519 -1.1792,-1.0836 -2.6384,0.1901 -1.9421,1.6447 -1.3407,1.7062 -2.037,0.3035 -1.5301,1.3835 -1.3833,0.2717 -0.5982,1.2723 z"
       id="id67"
       class="svgpath mahajanga"
       inkscape:label="#path137" />
    <path
       inkscape:connector-curvature="0"
       d="m 403.64259,607.28839 -1.9793,0.0866 -1.2744,0.5708 -1.7013,2.115 -1.0506,0.4829 -1.8879,-2.1752 -1.1529,-0.9266 0.0184,-2.1085 0.8678,-1.3453 -1.5352,-3.0327 -2.5704,2.0888 -0.8928,-1.2274 0.2024,-0.8955 -2.7665,-1.3043 -3.2966,1.3342 -2.3458,1.424 -3.075,0.9739 -3.3851,-3.5294 -2.3154,-2.1625 -0.8114,-0.1886 -1.2772,-1.5589 -0.2559,-1.9105 0.695,-0.7606 2.0891,-0.8171 -0.3749,-1.74 -0.3706,-3.675 -2.1759,-3.801 -0.9479,-1.0791 1.7376,-1.7776 0.3761,-2.2536 -0.1628,-1.8601 1.0247,-3.3944 0.9951,-0.4855 0.4324,-1.0961 1.5152,-1.808 -0.3473,-1.3673 0.8573,-1.1401 1.9589,0.03 1.1879,-0.5354 2.085,-0.0302 0.8878,-1.2107 0.1461,-2.3474 -0.6487,-2.5088 -1.076,-1.0177 -1.1638,-0.2853 0.6549,-1.8262 0.7221,-0.7759 0.8198,-3.6913 -2.0181,-0.8277 -0.6153,-2.304 -0.8448,-0.112 -0.3802,-1.2746 3.8509,-0.2972 0.8511,-3.0821 -0.018,-1.0881 1.2506,-3.8524 0.6382,-0.9941 3.8213,-0.4761 1.5531,1.2741 1.5661,-0.1421 2.3792,-1.2158 3.4331,1.838 2.7553,1.7136 2.2172,-0.3646 1.0982,0.4929 0.7225,1.138 1.9902,0.0244 0.8857,0.9544 3.4874,-0.5039 1.2351,-1.6141 1.7589,-1.4601 1.4868,-0.42 0.9884,0.8277 1.3144,-0.4053 0.291,0.9213 1.2605,0.4695 0.8728,1.4051 0.2312,1.8465 1.0711,1.0014 2.1554,0.4512 0.9196,-0.54 1.8299,-2.5128 5.0493,-2.292 1.5681,-2.2235 1.4843,-0.313 0.7889,-1.8233 1.4208,-1.381 2.3529,-0.6331 2.0937,-1.3158 0.4955,1.3267 2.6976,0.7267 2.1626,1.1355 0.566,0.824 1.4738,0.7099 0.864,-0.4328 1.3929,0.5946 2.1066,1.6964 1.3449,-0.7292 1.7498,-0.1078 -0.4012,3.6208 0.435,1.4521 -0.23,1.6727 2.1425,2.5261 1.5748,0.7549 0.2793,1.8325 1.7493,1.1596 2.7486,2.7135 2.9285,2.2187 1.1825,-0.1538 1.4909,0.9255 1.155,0.1785 0.0655,1.7721 0.6875,1.4589 -0.4341,1.3873 1.9964,2.6336 1.5227,0.5947 1.0623,1.7618 2.6467,-0.0833 1.3399,0.6282 -0.0464,1.2208 1.9426,-0.0608 1.8955,0.5436 1.2764,1.816 1.1345,0.0154 1.326,1.5198 1.7281,0.7248 -0.9375,1.027 -1.3666,-0.3571 -2.2544,2.1903 -1.5134,0.0345 -1.0269,1.1135 0.0727,1.5267 1.6224,2.3196 1.746,0.8141 0.023,1.7216 2.1433,2.1099 0.4692,1.3269 1.0881,1.089 0.1545,1.0156 1.0305,1.2988 0.1578,2.2818 0.7284,0.1404 0.8703,1.301 -1.3804,1.6507 4e-4,1.0865 -3.0349,0.5708 -2.2331,-0.8144 -3.0491,1.6509 -1.372,-0.7789 -1.4296,0.3481 -0.9475,1.2313 -2.2431,-0.4798 -0.2521,-1.1868 0.6186,-1.4855 -0.4767,-1.2693 -1.0356,-0.8017 0.0326,-1.2302 -1.4751,-1.7858 -0.1206,-1.8212 -1.4351,-0.908 -0.894,0.664 -0.5197,2.3815 0.0906,2.0025 -0.6988,0.774 -0.4236,1.6332 -1.2201,1.0073 -1.3211,0.3454 -0.6649,2.0247 -2.5031,-0.2887 -1.3274,1.4653 -1.6116,0.0887 -0.8961,-1.0381 -1.0656,0.106 -2.0645,1.0061 -0.4278,-1.0121 -2.4523,0.5808 -1.0105,-0.8493 -0.6357,1.0002 0.7776,1.3833 -0.2517,1.3295 2.183,3.2464 0.0493,1.404 -0.6766,0.3811 -1.1942,1.7931 -2.4047,1.7414 -2.236,0.3359 -0.9112,1.107 0.1595,1.2401 -0.5831,1.9612 0.2709,1.2544 -1.7936,0.3334 -1.6859,-0.3289 -1.018,1.5426 -2.373,1.1314 -1.4137,2.3423 0.0943,1.7638 -0.9637,0.6083 -0.7054,-1.1619 -3.1043,1.7332 -1.7718,0.4197 -1.683,-1.1053 -1.6416,-0.3578 0.652,-1.6158 -0.9889,-2.7483 -0.6924,-0.5083 -1.2656,-2.2415 0.2258,-1.2673 -2.5269,-0.9523 -3.0233,-1.7575 -1.718,0.0666 -1.1478,-0.495 -1.6454,-2.7016 -2.1113,-0.4209 -0.6761,-2.1791 -2.3145,-1.2048 0.356,-1.3496 -3.0224,0.0905 -0.7321,0.8122 -1.3082,0.1078 -0.9763,-1.9391 -0.9295,0.2281 -0.6645,1.4835 -1.4229,0.7486 z"
       id="id68"
       class="svgpath mahajanga"
       inkscape:label="#path139" />
    <path
       inkscape:connector-curvature="0"
       d="m 360.10139,689.44629 -0.7092,-1.3853 -0.7651,0.1888 -2.3621,-0.5828 -1.6312,0.4823 -2.5511,-0.3813 -2.0223,0.1808 -1.147,-1.7876 -3.141,1.4061 -0.3339,-2.0928 -0.935,-0.5822 -0.9483,-3.6439 0.1444,-0.8359 -0.9183,-1.8995 -2.2823,-2.6976 -1.5812,-0.6147 0.5982,-1.2723 1.3833,-0.2717 1.5301,-1.3835 2.037,-0.3035 1.3407,-1.7062 1.9421,-1.6447 2.6384,-0.1901 1.1792,1.0836 1.2764,-0.1519 1.6036,-0.8484 2.6485,0.1643 1.1837,-1.0855 -0.2008,-2.1539 -1.2705,-0.7185 -0.5748,-0.9389 -0.6904,-2.391 -0.5727,-0.3906 -0.136,-1.8796 0.7634,-1.1563 1.266,-0.7053 0.008,-1.1876 0.9342,-0.6456 0.5351,-1.5215 0.2734,-8.5424 -0.1653,-1.5904 0.427,-2.0676 0.8628,-0.7023 1.3398,-2.6007 2.4456,-0.8837 -0.124,-1.6278 1.2923,-0.8358 1.1378,-1.363 2.092,-1.5944 0.9788,0.5893 2.0403,-0.0569 1.3365,-0.6865 -1.1053,-2.3539 -1.7368,-1.4963 -1.5481,-0.0813 -1.9722,-3.5664 0.6828,-1.3909 0.1115,-1.7299 0.9842,-0.5575 -0.2763,-1.9134 -2.1722,-5.1425 1.1713,-0.6601 2.1066,-0.0895 0.1239,-1.3893 3.1548,-2.0038 3.0837,0.5627 2.4861,3.0155 -0.0489,1.7493 0.7739,0.2048 1.6963,1.9397 -0.0718,1.3666 2.6104,2.24 -0.0847,1.5102 1.7468,1.4031 1.4079,-0.5425 2.2206,0.1682 1.5193,1.7753 0.6871,-0.1657 0.2963,-1.8698 2.2866,-1.1337 1.076,0.617 4.0693,0.4953 1.6512,-2.013 0.1678,-1.4267 1.0285,-1.5844 1.3311,-1.0351 -0.3302,-2.1559 1.0205,-0.926 2.0466,1.1593 0.6628,-2.1528 -1.3311,-0.8978 0.6749,-0.6448 -0.8673,-1.6917 0.0309,-2.2437 1.4229,-0.7486 0.6645,-1.4835 0.9295,-0.2281 0.9763,1.9391 1.3082,-0.1078 0.7321,-0.8122 3.0224,-0.0905 -0.356,1.3496 2.3145,1.2048 0.6761,2.1791 2.1113,0.4209 1.6454,2.7016 1.1478,0.495 1.718,-0.0666 3.0233,1.7575 2.5269,0.9523 -0.2258,1.2673 1.2656,2.2415 0.6924,0.5083 0.9889,2.7483 -0.652,1.6158 1.6416,0.3578 1.683,1.1053 1.7718,-0.4197 3.1043,-1.7332 0.7054,1.1619 0.9637,-0.6083 -0.0943,-1.7638 1.4137,-2.3423 2.373,-1.1314 1.018,-1.5426 1.6859,0.3289 1.7936,-0.3334 -0.2709,-1.2544 0.5831,-1.9612 -0.1595,-1.2401 0.9112,-1.107 2.236,-0.3359 2.4047,-1.7414 1.1942,-1.7931 0.6766,-0.3811 -0.0493,-1.404 -2.183,-3.2464 0.2517,-1.3295 -0.7776,-1.3833 0.6357,-1.0002 1.0105,0.8493 2.4523,-0.5808 0.4278,1.0121 2.0645,-1.0061 1.0656,-0.106 0.8961,1.0381 1.6116,-0.0887 1.3274,-1.4653 2.5031,0.2887 0.6649,-2.0247 1.3211,-0.3454 1.2201,-1.0073 0.4236,-1.6332 0.6988,-0.774 -0.0906,-2.0025 0.5197,-2.3815 0.894,-0.664 1.4351,0.908 0.1206,1.8212 1.4751,1.7858 -0.0326,1.2302 1.0356,0.8017 0.4767,1.2693 -0.6186,1.4855 0.2521,1.1868 2.2431,0.4798 0.9475,-1.2313 1.4296,-0.3481 1.372,0.7789 3.0491,-1.6509 2.2331,0.8144 3.0349,-0.5708 0.9409,1.6031 0.9424,0.5413 0.5827,2.5163 1.036,1.8454 2.1743,1.6437 -0.0697,1.2815 -0.7885,2.126 -1.4012,2.1555 -1.7256,0.1877 -2.4735,1.4808 -0.0872,0.8709 1.498,2.4906 -0.3026,1.2967 0.8557,0.4458 2.9218,-0.2083 0.3289,1.2675 -0.6753,0.7315 -0.0806,2.3983 -0.93,3.7247 1.4551,3.016 -1.5853,3.0517 -0.4383,3.6956 0.4341,1.5791 -2.7118,0.8699 -1.1913,-0.5432 -1.9442,-1.7117 -1.0147,0.2615 -1.3036,-0.7497 -2.2281,-0.136 -0.5756,4.1561 0.3056,1.3257 1.3619,1.1573 -0.2955,1.2764 0.4767,0.7113 0.5422,4.8129 -0.4174,3.9961 -2.1137,1.8503 -2.1196,-0.7678 -1.0564,0.1836 -0.8954,-0.7615 -1.1344,0.8286 -0.2764,1.462 -0.7442,0.0179 -0.6954,1.286 -1.9108,0.7684 -1.1333,0.0302 -2.663,1.0953 -1.8303,-0.612 -1.443,0.6412 -1.5185,-0.1138 -1.1929,0.7757 -0.8285,2.2062 -2.1555,0.0626 -2.1847,0.9893 -0.0768,0.5078 -2.5236,0.8449 -0.6123,1.1554 -1.0811,-1.137 -1.2134,-0.2494 -2.3963,1.3992 -1.7577,0.234 -1.3711,0.8339 -1.9084,-0.3438 -1.417,0.161 0.2312,1.7367 0.9563,1.9668 0.7617,0.5256 -0.8665,1.8958 0.8252,1.2533 0.202,1.545 0.7776,1.2715 -2.7757,1.0784 -0.8736,0.6388 -1.3866,-0.3944 -1.7652,0.8912 -0.4299,2.1065 -1.8583,1.1679 -0.2884,1.0785 -1.3891,0.3509 -1.6166,-0.176 -0.614,-0.707 -3.4081,-1.303 0.7434,-1.9962 -0.8887,-1.1455 -0.3948,-1.9819 -0.7722,-1.0688 -3.7579,-0.1043 -1.7251,-0.4284 -1.9255,0.1258 -0.0784,-1.6866 -1.6292,0.6947 -0.5722,-2.2596 -1.6145,1.3637 -0.5472,-0.9093 -1.4902,0.5027 0.0443,-1.1918 -1.1838,-0.7239 -2.2823,2.5721 -2.0908,4.1639 -3.1205,1.7828 -4.0216,1.1319 -3.0157,2.3637 -1.567,0.3739 -0.1657,1.309 -1.5022,1.5035 -1.1082,3.0451 -0.2571,2.4544 0.202,3.3417 -1.3557,0.9257 0.1962,1.4328 -0.6341,1.1751 -1.8144,-0.8956 -1.9722,-0.2923 -7.6589,1.1602 -0.8177,-0.6731 0.0897,-1.6401 -0.6983,-1.2113 -2.5841,-0.4018 -0.5869,-2.3577 -1.127,-1.9423 -2.6263,0.2106 -2.6575,-1.3017 -2.5884,-0.4566 -0.3188,1.1097 0.6327,1.0644 -2.5207,1.6189 -1.1933,-0.5057 -0.2763,-1.3504 -2.6764,-1.6277 -2.385,0.8269 z"
       id="id69"
       class="svgpath mahajanga"
       inkscape:label="#path141" />
    <path
       inkscape:connector-curvature="0"
       d="m 323.99779,800.34799 -1.1269,0.4531 -3.3397,-2.072 -4.2232,-0.6852 -3.5404,-2.4597 -1.6362,-0.6117 -1.61,1.9115 -1.7434,-0.8229 -2.0975,-1.9729 -2.8329,-2.0404 -1.6829,-0.1722 -2.2419,-1.0214 0.0167,-2.3714 -0.4003,-1.3735 1.1224,-1.3173 -0.1657,-1.3297 -2.3224,-1.0814 -1.0757,0.097 -0.4725,-1.2199 -4.0329,-0.2658 -0.7221,0.5232 -2.2256,0.0384 -0.3832,-0.6422 -1.4421,0.3876 -3.0812,-0.8014 0.0763,2.7129 -2.5198,0.1546 -3.9098,-1.4179 -2.1275,-0.1918 -1.7042,-0.5631 -2.4882,0.3799 -1.7084,-1.6546 0.2914,-2.0689 1.0343,-0.9389 0.0647,-1.4616 0.7054,-2.8297 -1.852,-1.9307 -2.1476,0.6311 -1.0681,-1.1326 -0.993,0.6897 -2.2368,-0.333 -0.7146,-1.5463 0.8594,-1.7385 0.586,-0.2212 0.6132,-2.0793 -0.7175,-2.6954 -2.1091,-1.2883 -1.4159,0.0391 -1.6354,1.8795 -1.5381,-0.1114 -0.2575,-1.1917 -1.5135,-2.1957 0.4078,-1.8272 -0.2083,-2.0399 0.8139,-1.0117 -0.6135,-2.1192 -1.0156,-0.3621 -0.4658,-1.9117 -1.3344,-0.0484 -0.8607,1.5586 -1.5106,-0.9644 0.6199,-1.0673 -0.9237,-1.8216 1.5235,-1.2545 0.222,-1.2549 -2.289,0.5042 -1.6709,-1.1802 -0.6862,-3.8016 -2.4259,-0.4024 0.2333,-2.436 -1.4542,-1.401 0.4917,-2.6988 1.2543,0.0444 2.3687,1.7257 0.8686,6e-4 1.2731,-1.4552 -0.0964,-0.8736 -1.3428,-1.6928 0.5539,-2.0135 -0.9767,-1.7093 1.392,0.709 0.3227,2.3378 0.5643,1.0918 2.7398,3.0841 3.0233,1.6074 3.4627,-0.8173 1.3036,-0.9283 7.5462,-2.2959 2.1538,-1.6249 0.3906,-1.529 2.3433,-2.3407 2.0165,-0.9176 0.5718,-0.746 0.4433,-1.8913 0.9625,-1.1397 1.0561,-0.2705 1.4145,1.0692 2.5975,-0.3203 0.8035,-0.712 3.9528,0.8843 1.4317,-0.1421 1.7573,-1.8952 1.2785,-0.8855 0.7233,-1.8426 -0.46,-1.2113 0.2288,-2.2372 0.6766,-1.8047 -0.5781,-1.352 0.7864,-0.782 1.6007,0.0124 0.5827,1.6325 2.0887,-0.274 0.9955,-0.633 0.3214,2.6639 0.5,0.8719 -0.2767,1.1372 0.6599,0.9887 0.1344,2.7458 0.8122,2.0708 1.3195,0.2721 0.8577,-0.8028 1.2568,0.005 -0.0914,-1.5241 2.3475,0.6458 1.3156,0.6957 1.7089,2.1187 0.9111,2.1492 2.5637,0.5464 0.1808,1.4957 1.4529,-0.3558 -0.1077,1.9237 0.9313,0.5878 0.3422,1.9233 1.314,0.5745 1.3649,-0.3915 0.763,0.9322 1.2276,0.2174 0.7154,2.3981 1.6462,-0.0577 1.7903,-1.496 3.6406,-0.1336 1.291,0.4482 0.5267,-0.637 3.8051,1.6529 2.3266,0.2272 3.3125,-0.3816 1.1975,1.1714 0.2454,2.0079 1.703,1.4302 0.4249,1.1815 2.009,2.1091 4.1581,3.1124 0.048,1.6579 1.0594,1.8023 0.5777,-0.4182 2.4873,2.9487 1.2872,0.2181 1.4321,1.415 0.6862,1.6794 1.0803,0.4471 1.6166,4.0291 1.7718,1.7951 -2.1567,1.0387 -2.557,-0.3285 -1.8123,0.8237 -1.6112,2.0864 -2.3996,-0.5537 -2.4231,1.5763 -1.195,-0.567 -2.726,-0.1549 -2.1555,-1.3048 -2.961,-0.4881 -1.4488,-1.0567 -1.7293,0.935 -2.4681,-0.0927 -1.3791,-1.5926 -0.7768,0.3663 -0.9396,4.6025 -0.5154,1.0333 -2.4706,1.4918 -0.998,2.4887 -0.8791,1.3125 0.7826,1.3885 0.3185,1.8326 0.978,1.7324 0.5964,3.9616 -2.0081,0.7889 0.7142,0.8072 -0.2362,2.2886 -2.0812,0.8472 -0.3481,1.9745 0.2425,1.2797 -0.2772,3.3511 0.5811,0.7499 -0.7881,2.5224 1.4688,1.71 -0.2325,0.6827 z"
       id="id70"
       class="svgpath mahajanga"
       inkscape:label="#path143" />
    <path
       inkscape:connector-curvature="0"
       d="m 436.63689,811.51159 -4.4842,-0.8229 -1.5873,0.4552 -2.3554,-0.7084 -1.352,0.6297 -1.2893,-0.292 -0.6729,0.8269 -3.7044,-0.9556 -0.3227,0.5764 -2.0436,-0.4721 -1.1174,-1.7118 -0.9011,-0.312 -2.9844,0.9626 -0.6829,-0.5216 -1.357,2.2306 -1.968,0.5207 -1.4242,-0.6743 -0.5781,-1.4083 -1.2656,-1.3301 -1.6132,0.0495 -2.7603,1.0959 -1.7234,-0.6355 0.1373,-0.6937 1.7046,-0.5944 1.0319,-1.616 0.4975,-2.2187 1.5561,-0.9957 0.8051,-1.5725 -0.1861,-1.3071 -0.9884,-0.1691 -3.146,-2.9623 1.6655,-2.0555 0.6252,-1.5439 -0.2158,-1.0364 -2.1471,0.9053 0.1691,-3.3148 -0.7276,-0.1653 -1.1332,-1.9791 -1.4993,-0.3748 0.4871,-1.6621 -3.7904,-2.6693 -3.1552,-2.4451 -2.0361,0.4462 -2.2209,-1.5653 -0.2718,-1.4375 -1.2238,-1.2182 -0.6102,-1.6013 -1.4559,-1.6081 -1.9497,-0.8335 -0.7075,0.75 -1.4814,0.1292 -1.0468,0.6493 -1.933,-0.5873 -0.3781,0.9488 -1.2305,0.0882 0.1748,-2.356 -0.4345,-1.6024 -0.8924,-0.0476 -2.4376,-1.1006 -3.0929,-2.0432 -1.9986,-1.947 -1.4304,-2.1592 0.3381,-0.9026 1.5193,-1.1959 0.3665,-2.7106 -0.3498,-2.0668 0.3056,-2.0953 -1.2865,-2.4458 -0.4741,-1.4684 -1.7055,-1.5592 -2.0286,-0.4664 -1.0301,-1.3695 -1.5165,-0.9475 -1.6984,-3.0201 -0.3506,-3.5546 0.4817,-3.131 -0.4808,-1.9758 -0.5427,-0.5143 -0.3614,-2.7599 -1.3503,-2.9948 0.2984,-1.6683 2.4573,-1.9444 0.7964,-1.3283 1.7576,-1.1865 2.2018,-0.7881 0.0643,-1.6054 2.4535,-1.179 1.1979,-1.7692 2.5232,0.0782 0.8152,-0.8957 2.115,0.3139 0.998,-1.3346 -0.2333,-2.9518 -2.0365,-1.2001 -0.2768,-1.1408 -0.8653,-0.7955 -2.2318,-0.3125 -0.7442,-0.6002 -1.6997,0.5753 -1.1545,0.8947 -1.5077,0.271 -1.1366,-1.5373 1.2497,-1.4617 0.4696,-1.381 2.2164,-3.5844 -1.0439,-1.0461 0.1599,-0.8973 -0.9617,-0.8284 -0.7526,-2.3749 -1.3979,-0.782 -0.5276,-2.1333 0.0146,-2.0032 -0.9913,-0.6619 0.5556,-1.5649 2.385,-0.8269 2.6764,1.6277 0.2763,1.3504 1.1933,0.5057 2.5207,-1.6189 -0.6327,-1.0644 0.3188,-1.1097 2.5884,0.4566 2.6575,1.3017 2.6263,-0.2106 1.127,1.9423 0.5869,2.3577 2.5841,0.4018 0.6983,1.2113 -0.0897,1.6401 0.8177,0.6731 7.6589,-1.1602 1.9722,0.2923 1.8144,0.8956 0.6341,-1.1751 -0.1962,-1.4328 1.3557,-0.9257 -0.202,-3.3417 0.2571,-2.4544 1.1082,-3.0451 1.5022,-1.5035 0.1657,-1.309 1.567,-0.3739 3.0157,-2.3637 4.0216,-1.1319 3.1205,-1.7828 2.0908,-4.1639 2.2823,-2.5721 1.1838,0.7239 -0.0443,1.1918 1.4902,-0.5027 0.5472,0.9093 1.6145,-1.3637 0.5722,2.2596 1.6292,-0.6947 0.0784,1.6866 1.9255,-0.1258 1.7251,0.4284 3.7579,0.1043 0.7722,1.0688 0.3948,1.9819 0.8887,1.1455 -0.7434,1.9962 3.4081,1.303 0.614,0.707 1.6166,0.176 1.3891,-0.3509 0.2884,-1.0785 1.8583,-1.1679 0.4299,-2.1065 1.7652,-0.8912 1.3866,0.3944 0.8736,-0.6388 2.7757,-1.0784 0.9943,-0.0359 0.7459,0.9449 1.8908,-0.6151 1.9221,0.2645 1.8662,-0.9033 0.513,1.595 1.721,0.3076 0.1974,-1.5988 1.2455,0.0867 0.2763,2.5124 -2.1012,0.3965 -0.3159,1.8995 -0.9363,0.1136 -1.1891,1.5856 -2.0107,1.6633 0.4028,2.7257 1.7598,1.6591 0.0192,0.8399 -1.2121,1.1442 -0.0668,1.9558 -0.5239,1.1272 0.2597,2.193 -0.4279,0.9962 0.0401,3.4835 -0.8369,0.0415 -0.5743,2.4686 -0.0756,2.3517 -1.7631,4.857 1.6575,1.2481 0.3907,1.0077 1.2013,-0.1833 1.66,0.8851 0.4587,1.0905 -0.407,1.0643 0.7956,1.917 -0.0188,1.8704 0.8753,1.1604 -0.6453,1.6319 0.6407,0.8384 0.761,2.9176 1.983,2.28 1.367,0.5399 3.0041,4.2335 1.9709,2.2343 5.5707,3.7919 1.6675,0.01 -0.8853,2.5659 -0.0234,1.5048 -2.0035,0.3026 -0.5397,1.3841 -2.2878,1.0579 -1.2885,1.1048 -0.2058,2.1968 1.4029,1.4843 1.8754,0.4973 -0.6049,1.0498 -0.3414,2.6505 0.738,0.9579 -1.1153,2.134 -0.0848,2.523 0.2605,2.72 0.6486,1.2002 -1.5665,1.7925 -0.8552,-0.1074 -1.4367,1.9926 1.1178,1.1612 0.5998,2.5535 -2.6409,0.8893 -2.2606,1.4515 0.1344,0.998 -1.2239,2.1164 0.6391,0.3817 -0.6816,2.6088 3.0445,1.3966 -0.9383,1.491 0.4228,1.9048 -0.743,1.9643 -1.6274,0.6578 -1.5256,-0.5205 -3.2361,1.6358 -2.1534,-0.0434 -2.1258,1.2831 -0.6332,0.8874 -2.0912,1.3509 -0.7543,1.0134 -2.2343,1.098 -1.2852,1.7506 0.2041,1.2353 -0.1995,2.5006 -0.8749,0.699 0.465,1.103 -0.7797,0.7611 -1.3419,-0.0921 -1.5895,2.7457 1.4488,1.7212 0.6424,2.212 -3.0424,1.0946 -1.3403,1.2783 z"
       id="id71"
       class="svgpath mahajanga"
       inkscape:label="#path145" />
    <path
       inkscape:connector-curvature="0"
       d="m 365.48249,763.44849 -3.0604,0.1046 -2.5328,-0.7386 -1.7718,-1.7951 -1.6166,-4.0291 -1.0803,-0.4471 -0.6862,-1.6794 -1.4321,-1.415 -1.2872,-0.2181 -2.4873,-2.9487 -0.5777,0.4182 -1.0594,-1.8023 -0.048,-1.6579 -4.1581,-3.1124 -2.009,-2.1091 -0.4249,-1.1815 -1.703,-1.4302 -0.2454,-2.0079 -1.1975,-1.1714 -3.3125,0.3816 -2.3266,-0.2272 -3.8051,-1.6529 -0.5267,0.637 -1.291,-0.4482 -3.6406,0.1336 -1.7903,1.496 -1.6462,0.0577 -0.7154,-2.3981 -1.2276,-0.2174 -0.763,-0.9322 -1.3649,0.3915 -1.314,-0.5745 -0.3422,-1.9233 -0.9313,-0.5878 0.1077,-1.9237 -1.4529,0.3558 -0.1808,-1.4957 -2.5637,-0.5464 -0.9111,-2.1492 -1.7089,-2.1187 -1.3156,-0.6957 -2.3475,-0.6458 0.0914,1.5241 -1.2568,-0.005 -0.8577,0.8028 -1.3195,-0.2721 -0.8122,-2.0708 -0.1344,-2.7458 -0.6599,-0.9887 0.2767,-1.1372 -0.5,-0.8719 -0.3214,-2.6639 -0.9955,0.633 -2.0887,0.274 -0.5827,-1.6325 -1.6007,-0.0124 -0.7864,0.782 0.5781,1.352 -0.6766,1.8047 -0.2288,2.2372 0.46,1.2113 -0.7233,1.8426 -1.2785,0.8855 -1.7573,1.8952 -1.4317,0.1421 -3.9528,-0.8843 -0.8035,0.712 -2.5975,0.3203 -1.4145,-1.0692 -1.0561,0.2705 -0.9625,1.1397 -0.4433,1.8913 -0.5718,0.746 -2.0165,0.9176 -2.3433,2.3407 -0.3906,1.529 -2.1538,1.6249 -7.5462,2.2959 -1.3036,0.9283 -3.4627,0.8173 -3.0233,-1.6074 -2.7398,-3.0841 -0.5643,-1.0918 -0.3227,-2.3378 -1.392,-0.709 -0.5026,-0.6579 0.1841,-1.7444 -1.8365,-2.4329 -0.0764,-2.2537 -0.6921,-0.8257 -1.5965,-0.4382 -1.4509,-1.0977 -0.7956,-1.8898 -0.2792,-1.8377 -1.6625,-1.2589 -1.2535,-0.4857 -0.1432,-2.1006 1.3027,-1.3427 2.8759,-0.2223 0.483,-1.848 -3.5939,-6.6554 0.9346,-1.0869 -1.218,-1.8971 -2.1667,-0.7832 -0.3565,-1.3836 2.0094,-0.3586 -0.0117,-3.3061 0.4024,-2.3388 0.753,-2.0421 2.256,-3.053 -0.169,-2.7261 1.0844,-2.0983 0.1181,-0.9924 -1.1616,-2.4177 4.0876,2.2188 1.3374,-0.1823 1.2159,-0.7297 -0.5473,-1.2158 2.2189,-1.7324 0.7902,-2.2796 -0.4395,-0.3342 2.2543,-1.0143 1.2852,-0.035 2.062,0.6262 1.3979,-0.4369 1.6687,1.9356 2.0349,-0.0889 1.7956,0.8875 3.6264,0.9117 2.4986,-0.3731 1.3953,-0.7972 1.7097,0.2827 2.7102,1.8594 1.2405,-0.3145 1.0548,-0.8793 3.1522,-0.8785 1.7497,0.085 2.633,-0.8025 1.1099,-0.0264 1.4613,1.4965 0.8273,0.1015 1.7581,-2.7606 1.3945,-0.6879 1.0323,0.7201 1.8081,2.2041 0.6132,2.1907 1.2998,0.3743 3.052,-1.3135 1.415,0.2609 0.8169,-0.7469 2.4864,-0.1519 0.6307,0.8326 1.0072,-1.7154 2.9318,-0.2014 2.979,-0.65 0.9826,-1.6532 -0.202,-0.782 0.23,-0.9215 1.503,-1.628 2.3425,-1.8117 2.3199,-1.222 2.9648,0.3883 1.2422,1.5424 -0.286,2.8505 1.0327,0.4161 2.38,-1.9038 1.5398,0.0382 1.4643,-0.8526 0.7108,-0.9838 1.1716,0.2641 0.7292,0.9678 1.2456,0.386 2.7523,1.5365 2.7482,2.3532 0.004,0.7958 1.9814,1.4763 1.5812,0.6147 2.2823,2.6976 0.9183,1.8995 -0.1444,0.8359 0.9483,3.6439 0.935,0.5822 0.3339,2.0928 3.141,-1.4061 1.147,1.7876 2.0223,-0.1808 2.5511,0.3813 1.6312,-0.4823 2.3621,0.5828 0.7651,-0.1888 0.7092,1.3853 -0.5556,1.5649 0.9913,0.6619 -0.0146,2.0032 0.5276,2.1333 1.3979,0.782 0.7526,2.3749 0.9617,0.8284 -0.1599,0.8973 1.0439,1.0461 -2.2164,3.5844 -0.4696,1.381 -1.2497,1.4617 1.1366,1.5373 1.5077,-0.271 1.1545,-0.8947 1.6997,-0.5753 0.7442,0.6002 2.2318,0.3125 0.8653,0.7955 0.2768,1.1408 2.0365,1.2001 0.2333,2.9518 -0.998,1.3346 -2.115,-0.3139 -0.8152,0.8957 -2.5232,-0.0782 -1.1979,1.7692 -2.4535,1.179 -0.0643,1.6054 -2.2018,0.7881 -1.7576,1.1865 -0.7964,1.3283 -2.4573,1.9444 -0.2984,1.6683 1.3503,2.9948 0.3614,2.7599 0.5427,0.5143 0.4808,1.9758 -0.4817,3.131 0.3506,3.5546 1.6984,3.0201 1.5165,0.9475 1.0301,1.3695 2.0286,0.4664 1.7055,1.5592 0.4741,1.4684 1.2865,2.4458 -0.3056,2.0953 0.3498,2.0668 -0.3665,2.7106 -1.5193,1.1959 -0.3381,0.9026 z m -116.361,-89.7303 -0.4257,1.1551 -1.7932,1.3371 -2.3404,-0.4558 0.9121,-1.5502 3.6472,-0.4862 z m -6.6563,4.28 3.1305,0.3095 -0.7901,1.0639 -2.3404,-1.3734 z"
       id="id72"
       class="svgpath mahajanga"
       inkscape:label="#path147" />
  </g>
</svg>
