<?xml version="1.0" encoding="UTF-8" standalone="no"?>
<!-- Created with Inkscape (http://www.inkscape.org/) -->

<svg
   xmlns:dc="http://purl.org/dc/elements/1.1/"
   xmlns:cc="http://creativecommons.org/ns#"
   xmlns:rdf="http://www.w3.org/1999/02/22-rdf-syntax-ns#"
   xmlns:svg="http://www.w3.org/2000/svg"
   xmlns="http://www.w3.org/2000/svg"
   xmlns:sodipodi="http://sodipodi.sourceforge.net/DTD/sodipodi-0.dtd"
   xmlns:inkscape="http://www.inkscape.org/namespaces/inkscape"
   width="84.666588mm"
   height="87.627419mm"
   viewBox="0 0 299.99972 310.49085"
   id="svg4042"
   version="1.1"
   inkscape:version="0.91 r13725"
   sodipodi:docname="district_15.svg">
  <defs
     id="defs4044" />
  <sodipodi:namedview
     id="base"
     pagecolor="#ffffff"
     bordercolor="#666666"
     borderopacity="1.0"
     inkscape:pageopacity="0.0"
     inkscape:pageshadow="2"
     inkscape:zoom="0.35"
     inkscape:cx="-360.44474"
     inkscape:cy="-50.609715"
     inkscape:document-units="px"
     inkscape:current-layer="layer1"
     showgrid="false"
     fit-margin-top="0"
     fit-margin-left="0"
     fit-margin-right="0"
     fit-margin-bottom="0"
     inkscape:window-width="1366"
     inkscape:window-height="715"
     inkscape:window-x="-8"
     inkscape:window-y="-8"
     inkscape:window-maximized="1" />
  <metadata
     id="metadata4047">
    <rdf:RDF>
      <cc:Work
         rdf:about="">
        <dc:format>image/svg+xml</dc:format>
        <dc:type
           rdf:resource="http://purl.org/dc/dcmitype/StillImage" />
        <dc:title></dc:title>
      </cc:Work>
    </rdf:RDF>
  </metadata>
  <g
     inkscape:label="Calque 1"
     inkscape:groupmode="layer"
     id="layer1"
     transform="translate(-274.01617,-171.26165)">
    <path
       inkscape:connector-curvature="0"
       d="m 495.65376,447.63429 -5.21129,-6.41161 0.75714,-1.43036 7.95376,-5.21007 -0.18955,-3.07414 -1.81256,-4.69191 0.10025,-2.54044 -4.18284,0.13705 -0.87093,2.82546 -3.99452,0.46796 -3.23752,-1.07666 -1.83827,-4.23904 -6.38481,0.3132 -0.27825,-3.17793 -1.56448,-2.30484 1.92496,-2.26526 -1.79192,-1.57342 -3.60509,-1.07789 -0.63441,-1.20508 0.86893,-2.81391 -0.84891,-2.59403 1.09452,-2.50132 -3.47528,-4.16775 0.80981,-1.31241 -0.29365,-3.82405 -4.33852,-1.58434 -4.17452,0.16969 -1.58373,-1.11993 -2.99638,2.05862 -1.88123,0.67276 -2.64869,2.47129 -1.55555,9.3e-4 -5.99662,1.33874 -1.66087,1.55678 -2.16533,9.2e-4 -2.58694,1.45485 -8.35243,-0.22882 -4.99018,-1.41404 -3.15837,0.5277 -2.1467,-0.30365 2.93602,-4.82988 -0.0508,-2.58124 -1.43776,-1.87923 -0.89603,-3.35286 -2.6319,0.057 -2.8384,-0.73143 -3.19426,-5.56115 -1.19877,-1.36492 0.70002,-2.65223 2.53489,-0.91112 3.70271,-4.07228 1.65179,-5.38068 -0.19987,-2.70073 3.14822,-3.83976 0.0802,-1.14364 -1.62346,-2.4733 0.19787,-7.25252 -0.64966,-2.10666 1.44345,-0.92391 2.25341,-3.42862 0.84584,-2.87304 3.77354,-1.04509 3.25801,-2.1216 -0.0444,-1.82472 1.77775,-0.29765 0.89727,-3.5478 -1.34198,-4.17083 1.25405,-1.54924 1.43576,-4.2649 2.6416,-3.32699 2.31577,-1.69907 2.42064,-0.76145 2.87551,-4.46401 -0.26932,-2.10759 1.35937,-1.66565 -1.06434,-2.9913 4.9118,-1.56341 2.93864,-2.45589 0.76607,-1.64949 2.51626,-0.95932 1.87292,-2.29237 2.45466,1.47579 1.47317,-0.21604 1.21155,-5.17881 1.2405,-1.46116 3.03242,0.70464 0.62086,-0.96718 2.92633,0.28333 1.53738,-3.60277 3.52024,1.17721 -1.66073,-3.16454 -1.80362,-0.26839 0.87618,-2.57124 -0.21666,-2.17749 3.34162,-0.18617 0.33861,-3.07199 3.57814,-1.8395 1.23526,-3.38519 1.39418,-0.24684 1.96807,-5.47353 1.279,-1.59005 0.11949,-4.89024 1.46932,-1.76666 0.23914,-1.94683 -0.97319,-1.89047 -0.45179,-3.67715 1.11578,-2.40862 3.10063,-0.59484 0.40482,-1.43853 2.96682,-0.90235 1.75866,0.95455 0.0326,1.71693 0.29057,1.49596 6.4441,2.41864 2.72968,-0.8192 0.45118,3.45541 2.31315,2.31254 0.36002,2.92309 2.00334,5.01666 0.15675,3.01825 3.97342,2.83254 2.0851,-0.70355 3.40583,-0.21589 0.49168,4.42998 1.86583,0.98212 -0.18001,1.88323 -1.66211,0.41714 -0.40421,2.7865 3.12496,1.24851 0.23775,4.48695 1.6866,2.24571 1.82025,1.24374 1.90371,4.11831 -4.75427,2.32532 -1.12732,0.12011 -3.65914,-1.76728 -1.99702,-2.09342 -1.75466,0.49183 -1.53676,-2.31778 -3.16485,1.33335 0.0862,2.49163 3.71503,6.80996 2.34071,6.66553 1.38125,1.17844 1.14087,2.51057 1.23156,-0.0985 0.88495,2.67856 -0.21973,1.61776 -2.00673,2.03044 -2.68456,0.24222 -1.83119,1.77236 0.009,1.85151 1.56895,2.58432 3.02656,0.65751 2.75864,-0.33584 3.11865,4.87007 -1.60175,0.76484 -0.003,4.76136 2.74385,1.16597 4.33913,4.35576 1.82656,4.96892 1.52014,1.12224 -1.44746,1.95976 -2.8852,0.35786 -2.64176,1.55124 -3.18086,0.67399 -0.71526,2.40539 2.05924,3.99713 2.97005,1.9051 2.12298,0.17831 0.46719,2.4405 2.26126,1.12871 2.86843,2.35489 0.81504,2.81653 2.23801,3.04689 0.0867,2.34534 12.71589,4.19053 0.17539,2.61435 3.87902,3.43031 -0.92437,0.95116 1.26052,2.63268 3.18024,-0.81427 0.775,1.45222 4.45093,2.95943 3.03503,-0.172 0.62225,1.13995 2.44035,0.7151 1.51182,1.58851 1.51613,3.97557 -0.32906,2.08572 -3.77801,4.89763 -0.20573,1.26575 2.36982,5.11968 -3.31528,2.19859 0.0791,1.11408 2.29329,1.62808 -7.47118,2.24632 -18.1597,6.88018 -2.80821,0.79564 -15.53796,6.36511 -5.94411,2.66762 -6.50569,3.65067 -8.79837,3.93138 -3.9785,2.94849 -2.29329,0.98335 -3.9785,2.57385 z"
       id="id80"
       class="svgpath toliary"
       inkscape:label="#path183" />
    <path
       inkscape:connector-curvature="0"
       d="m 422.64047,342.35847 -2.24047,-2.59402 0.2205,-1.72555 -2.85764,-1.55863 -0.17092,-1.3021 -2.7979,-2.51826 -4.16097,0.78871 -3.49145,-0.33338 -4.07289,-2.51333 -2.76386,-0.80473 -1.46671,-1.99502 -3.73366,-0.22435 -2.15563,-2.88706 -4.22918,-2.0774 -4.24535,-6.9019 0.0553,-1.71585 1.27391,-1.72385 -1.09006,-2.59372 -2.38907,-2.70135 -1.87214,0.0647 -2.93217,-1.4995 -3.87579,2.49455 -1.82857,0.19572 0.96872,-1.44207 1.92681,-0.88602 -1.22495,-2.94265 0.61378,-3.14267 0.95055,-1.46608 -2.15502,-1.80286 0.17986,-4.10707 -2.19936,-0.9815 -0.53156,-1.42528 0.76361,-1.81409 -1.85813,-2.54352 0.29303,-2.1507 -1.92696,-3.57798 1.05279,-1.30671 -1.3606,-3.94924 -0.11949,-2.49424 1.17613,-6.44657 0.82459,-0.88926 1.09914,-7.4319 1.64347,-2.72799 2.17242,-1.00568 1.99825,-3.42246 3.21628,-2.19397 1.99826,-4.76905 2.50348,-2.49778 0.53278,-2.29868 -1.07727,-1.5902 0.34061,-3.79726 0.684,-2.10389 -0.7148,-5.41117 3.02472,-11.23563 -0.88449,-4.00037 1.83504,-0.14628 2.50794,-2.60203 1.45007,-3.31436 -2.87566,-2.38646 -0.0237,-3.96171 4.44445,-3.48883 -0.55403,-3.07645 -1.44992,-1.68044 0.40483,-2.25217 -2.34919,-1.5688 -0.9775,-2.69919 4.81849,0.45672 0.91266,-2.84702 3.96372,-0.92114 2.71428,0.0754 1.56248,-1.66149 2.47715,0.1854 1.78361,-2.33302 2.5586,0.34154 4.8559,-1.48888 2.37552,0.31136 2.86211,-0.99844 5.49479,1.71231 5.09365,-2.47268 1.42174,-2.2993 0.74236,2.24633 2.46868,1.46639 -0.10533,2.55199 2.69103,2.23154 2.25542,3.59677 0.25315,3.17116 1.07989,1.59728 2.81376,1.95714 -3.69501,3.89134 -0.95317,1.80101 -0.2262,3.02333 2.27327,4.7846 -1.27253,2.94296 4.27415,3.64912 1.97439,0.0985 2.65654,1.33212 4.64371,-2.69919 2.20906,-2.38522 1.85228,1.35814 2.65454,-0.4213 2.5446,0.58421 3.03118,-2.29898 3.31652,-0.75884 1.6832,-2.92986 2.4964,0.65243 1.90833,-2.52796 2.41078,-1.00706 0.52324,2.69365 -0.5662,6.81196 2.21799,-0.94484 3.72273,-0.13859 0.91914,2.50856 4.19777,1.27453 -0.36448,3.99975 2.55029,4.34683 -0.75714,2.01843 0.20572,2.36843 -0.61317,2.53921 0.9738,1.54123 -1.40249,1.119 1.39726,1.29517 2.46806,-0.99428 2.23616,1.4068 0.42223,2.97467 2.0021,0.28441 1.91727,2.05154 1.27837,-0.6974 -2.76694,8.85365 -1.66535,1.63993 -0.0326,-1.71692 -1.75866,-0.95455 -2.96682,0.90235 -0.40482,1.43852 -3.10063,0.59484 -1.11578,2.40863 0.45179,3.67715 0.97319,1.89046 -0.23914,1.94683 -1.46932,1.76666 -0.11949,4.89024 -1.279,1.59005 -1.96807,5.47353 -1.39418,0.24684 -1.23526,3.38519 -3.57814,1.8395 -0.33861,3.07199 -3.34162,0.18617 0.21666,2.1775 -0.87618,2.57123 1.80362,0.26839 1.66073,3.16454 -3.52024,-1.17721 -1.53738,3.60277 -2.92633,-0.28333 -0.62086,0.96718 -3.03242,-0.70463 -1.2405,1.46115 -1.21155,5.17881 -1.47317,0.21604 -2.45466,-1.47579 -1.87292,2.29237 -2.51626,0.95933 -0.76607,1.64948 -2.93864,2.4559 -4.9118,1.5634 1.06434,2.9913 -1.35937,1.66565 0.26932,2.10759 -2.87551,4.46401 -2.42064,0.76145 -2.31577,1.69907 -2.6416,3.32699 -1.43576,4.26491 -1.25405,1.54923 1.34198,4.17083 -0.89727,3.5478 -1.77775,0.29765 0.0444,1.82472 -3.25801,2.1216 -3.77354,1.04509 -0.84584,2.87304 z"
       id="id79"
       class="svgpath toliary"
       inkscape:label="#path185" />
    <path
       inkscape:connector-curvature="0"
       d="m 277.46127,428.44612 -0.12211,-1.16335 -2.76249,-3.3544 -0.5605,-3.72781 3.57367,-9.4511 1.94098,-0.12627 0.90111,-1.28054 -0.71587,-1.58111 4.49327,-0.73019 0.29626,-1.62901 2.33964,-0.62671 0.46981,-2.08819 2.90061,-0.74467 1.76697,-2.19551 2.69427,-1.94559 2.23601,-3.23522 4.48633,-2.66531 0.94608,-3.18225 3.37442,-0.9721 0.16322,-3.09925 0.89589,-0.64796 4.37454,-0.33969 1.41912,-1.11116 1.22957,-3.09324 3.64173,-1.53969 3.40383,-3.22674 0.3805,-2.40201 2.77341,0.0862 1.48857,-1.21771 1.04648,-2.23031 3.70979,-0.5993 3.03565,-1.73341 2.41787,-0.692 1.53753,-2.01428 1.77329,-0.16553 2.40247,1.78391 1.32411,-0.99905 1.36507,-4.3844 5.5533,-6.22621 3.32098,-2.68688 1.40557,-4.64894 0.9969,-1.77144 -0.78471,-2.59556 3.90259,-1.3623 2.23554,1.51289 2.50918,-0.30427 -0.58945,-2.89352 1.58958,-2.23678 2.15563,-0.0246 0.44809,-1.41111 -0.84784,-2.58663 3.19118,-3.23106 -1.8569,-1.5708 0.0451,-1.65826 2.97128,-4.46662 -0.18124,-2.08773 -2.38198,-4.99202 1.46608,-3.68962 2.56446,-2.95589 1.82857,-0.19571 3.87579,-2.49455 2.93217,1.4995 1.87214,-0.0647 2.38907,2.70135 1.09006,2.59371 -1.27391,1.72386 -0.0553,1.71585 4.24535,6.90189 4.22918,2.0774 2.15563,2.88706 3.73366,0.22436 1.46671,1.99502 2.76386,0.80472 4.07289,2.51334 3.49145,0.33337 4.16097,-0.78871 2.7979,2.51827 0.17092,1.30209 2.85764,1.55863 -0.2205,1.72555 2.24047,2.59402 -2.25341,3.42862 -1.44345,0.92391 0.64966,2.10666 -0.19787,7.25252 1.62346,2.4733 -0.0802,1.14364 -3.14822,3.83976 0.19987,2.70073 -1.65179,5.38068 -3.70271,4.07228 -2.53489,0.91112 -0.70002,2.65223 1.19877,1.36492 3.19426,5.56115 2.8384,0.73143 2.6319,-0.057 0.89603,3.35286 1.43776,1.87923 0.0508,2.58124 -2.93602,4.82988 -3.78309,2.06062 -8.85242,1.04571 -0.45887,0.8928 -1.51428,9.83853 2.4405,4.80416 4.25166,0.68801 5.04731,1.75604 3.49775,0.46565 1.33243,1.00136 -0.33414,4.73148 -3.70225,3.23937 -2.30038,4.4249 -2.45266,2.26557 -3.62557,0.41361 -6.9467,-0.6549 -3.99328,4.81078 -3.63527,1.20709 -3.3487,1.67181 -8.31116,5.10351 -2.15116,4.65433 -0.41591,1.92019 0.44024,3.36887 -0.56682,4.40534 3.19118,4.76937 0.53016,2.9739 -2.00595,1.84242 -2.39739,-3.08893 -3.97849,-2.48069 -10.90457,-3.69732 -1.49765,-0.28087 -3.27664,-1.87183 -4.53962,-1.49796 -2.1062,-1.6849 -1.12285,-2.38645 -2.29329,-2.43404 -0.37465,-3.08908 -1.45069,-1.35706 -5.14831,-3.51023 -6.87988,-3.79126 -7.91003,-3.604 -0.42099,-1.02939 -4.25875,-1.6384 -12.40284,-3.32252 -9.21997,-1.54446 -12.35587,-1.54462 -7.34783,-0.4213 -3.69763,-0.46689 z"
       id="id80"
       class="svgpath toliary"
       inkscape:label="#path187" />
    <path
       inkscape:connector-curvature="0"
       d="m 381.04541,473.18832 2.00595,-1.84242 -0.53016,-2.9739 -3.19118,-4.76937 0.56682,-4.40534 -0.44024,-3.36887 0.41591,-1.92019 2.15116,-4.65433 8.31116,-5.10351 3.3487,-1.67181 3.63527,-1.20709 3.99328,-4.81078 6.9467,0.6549 3.62557,-0.41361 2.45266,-2.26557 2.30038,-4.4249 3.70225,-3.23937 0.33414,-4.73148 -1.33243,-1.00136 -3.49775,-0.46565 -5.04731,-1.75604 -4.25166,-0.688 -2.4405,-4.80417 1.51428,-9.83853 0.45887,-0.8928 8.85242,-1.04571 3.78309,-2.06062 2.1467,0.30366 3.15837,-0.52771 4.99018,1.41404 8.35243,0.22882 2.58694,-1.45484 2.16533,-9.3e-4 1.66087,-1.55678 5.99662,-1.33874 1.55555,-9.3e-4 2.64869,-2.47129 1.88123,-0.67276 2.99638,-2.05862 1.58373,1.11993 4.17452,-0.16969 4.33852,1.58434 0.29365,3.82406 -0.80981,1.31241 3.47528,4.16774 -1.09452,2.50132 0.84891,2.59403 -0.86893,2.81391 0.63441,1.20508 3.60509,1.07789 1.79192,1.57342 -1.92496,2.26526 1.56448,2.30484 0.27825,3.17794 6.38481,-0.31321 1.83827,4.23904 3.23752,1.07666 3.99452,-0.46796 0.87093,-2.82546 4.18284,-0.13705 -0.10025,2.54044 1.81256,4.69191 0.18955,3.07415 -7.95376,5.21006 -0.75714,1.43036 5.21129,6.41161 -2.19951,1.63793 -7.48842,4.25906 -1.49765,1.26375 -5.2421,2.48054 -6.17786,6.36495 -5.61627,3.65082 -7.58158,4.21209 -3.88473,1.07666 -2.05938,1.3101 -2.01243,0.0462 -5.10135,2.24602 -7.39526,1.12378 -2.99515,-0.14013 -5.56931,0.421 -5.28906,-0.37434 -6.87972,0.14013 -2.01243,0.65489 -11.8411,0.32784 -6.97365,1.91864 -7.20755,1.49781 -4.82048,-0.0477 -3.46312,-1.45084 -1.6852,-3.18255 0.38496,-3.88441 z"
       id="id81"
       class="svgpath toliary"
       inkscape:label="#path189" />
  </g>
</svg>
