<?xml version="1.0" encoding="UTF-8" standalone="no"?>
<!-- Created with Inkscape (http://www.inkscape.org/) -->

<svg
   xmlns:dc="http://purl.org/dc/elements/1.1/"
   xmlns:cc="http://creativecommons.org/ns#"
   xmlns:rdf="http://www.w3.org/1999/02/22-rdf-syntax-ns#"
   xmlns:svg="http://www.w3.org/2000/svg"
   xmlns="http://www.w3.org/2000/svg"
   xmlns:sodipodi="http://sodipodi.sourceforge.net/DTD/sodipodi-0.dtd"
   xmlns:inkscape="http://www.inkscape.org/namespaces/inkscape"
   width="63.084202mm"
   height="96.636368mm"
   viewBox="0 0 223.5267 342.41233"
   id="svg3745"
   version="1.1"
   inkscape:version="0.91 r13725"
   sodipodi:docname="district_22.svg">
  <defs
     id="defs3747" />
  <sodipodi:namedview
     id="base"
     pagecolor="#ffffff"
     bordercolor="#666666"
     borderopacity="1.0"
     inkscape:pageopacity="0.0"
     inkscape:pageshadow="2"
     inkscape:zoom="1.4"
     inkscape:cx="33.365697"
     inkscape:cy="172.02869"
     inkscape:document-units="px"
     inkscape:current-layer="layer1"
     showgrid="false"
     inkscape:window-width="1366"
     inkscape:window-height="715"
     inkscape:window-x="-8"
     inkscape:window-y="-8"
     inkscape:window-maximized="1"
     fit-margin-top="0"
     fit-margin-left="0"
     fit-margin-right="0"
     fit-margin-bottom="0" />
  <metadata
     id="metadata3750">
    <rdf:RDF>
      <cc:Work
         rdf:about="">
        <dc:format>image/svg+xml</dc:format>
        <dc:type
           rdf:resource="http://purl.org/dc/dcmitype/StillImage" />
        <dc:title></dc:title>
      </cc:Work>
    </rdf:RDF>
  </metadata>
  <g
     inkscape:label="Calque 1"
     inkscape:groupmode="layer"
     id="layer1"
     transform="translate(-216.80808,-235.44187)">
    <path
       inkscape:connector-curvature="0"
       d="m 396.46378,463.7165 -0.5192,-0.8471 -1.8729,-1.2292 -0.7793,-1.94263 0.8386,-0.662 0.9508,-2.0699 -0.4353,-1.5394 -1.9363,-1.819 -0.3269,-2.0083 0.8728,-1.2303 -0.2053,-1.5528 2.721,-2.3174 -1.1733,-1.7568 -2.6827,-2.6641 -1.9609,-0.3984 0.2091,-1.5652 1.6592,-1.2458 1.9534,-2.2719 0.7071,-2.0496 -0.6637,-0.4005 -1.3845,-3.8704 -1.309,-2.2786 -3.6034,-0.0565 -0.768,-0.6535 -1.7381,0.13 -1.445,-0.5466 -0.0664,-1.0468 -2.9894,0.6944 -1.0331,-1.6093 -2.3654,-1.4029 -0.6394,-0.7267 -1.4159,-0.0912 -0.3852,-1.0143 -2.1835,-1.728 -1.5477,-1.8735 -1.0802,0.7196 -1.9718,0.5378 -0.748,-0.6345 -2.2348,1.4682 -1.1674,-0.5572 -1.1796,-1.8222 -0.0998,-0.9738 1.2451,-1.4719 -0.3735,-1.8259 0.8298,-0.526 0.8594,-3.157 -0.0589,-3.2161 -1.7414,0.4333 -1.3052,-0.5595 -1.1871,-3.4855 0.435,-0.9947 -0.2914,-1.718 -0.8189,-1.343 -2.691,-0.8653 -2.9727,1.2883 -0.852,1.0815 -0.8168,-0.0156 -1.8554,-1.0755 0.5815,-0.8759 0.5614,-2.7373 -0.3431,-1.3618 -1.0243,-0.7966 -1.5832,-2.37 -2.1955,-0.7876 -1.9994,-0.043 -1.7209,-0.9022 -0.925,-1.4724 -1.3015,-0.4445 -1.0109,-1.1661 0.1102,-1.3901 -1.6199,-0.5126 0.7964,-1.9741 1.5915,0.182 0.207,1.085 1.238,-0.0129 2.4306,0.8152 1.5151,-0.5863 0.0334,1.1504 1.2677,0.0829 1.1954,-0.6015 2.638,-0.4656 1.3257,-0.8847 1.9751,-0.6605 1.9781,-3.7865 3.2974,0.9314 0.8503,1.2618 0.8623,-0.9051 1.7853,-0.6908 0.9879,0.1398 1.6125,1.779 0.3794,1.1159 1.5882,0.3652 0.5055,-1.8937 0.937,-0.6628 1.0778,0.8314 2.0377,-1.0068 1.0594,0.4331 0.826,1.1568 0.9496,-1.5287 1.7856,0.1866 0.8812,1.0128 1.1416,-0.4393 3.2574,0.0177 0.9771,-0.9398 1.2213,1.8009 1.4981,0.3742 0.8602,-0.6808 -0.7083,-1.071 0.008,-1.2914 -0.743,-1.602 1.0986,-2.4224 -1.4734,-1.7135 0.7175,-1.1221 0.4483,-2.4531 0.419,-0.5773 -1.1228,-2.039 0.9283,-0.8897 0.8219,0.1799 1.0485,1.7972 1.357,0.6931 4.1456,0.581 1.2171,-1.0427 1.9948,-0.9007 0.7471,1.282 1.7573,-0.5224 -0.5038,1.2032 -0.0276,1.9484 -0.624,0.3673 1.8833,2.0175 2.6034,1.1521 2.5495,-0.7645 5.2129,0.8763 1.7627,-0.2819 2.5123,0.9306 1.4976,0.2041 0.7004,-1.2683 1.8111,0.0405 2.3913,0.7774 2.0545,-0.8795 0.8081,-1.3561 1.5744,-0.1158 1.9059,-0.7935 0.9228,0.7801 1.1112,-1.2422 1.4245,-0.6697 1.1675,0.4848 1.1996,3.689 2.2348,4.8558 2.4526,4.0407 -0.1252,0.806 -1.8269,-0.3331 -0.9617,0.7879 0.2166,1.1939 1.0272,0.4613 -0.1649,2.8093 -0.3685,0.7217 0.6336,1.9853 0.6962,4.101 -0.75,1.5091 -0.1265,2.8667 0.3105,1.0884 1.9697,0.4794 0.7434,1.8685 -0.1832,2.6542 0.8022,1.4129 -0.1936,2.3337 0.3798,2.4992 -2.38,2.657 -0.6983,2.2661 0.4658,1.1549 -0.2722,2.3291 0.329,3.6809 -2.0153,3.1674 0.7484,0.3957 -1.1194,2.0031 -2.5332,1.3952 -1.7193,3.0599 -2.2164,-0.9326 -0.6733,-0.786 -1.7915,-0.0697 -1.3139,1.7808 -2.1017,0.7296 -0.8957,-0.4253 -1.7034,2.9254 -2.1283,0.0121 -0.071,2.347 -3.8042,1.3117 -0.9462,-0.8192 -1.5891,1.4248 -1.4976,-0.4345 -1.4125,0.7006 -0.9463,-0.7592 -1.6466,2.1014 -1.5502,0.5666 -1.357,-0.2838 -0.7501,1.6385 -1.4588,0.2884 -0.2755,1.7623 -1.4033,3.0814 0.1411,3.419 -1.0594,2.3844 0.2179,0.4355 -1.3465,2.39933 0.0284,2.0534 -1.1258,1.1263 z"
       id="id73"
       class="svgpath mahajanga"
       inkscape:label="#path125" />
    <path
       inkscape:connector-curvature="0"
       d="m 347.26308,569.3704 -2.721,1.1301 -0.6044,1.0309 -1.5357,0.1768 -1.1883,-0.4679 -0.599,0.7019 -2.6667,0.202 -2.9828,0.8312 -1.1495,-0.4174 -2.1162,0.5333 -1.5486,-0.8336 -1.2267,0.5898 -3.3785,0.2269 -0.9337,1.1549 -2.3295,-0.056 -0.6153,2.2978 -1.5498,1.2831 -2.6359,0.1 -2.5745,-1.1111 -0.9721,-2.4044 -0.8933,0.04 -0.9921,-1.908 -1.9756,-1.9497 -0.407,-2.3731 -2.5336,-1.5517 -1.7201,-2.3625 -1.9948,-0.251 -1.7234,0.9571 -2.8133,0.06 -3.7708,-1.3684 -1.5172,-1.2635 -2.2265,-0.5656 -7.2469,0.4043 -1.3532,0.9356 -3.2236,-1.6876 -2.2652,0.5345 -1.6116,-0.3786 -3.1038,-0.094 -1.7744,0.3646 -0.7713,-0.4097 -1.2489,1.1921 -2.486,-0.3262 -1.524,-0.7565 -4.596,0.6712 -1.4613,-0.8626 -0.192,-0.4562 -3.4648,0.5474 -0.9421,-1.0637 0.8206,-0.9423 -1.5502,-1.0028 -1.3069,-3.1917 1.2764,-0.5774 -0.8511,-1.0638 -0.5772,-1.9148 -0.6383,-0.6687 -0.6686,-4.7112 0.4253,-1.1852 -0.2129,-2.8267 -0.6077,-2.3708 2.8266,-0.6079 -1.8236,-1.2157 0.1824,-3.1307 0.9421,-1.4893 -0.5168,-1.5198 -0.8206,-0.4862 -0.2124,-1.9453 1.6107,-0.6689 0.7292,-1.337 -0.2429,-2.2493 -0.912,-4.4679 -1.4588,-3.7994 -2.5533,-5.5923 -0.03,-1.2765 -1.2464,-1.5199 -1.0335,-2.4011 -2.097,-3.9818 -1.6412,-2.6745 0.6991,-1.3981 -2.7661,-4.3464 0.245,-1.6137 0.4604,0.1889 2.8701,-2.0615 1.8574,0.022 3.2812,2.0024 0.6023,-0.8892 2.4589,0.081 2.2202,1.7181 0.4892,0.9377 1.2384,0.019 1.4646,1.2249 2.461,-0.4508 1.5528,-3.6648 1.4004,-1.8716 1.8628,-0.73 0.6507,0.3235 2.6268,0.1068 1.1474,-0.7467 1.3361,0.4773 0.6774,-0.7847 0.0318,-1.5244 1.0514,-0.9529 0.7484,-1.5227 -0.4976,-3.2004 0.21,-1.3223 1.7527,0.3756 3.6443,-1.7011 0.9341,1.2136 4.5038,-0.3435 1.8428,-0.4608 -0.4286,-0.7806 1.1357,-2.7433 -0.0956,-2.3492 2.5796,0.2002 2.3503,-1.75 0.6954,1.1431 1.9773,-0.4819 1.2204,-0.7123 1.405,1.2874 0.7401,-1.4026 0.1085,-1.2984 -1.2071,-0.6872 -1.7602,-2.7131 0.0593,-1.6828 1.8161,-0.4756 0.9746,0.6261 1.4492,-0.6607 0.8094,0.2329 2.3988,-0.7257 0.0726,1.0235 1.4363,0.193 0.5873,-1.2697 2.5544,-0.3763 3.0863,-0.8312 0.5443,0.7408 2.5215,0.046 0.6862,0.7352 -2.6196,1.1399 -0.0805,1.0268 -1.7035,3.8773 0.5168,1.2115 1.6675,0.705 1.8896,1.9714 0.8102,1.6466 0.4649,1.8944 1.1112,1.1238 1.1428,2.0691 1.8462,2.3285 0.121,2.1043 2.5169,4.103 1.7836,5.9203 0.2237,3.2503 0.6996,0.3627 -0.0543,2.218 0.4863,3.1915 1.3532,0.6872 0.1173,2.2404 1.5106,0.9695 0.9525,1.6973 3.0107,0.8849 0.4821,1.0126 -1.4008,2.1611 -1.6867,1.2848 1.4638,2.5872 2.4168,-0.5787 0.495,0.6852 -0.3343,1.3643 2.8725,4.3269 0.2425,2.6015 0.5523,1.2975 -0.7184,1.2034 -1.2084,0.8204 0.1628,1.3285 -2.3825,0.8666 -0.4141,2.0179 0.5581,2.2145 -0.1231,0.9744 0.6519,1.3551 1.9126,0.5278 0.6432,-1.3037 1.0193,-0.1659 1.6971,2.3458 1.4722,3.6 -0.3464,1.529 0.3644,2.3007 1.5481,1.7948 -0.3928,1.2675 0.9525,1.7136 -0.2934,1.8958 -1.0819,1.5722 -2.7882,1.5279 -0.0489,1.742 1.2526,2.0801 -0.475,1.1786 0.2284,1.2211 1.9288,0.1688 1.1983,1.0863 1.2305,-0.5627 0.7372,0.5529 1.0005,1.9741 1.4104,1.2862 1.003,1.4371 1.0055,0.464 z"
       id="id74"
       class="svgpath mahajanga"
       inkscape:label="#path127" />
    <path
       inkscape:connector-curvature="0"
       d="m 320.96218,377.67067 -0.8439,-1.4415 -0.0197,-1.0585 -2.2009,-2.994 -0.1123,-0.7891 -2.1976,-2.6359 -1.3812,-0.2521 -0.5155,0.6054 -2.0895,-1.6977 -1.0911,0.0225 -3.2019,-1.5271 0.1161,-0.8039 -0.8173,-1.7167 0.8373,-3.4375 0.116,-1.4559 -1.3624,-2.5111 -1.0435,0.3011 -1.6516,-0.4929 -1.1955,0.2498 -3.2031,-0.9646 -0.0296,-2.3354 -1.0615,-0.7181 0.662,-1.1698 -1.627,-0.2636 -0.2596,-2.3485 -1.5599,-3.2739 -2.2481,0.0176 -0.3736,0.475 -3.0378,-0.2874 -2.5495,-0.8137 -0.5063,-0.992 -2.2894,-2.3364 -3.0592,-5.68 -0.7672,0.6833 -0.8218,-0.9101 -1.1696,-0.0286 0.2584,-1.3485 -1.4296,-1.9198 -1.1658,0.0923 -2.0703,-1.1316 -0.6403,-2.0376 -0.8411,-0.2867 -1.4258,-1.8673 -1.2652,0.01 -0.7834,-0.7116 -1.0836,0.9646 -2.2435,-1.7525 -1.2802,0.2987 -0.4349,-2.0605 -0.839,-0.6723 -1.6984,-2.6091 -1.3257,-0.2139 -0.0864,-1.6056 0.3999,-1.1994 -1.3119,-1.4056 -0.5455,-2.2381 -1.0273,-1.4056 -0.1214,-0.8657 1.6717,-3.07 2.1275,-2.0667 1.1854,-3.1003 1.1549,-0.1519 0.3039,-1.4893 1.8846,-1.4588 0.9725,-2.614 1.5803,-2.0365 1.3073,-1.2154 1.4283,-0.3041 1.064,-3.617 0.5468,-0.3344 0.0305,-2.1581 -1.2765,-6.8385 -0.5776,-1.611 0.7296,-1.3979 2.4618,-1.8238 1.6412,-0.5775 0.5472,-2.4011 -0.1214,-2.8571 -0.8816,-2.8571 -1.2764,-2.2494 -0.9425,-2.5528 -1.3373,-2.3101 -0.7597,-2.4013 -0.9421,-1.7017 -0.8511,-2.7052 0.1824,-3.4346 2.1275,-2.3706 1.2155,-3.6778 -0.03,-2.8571 0.7596,-0.8206 -0.6382,-0.8815 0.091,-2.0061 1.2768,-1.4892 3.404,-0.2127 2.5532,1.5195 1.7326,1.611 -0.7296,-3.161 4.5593,0.5777 2.4618,-0.0305 5.8662,1.2764 4.7412,-0.1214 1.5807,0.5775 4.3769,0 3.5558,-0.2432 0.1824,0.8206 -1.1854,0.8513 -0.6687,1.6108 2.158,-0.3955 1.155,0.8817 3.8296,0.7902 0.821,1.459 0.9421,-0.9727 0.8816,0.2431 1.2764,-2.4013 1.5807,-1.5498 2.1579,0.0605 1.3583,2.3024 2.2552,0.5411 0.3272,2.7378 1.7539,0.7192 0.2705,1.4356 2.615,1.2395 0.1223,2.1496 0.4346,1.0508 0.005,1.8403 -0.4141,2.2855 -1.9422,1.8199 0.2238,2.0548 1.7289,0.4348 0.4816,1.8559 2.2565,1.1147 0.8745,0.8722 0.1122,1.5222 1.1608,0.2665 0.6975,1.1963 -0.3268,2.3734 -0.5898,0.562 0.8694,1.2098 0.91,0.1044 -0.1854,1.9977 1.7844,0.5505 1.175,0.9986 2.254,1.0705 -0.354,1.1852 1.5348,2.0415 1.0761,0.438 2.2059,2.4825 2.0582,0.7357 -0.0939,1.0128 1.4451,1.2998 1.2564,0.1532 1.0138,-0.5856 0.9542,0.2794 1.3081,-0.6363 0.8616,1.3399 1.9576,1.3697 0.1807,1.8939 0.5739,1.28 0.9054,0.4009 1.5014,-0.8394 4.0341,0.9137 -0.7212,3.0289 0.6828,0.3483 -0.3247,1.8695 -0.7313,1.3772 2.1037,2.982 -0.0288,2.2982 0.5906,0.0878 2.931,1.7448 1.8111,1.9626 1.2343,3.0328 1.4275,0.7203 -0.2888,1.008 -1.1746,0.7895 -1.1095,-0.0401 -1.3056,2.921 0.9225,0.6192 1.5431,3.6552 2.4009,1.066 0.9103,-0.7419 1.6354,0.2417 0.7889,1.0927 1.1562,-0.3241 1.1512,0.5232 1.7548,-0.567 1.8803,-2.1613 1.0385,-0.5397 1.0406,-1.4179 2.1421,0.4527 0.6207,0.9727 1.5953,0.7891 1.061,1.347 0.5072,2.7602 -0.6591,0.7278 0.5309,2.0356 -3.4569,3.5267 -0.9016,1.3262 1.1429,3.1493 -1.1525,1.7517 1.5724,2.1752 -0.8352,1.2264 0.2145,1.1295 -0.4633,2.0256 2.4435,4.9744 -0.2033,4.169 1.0464,3.2232 1.1725,0.3005 0.7997,2.9086 -0.7876,1.0239 -0.6044,2.0196 1.0289,1.2322 2.016,0.3709 0.5164,1.3146 1.8975,1.5016 -0.2342,0.7951 0.5961,1.4511 1.1186,-0.0361 1.6216,2.2193 -1.7573,0.5224 -0.7471,-1.282 -1.9948,0.9007 -1.2171,1.0427 -4.1456,-0.581 -1.357,-0.6931 -1.0485,-1.7972 -0.8219,-0.1799 -0.9283,0.8897 1.1228,2.039 -0.419,0.5773 -0.4483,2.4531 -0.7175,1.1221 1.4734,1.7135 -1.0986,2.4224 0.743,1.602 -0.008,1.2914 0.7083,1.071 -0.8602,0.6808 -1.4981,-0.3742 -1.2213,-1.8009 -0.9771,0.9398 -3.2574,-0.0177 -1.1416,0.4393 -0.8812,-1.0128 -1.7856,-0.1866 -0.9496,1.5287 -0.826,-1.1568 -1.0594,-0.4331 -2.0377,1.0068 -1.0778,-0.8314 -0.937,0.6628 -0.5055,1.8937 -1.5882,-0.3652 -0.3794,-1.1159 -1.6125,-1.779 -0.9879,-0.1398 -1.7853,0.6908 -0.8623,0.9051 -0.8503,-1.2618 -3.2974,-0.9314 -1.5365,-0.5086 -0.9583,-1.371 -1.9163,0.0543 -1.054,-0.8968 -3.0207,0.5476 -1.0389,2.5986 -1.4964,0.105 -0.4621,-0.8899 -2.9251,0.4226 -2.2786,1.1134 -1.7673,0.007 -1.5227,-1.8804 -1.3323,-0.4272 -1.0251,-1.6734 -2.5625,1.0878 -1.0021,0.0202 -0.3774,-1.0066 -1.2042,-0.999 -2.3996,1.8754 -1.2409,0.2638 -1.6208,-0.9217 -2.8868,1.3073 z"
       id="id75"
       class="svgpath mahajanga"
       inkscape:label="#path129" />
    <path
       inkscape:connector-curvature="0"
       d="m 257.56688,311.98887 1.0273,1.4056 0.5455,2.2381 1.3119,1.4056 -0.3999,1.1994 0.0864,1.6056 1.3257,0.2139 1.6984,2.6091 0.839,0.6723 0.4349,2.0605 1.2802,-0.2987 2.2435,1.7525 1.0836,-0.9646 0.7834,0.7116 1.2652,-0.01 1.4258,1.8673 0.8411,0.2867 0.6403,2.0376 2.0703,1.1316 1.1658,-0.0923 1.4296,1.9198 -0.2584,1.3485 1.1696,0.0286 0.8218,0.9101 0.7672,-0.6833 3.0592,5.68 2.2894,2.3364 0.5063,0.992 2.5495,0.8137 3.0378,0.2874 0.3736,-0.475 2.2481,-0.0176 1.5599,3.2739 0.2596,2.3485 1.627,0.2636 -0.662,1.1698 1.0615,0.7181 0.0296,2.3354 3.2031,0.9646 1.1955,-0.2498 1.6516,0.4929 1.0435,-0.3011 1.3624,2.5111 -0.116,1.4559 -0.8373,3.4375 0.8173,1.7167 -0.1161,0.8039 3.2019,1.5271 1.0911,-0.0225 2.0895,1.6977 0.5155,-0.6054 1.3812,0.2521 2.1976,2.6359 0.1123,0.7891 2.2009,2.994 0.0197,1.0585 0.8439,1.4415 -1.9204,1.9485 -1.6947,-0.0247 -0.8786,0.8745 -1.9397,-0.6937 -1.8754,0.7455 -1.3098,-0.6103 -1.2396,1.1468 -1.999,-0.8479 -1.8616,0.4988 -0.965,-0.6316 -3.3401,0.3383 -0.7329,0.2962 -1.2384,-0.681 -1.2835,0.7505 -1.4217,-0.0927 -1.5473,-0.6595 -1.069,0.6088 -0.111,1.7458 0.5363,1.5609 -1.5928,-0.2267 -0.8907,1.0279 -0.0434,1.5719 -1.5561,-0.7707 -0.3802,0.8705 -1.3061,-0.009 0.3565,1.3569 -2.1108,3.3743 2.4435,0.9344 -0.4563,1.0055 1.8224,0.8385 0.5376,1.7734 2.0111,0.0108 0.8398,1.6047 -1.0252,0.9077 -0.073,1.718 -1.041,0.6261 -2.7908,-0.8567 -0.2099,-1.6751 -0.9442,-0.2393 -2.3683,1.2309 -0.9625,2.0816 -1.1884,0.3537 -0.4403,-1.6475 -1.3349,-0.0818 -1.8904,-1.3019 -0.8669,-1.5097 -3.0158,-0.2171 -1.1941,1.9931 -0.1666,1.5288 1.3683,1.0376 0.0125,1.3407 1.218,2.3427 -0.9634,1.3519 0.407,3.1466 -0.0773,1.3405 0.786,2.0782 -0.0351,1.3002 0.8812,1.3364 1.3695,0.9195 -0.0585,1.1316 0.5364,3.4913 -0.4679,0.9175 0.49,1.5598 -1.1107,0.2429 1.579,3.0825 0.9789,1.1379 -0.9488,1.3521 1.9038,1.2443 1.1595,3.2635 -0.3427,1.4511 -2.026,1.5631 0.2683,2.0351 0.6069,0.8108 -0.2825,1.3555 -0.7952,0.9285 -0.6787,3.0307 0.4671,2.6904 -0.4813,1.1316 0.7852,1.0929 2.1287,-0.005 1.7902,1.1637 0.7768,1.7439 -0.3314,0.5861 -1.6145,-0.4327 -2.0323,0.498 -0.3627,0.8404 2.9798,3.0554 1.7973,0.519 1.0819,1.16 2.345,0.7234 -1.1341,0.64593 -0.4696,1.5087 -1.2822,1.4181 -0.2267,1.1812 0.9625,0.7432 2.6489,-0.582 0.9003,-0.8376 2.0115,0.8776 -0.0593,1.6828 1.7602,2.7131 1.2071,0.6872 -0.1085,1.2984 -0.7401,1.4026 -1.405,-1.2874 -1.2204,0.7123 -1.9773,0.4819 -0.6954,-1.1431 -2.3503,1.75 -2.5796,-0.2002 0.0956,2.3492 -1.1357,2.7433 0.4286,0.7806 -1.8428,0.4608 -4.5038,0.3435 -0.9341,-1.2136 -3.6443,1.7011 -1.7527,-0.3756 -0.21,1.3223 0.4976,3.2004 -0.7484,1.5227 -1.0514,0.9529 -0.0318,1.5244 -0.6774,0.7847 -1.3361,-0.4773 -1.1474,0.7467 -2.6268,-0.1068 -0.6507,-0.3235 -1.8628,0.73 -1.4004,1.8716 -1.5528,3.6648 -2.461,0.4508 -1.4646,-1.2249 -1.2384,-0.019 -0.4892,-0.9377 -2.2202,-1.7181 -2.4589,-0.081 -0.6023,0.8892 -3.2812,-2.0024 -1.8574,-0.022 -2.8701,2.0615 -0.4604,-0.1889 -1.1566,0.1244 -1.064,-1.5805 -0.0909,-1.1245 -0.8511,-1.307 -3.7082,-3.4044 -2.3404,-3.3431 -0.2129,-1.0943 -1.3373,-2.9483 -0.4863,-4.3766 0.6382,-0.1824 0.7296,-4.2248 -0.0609,-2.6444 -0.4863,-4.4679 -0.7901,-2.55323 0.4558,-2.0363 -0.2429,-1.9758 -1.064,-5.4101 -1.4893,-3.3737 0.6687,-0.3343 -0.4863,-2.4923 0.0605,-1.8238 -0.8206,-3.4344 -0.1214,-4.5288 0.3648,-0.6685 -0.4258,-4.8329 0.0305,-3.3129 0.4562,-2.2189 0.2734,-3.1002 1.5502,-0.7599 0.2125,-4.7112 0.3043,-0.9723 -0.8511,-3.9514 0.4863,-0.942 -1.4288,-0.4258 -3.1,-2.9178 -0.5168,-1.8237 -1.2159,0.6689 -1.8841,-0.2433 0.03,-1.1854 2.3709,-0.6687 -2.6138,-0.6078 -0.0305,-1.3068 1.3983,-0.7904 -1.3678,-0.7294 -0.5472,-3.2826 -0.7597,-1.8239 0.2125,-1.2461 -0.7597,-0.699 -0.912,-5.6837 -0.3039,-5.0153 1.155,0.1526 -0.2734,-2.4926 1.8236,-3.0699 1.1854,-2.8569 0.8206,-3.3132 1.6413,-0.4558 -0.3039,-1.1549 1.6107,-4.4681 0.6687,-0.9423 0.9726,1.2464 0.7296,-2.5835 2.7661,-4.1337 2.3404,-3.8904 0.6682,0.1519 1.7022,-1.3069 -0.1215,-1.0639 1.064,-2.7355 0.4558,-2.2796 -0.2129,-2.8267 1.5198,-0.942 2.5837,-5.0454 0.7901,-0.7296 1.9146,1.6717 -0.3948,-2.6745 2.097,-1.5807 1.7932,-2.8571 1.5807,-0.7599 3.8296,-8.0541 1.5198,-2.1887 0.9725,0.2129 0.8816,-0.8816 -1.0031,-0.851 2.3404,-3.5559 0.6687,-2.1584 0.9725,-0.0459 z"
       id="id76"
       class="svgpath mahajanga"
       inkscape:label="#path131" />
    <path
       inkscape:connector-curvature="0"
       d="m 312.35918,473.9214 -1.8896,-1.9714 -1.6675,-0.705 -0.5168,-1.2115 1.7035,-3.8773 0.0805,-1.0268 2.6196,-1.1399 -0.6862,-0.7352 -2.5215,-0.046 -0.5443,-0.7408 -3.0863,0.8312 -2.5544,0.3763 -0.5873,1.2697 -1.4363,-0.193 -0.0726,-1.0235 -2.3988,0.7257 -0.8094,-0.2329 -1.4492,0.6607 -0.9746,-0.6261 -1.8161,0.4756 -2.0115,-0.8776 -0.9003,0.8376 -2.6489,0.582 -0.9625,-0.7432 0.2267,-1.1812 1.2822,-1.4181 0.4696,-1.5087 1.1341,-0.64593 -2.345,-0.7234 -1.0819,-1.16 -1.7973,-0.519 -2.9798,-3.0554 0.3627,-0.8404 2.0323,-0.498 1.6145,0.4327 0.3314,-0.5861 -0.7768,-1.7439 -1.7902,-1.1637 -2.1287,0.005 -0.7852,-1.0929 0.4813,-1.1316 -0.4671,-2.6904 0.6787,-3.0307 0.7952,-0.9285 0.2825,-1.3555 -0.6069,-0.8108 -0.2683,-2.0351 2.026,-1.5631 0.3427,-1.4511 -1.1595,-3.2635 -1.9038,-1.2443 0.9488,-1.3521 -0.9789,-1.1379 -1.579,-3.0825 1.1107,-0.2429 -0.49,-1.5598 0.4679,-0.9175 -0.5364,-3.4913 0.0585,-1.1316 -1.3695,-0.9195 -0.8812,-1.3364 0.0351,-1.3002 -0.786,-2.0782 0.0773,-1.3405 -0.407,-3.1466 0.9634,-1.3519 -1.218,-2.3427 -0.0125,-1.3407 -1.3683,-1.0376 0.1666,-1.5288 1.1941,-1.9931 3.0158,0.2171 0.8669,1.5097 1.8904,1.3019 1.3349,0.0818 0.4403,1.6475 1.1884,-0.3537 0.9625,-2.0816 2.3683,-1.2309 0.9442,0.2393 0.2099,1.6751 2.7908,0.8567 1.041,-0.6261 0.073,-1.718 1.0252,-0.9077 -0.8398,-1.6047 -2.0111,-0.0108 -0.5376,-1.7734 -1.8224,-0.8385 0.4563,-1.0055 -2.4435,-0.9344 2.1108,-3.3743 -0.3565,-1.3569 1.3061,0.009 0.3802,-0.8705 1.5561,0.7707 0.0434,-1.5719 0.8907,-1.0279 1.5928,0.2267 -0.5363,-1.5609 0.111,-1.7458 1.069,-0.6088 1.5473,0.6595 1.4217,0.0927 1.2835,-0.7505 1.2384,0.681 0.7329,-0.2962 3.3401,-0.3383 0.965,0.6316 1.8616,-0.4988 1.999,0.8479 1.2396,-1.1468 1.3098,0.6103 1.8754,-0.7455 1.9397,0.6937 0.8786,-0.8745 1.6947,0.0247 1.9204,-1.9485 2.8868,-1.3073 1.6208,0.9217 1.2409,-0.2638 2.3996,-1.8754 1.2042,0.999 0.3774,1.0066 1.0021,-0.0202 2.5625,-1.0878 1.0251,1.6734 1.3323,0.4272 1.5227,1.8804 1.7673,-0.007 2.2786,-1.1134 2.9251,-0.4226 0.4621,0.8899 1.4964,-0.105 1.0389,-2.5986 3.0207,-0.5476 1.054,0.8968 1.9163,-0.0543 0.9583,1.371 1.5365,0.5086 -1.9781,3.7865 -1.9751,0.6605 -1.3257,0.8847 -2.638,0.4656 -1.1954,0.6015 -1.2677,-0.0829 -0.0334,-1.1504 -1.5151,0.5863 -2.4306,-0.8152 -1.238,0.0129 -0.207,-1.085 -1.5915,-0.182 -0.7964,1.9741 1.6199,0.5126 -0.1102,1.3901 1.0109,1.1661 1.3015,0.4445 0.925,1.4724 1.7209,0.9022 1.9994,0.043 2.1955,0.7876 1.5832,2.37 1.0243,0.7966 0.3431,1.3618 -0.5614,2.7373 -0.5815,0.8759 1.8554,1.0755 0.8168,0.0156 0.852,-1.0815 2.9727,-1.2883 2.691,0.8653 0.8189,1.343 0.2914,1.718 -0.435,0.9947 1.1871,3.4855 1.3052,0.5595 1.7414,-0.4333 0.0589,3.2161 -0.8594,3.157 -0.8298,0.526 0.3735,1.8259 -1.2451,1.4719 0.0998,0.9738 1.1796,1.8222 1.1674,0.5572 2.2348,-1.4682 0.748,0.6345 1.9718,-0.5378 1.0802,-0.7196 1.5477,1.8735 2.1835,1.728 0.3852,1.0143 1.4159,0.0912 0.6394,0.7267 2.3654,1.4029 1.0331,1.6093 2.9894,-0.6944 0.0664,1.0468 1.445,0.5466 1.7381,-0.13 0.768,0.6535 3.6034,0.0565 1.309,2.2786 1.3845,3.8704 0.6637,0.4005 -0.7071,2.0496 -1.9534,2.2719 -1.6592,1.2458 -0.2091,1.5652 1.9609,0.3984 2.6827,2.6641 1.1733,1.7568 -2.721,2.3174 0.2053,1.5528 -0.8728,1.2303 0.3269,2.0083 1.9363,1.819 0.4353,1.5394 -0.9508,2.0699 -0.8386,0.662 0.7793,1.94263 1.8729,1.2292 0.5192,0.8471 -0.6002,0.6622 0.172,1.5703 -0.3694,1.0389 -3.2194,-0.5376 -0.4007,-0.9197 -2.5353,-0.6627 -0.6157,0.4502 -2.5879,-0.1419 -1.0677,-1.5594 -3.795,-1.7771 -0.8244,2.1143 0.0722,1.0141 -1.4705,0.8327 -1.6842,-0.1659 -0.4441,1.4158 -2.8141,1.3802 -0.346,-1.3055 -1.0707,-0.4046 -2.3403,-2.2235 -1.7293,0.528 -1.4634,-0.9703 -1.2118,-1.4214 -4.232,-1.3259 -0.4712,-1.35913 -1.5089,-1.6059 -4.2237,-0.781 -0.5643,-0.63 -2.2928,-0.1808 -0.6349,1.7702 -1.1362,-0.0171 -1.3035,1.84563 -1.6379,-0.43313 -2.0144,0.98343 -0.5539,1.117 -1.0272,0.2533 -2.0661,-2.0795 -0.637,-3.03823 -1.9296,-0.7382 -1.7293,-1.7017 -2.658,-0.3571 -0.8991,0.9475 -0.5835,2.0715 -1.5766,-0.3362 -0.9354,0.6405 -1.0209,1.7775 -2.3821,1.11973 -2.6518,3.2599 -0.7463,1.4845 0.2183,1.5763 -3.1969,-0.4182 -0.7509,1.7432 -3.8906,1.1898 -1.9112,0.1399 -1.6367,2.476 -0.2863,1.295 -0.8878,0.599 z"
       id="id77"
       class="svgpath mahajanga"
       inkscape:label="#path133" />
  </g>
</svg>
