<?xml version="1.0" encoding="UTF-8" standalone="no"?>
<!-- Created with Inkscape (http://www.inkscape.org/) -->

<svg
   xmlns:dc="http://purl.org/dc/elements/1.1/"
   xmlns:cc="http://creativecommons.org/ns#"
   xmlns:rdf="http://www.w3.org/1999/02/22-rdf-syntax-ns#"
   xmlns:svg="http://www.w3.org/2000/svg"
   xmlns="http://www.w3.org/2000/svg"
   xmlns:sodipodi="http://sodipodi.sourceforge.net/DTD/sodipodi-0.dtd"
   xmlns:inkscape="http://www.inkscape.org/namespaces/inkscape"
   width="70.612053mm"
   height="40.872604mm"
   viewBox="0 0 250.20019 144.82419"
   id="svg3714"
   version="1.1"
   inkscape:version="0.91 r13725"
   sodipodi:docname="district_12.svg">
  <defs
     id="defs3716" />
  <sodipodi:namedview
     id="base"
     pagecolor="#ffffff"
     bordercolor="#666666"
     borderopacity="1.0"
     inkscape:pageopacity="0.0"
     inkscape:pageshadow="2"
     inkscape:zoom="0.98994949"
     inkscape:cx="-64.465522"
     inkscape:cy="-3.4108769"
     inkscape:document-units="px"
     inkscape:current-layer="layer1"
     showgrid="false"
     inkscape:window-width="1366"
     inkscape:window-height="715"
     inkscape:window-x="-8"
     inkscape:window-y="-8"
     inkscape:window-maximized="1"
     fit-margin-top="0"
     fit-margin-left="0"
     fit-margin-right="0"
     fit-margin-bottom="0" />
  <metadata
     id="metadata3719">
    <rdf:RDF>
      <cc:Work
         rdf:about="">
        <dc:format>image/svg+xml</dc:format>
        <dc:type
           rdf:resource="http://purl.org/dc/dcmitype/StillImage" />
        <dc:title></dc:title>
      </cc:Work>
    </rdf:RDF>
  </metadata>
  <g
     inkscape:label="Calque 1"
     inkscape:groupmode="layer"
     id="layer1"
     transform="translate(-202.84164,-267.82893)">
    <path
       inkscape:connector-curvature="0"
       d="m 247.66605,401.89286 0.163,-1.96482 -0.67539,-1.18956 0.15424,-2.23465 -0.6259,-1.57314 -1.65834,-0.40362 -0.26144,-0.91637 0.10647,-2.41356 0.63145,-1.27056 -0.58615,-3.45275 -0.53345,-1.67149 0.31025,-0.60762 0.13883,-2.36522 -0.86483,-0.38839 -0.18236,-1.00518 0.80969,-0.66336 1.53812,0.28046 0.10545,-0.67861 -2.0649,-3.40199 -1.88156,-4.08823 -1.00998,-3.10589 -0.98295,-0.40817 -1.19933,0.56384 -0.93555,1.04584 -0.77694,-0.65678 -1.60463,0.66806 -1.32554,0.0974 -0.68036,1.14173 -1.72975,0.74048 -2.01329,-0.65451 -1.52484,-0.0341 -0.58969,1.06781 -1.26087,-0.17183 -2.11518,-0.7835 -1.48408,0.23734 -4.38889,-0.73778 -2.1465,0.64366 -2.19189,-0.97 -1.5856,-1.69858 0.52537,-0.30925 0.0232,-1.64041 0.42416,-1.01302 -1.36527,-1.86849 -0.94179,0.0304 -0.50188,-1.22173 0.19719,-0.6694 -1.59757,-1.26426 -0.43476,-1.10679 -1.69734,-0.31228 -0.86626,-1.03743 0.50886,-1.70037 0.66309,-0.86205 -0.67329,-2.44884 -0.98715,-0.253 -0.88099,-2.7137 0.17116,-3.51002 -2.05727,-4.18809 0.39007,-1.70541 -0.18059,-0.95096 0.70319,-1.03255 -1.32386,-1.83136 0.97033,-1.47481 -0.96226,-2.6515 0.7591,-1.11656 2.91047,-2.96925 1.41132,-0.98623 1.14494,0.066 0.99735,-0.71254 1.50478,0.14844 2.05095,-1.68714 1.02471,0.0526 0.60619,0.6589 1.23108,-1.06759 1.84702,-0.19295 1.55016,-0.76735 1.224,-0.0181 1.87027,-0.2551 1.99084,0.14516 0.75798,0.34334 4.06172,0.0811 1.38642,0.79579 2.07728,0.76979 0.62724,-0.0383 3.26055,1.0599 0.82231,0.89826 2.61453,0.72355 2.32432,-0.60895 1.25388,-0.0541 1.69876,0.42241 0.73141,-0.44504 1.35044,0.18109 1.51328,-0.96461 1.63689,0.6786 1.32342,-0.0929 0.0815,-2.07376 0.61393,-0.76717 1.15126,-0.48444 0.53134,-1.38194 0.78157,-0.094 0.68214,0.80968 0.74501,-0.23018 -0.61049,-1.60303 1.07255,-0.99062 2.505,0.0526 -0.0492,1.22577 0.75345,0.51448 0.86458,1.71788 -0.16065,1.09172 1.39904,2.62709 -0.22773,1.10115 -0.86173,0.90786 0.77736,0.56166 -0.18446,1.11152 0.78467,1.39726 1.9937,0.77508 0.32118,1.2906 0.64728,0.89573 0.14481,1.41872 -0.33137,0.6814 0.12297,1.52431 0.65678,1.19958 0.24568,1.28848 3.40594,-4.27313 1.48684,0.29114 1.47146,-0.78139 1.49105,0.0676 0.77104,-0.92298 0.63928,1.91798 -0.17084,2.41273 0.56612,1.38481 1.14848,1.6634 0.14059,1.51084 0.49305,0.58565 0.44101,1.23731 -0.18658,2.36211 -0.46533,1.12928 0.23052,1.01857 -0.93303,1.65843 -0.24558,1.29742 1.90359,3.04509 -0.35595,1.56877 -1.75324,1.62054 -0.64063,1.71411 -1.02826,1.29125 -2.16687,1.80814 0.34224,1.59116 0.69342,1.22089 2.04809,0.58808 1.16984,0.97589 -0.65333,0.86625 0.38519,0.75791 -0.88555,1.2767 -0.74967,2.18036 0.14626,1.54241 0.57454,1.51767 -0.6919,1.55891 0.2242,3.12869 -0.46567,1.15336 0.25939,2.46434 -1.08027,0.88949 -0.60274,1.58629 -0.0421,2.04158 -1.01595,0.088 -0.61706,3.10866 -0.60198,0.55349 -0.67893,1.73007 -1.7849,2.9774 -0.57738,0.30083 -0.93623,1.83532 -0.7787,0.67861 -0.0349,1.46554 -1.70651,4.45448 -0.11873,1.72656 -0.34407,-1.66628 0.36656,-2.16544 -1.29851,-0.3963 -1.19132,0.29223 -3.24085,1.41638 -2.57909,-0.69981 -1.01528,-1.609 -1.81369,-0.32314 -2.83418,0.31943 -0.21091,-1.06058 -1.33152,-2.21521 -1.76796,-0.61604 z"
       id="id57"
       class="svgpath mahajanga"
       inkscape:label="#path107" />
    <path
       inkscape:connector-curvature="0"
       d="m 297.107,399.7355 -1.11928,-0.77458 -0.58724,0.43233 -1.30517,-1.63309 -1.42681,-0.13808 -0.85641,1.43777 -0.90381,0.67405 -1.4398,-0.11285 -1.03952,0.49153 -0.90946,-0.5252 -0.92705,1.33084 -1.95117,1.22837 -0.12297,0.85253 -1.28621,0.009 -0.41575,1.14604 0.42837,1.08517 -2.82442,0.52208 -0.048,-0.60779 -1.87204,-0.47233 -1.82817,1.05638 -0.1022,0.64096 -1.25423,0.23474 -0.0765,0.78491 -0.83815,0.97067 -1.08029,-0.58623 -0.96258,0.66124 -0.14093,1.25246 -1.27206,-1.13509 -0.51174,-1.53062 -1.08549,0.55878 0.0351,0.87224 -1.40535,0.10772 -0.75068,1.51219 -0.78045,-0.12755 -1.51954,0.66715 0.11873,-1.72654 1.70651,-4.4545 0.0349,-1.46554 0.7787,-0.67861 0.93623,-1.8353 0.57738,-0.30083 1.7849,-2.97741 0.67893,-1.73007 0.60198,-0.5535 0.61706,-3.10866 1.01595,-0.088 0.0421,-2.04159 0.60274,-1.58627 1.08027,-0.88951 -0.25939,-2.46433 0.46567,-1.15337 -0.2242,-3.12869 0.6919,-1.55891 -0.57454,-1.51767 -0.14626,-1.54241 0.74967,-2.18035 0.88555,-1.2767 -0.38519,-0.75791 0.65333,-0.86626 -1.16984,-0.97588 -2.04809,-0.58809 -0.69342,-1.22089 -0.34224,-1.59115 2.16687,-1.80814 1.02826,-1.29126 0.64063,-1.7141 1.75324,-1.62054 0.35595,-1.56877 -1.90359,-3.0451 0.24558,-1.29742 0.93303,-1.65843 -0.23052,-1.01857 0.46533,-1.12928 0.18658,-2.36211 -0.44101,-1.2373 0.94776,0.26688 0.29274,-1.68335 0.87924,-0.87166 -0.0994,-1.37654 2.7671,-2.57421 0.18345,-1.34878 0.75243,-0.86871 1.0504,0.0954 0.37424,-1.45561 1.34524,-0.56476 2.33593,1.01384 0.77701,1.71731 1.9036,0.21837 1.07641,0.48791 0.78056,-0.81163 -0.42838,-1.64007 -0.22564,-2.10356 0.5268,-2.48209 0.17639,-2.02444 1.51396,-1.08432 0.53311,-1.57349 1.97921,0.42645 0.22665,-1.08643 2.29408,-0.0125 1.23486,1.69547 1.72344,-0.76555 2.38754,-2.74672 0.25234,-2.54364 -0.71379,-1.66837 3.02337,-1.39306 0.67817,-2.75707 -0.28424,-1.15817 -1.08237,-1.77672 0.83847,-1.25001 2.72179,-2.18515 0.25124,-2.64434 -0.47621,-0.75151 0.75312,-1.07799 -0.47545,-0.84059 0.0276,-1.37032 0.81853,-0.14187 0.91966,-1.24488 0.28994,-2.52721 -0.40664,-2.79859 0.45161,-3.08517 0.78575,-1.25246 1.14386,-0.6018 1.70903,1.64942 2.98777,0.36809 1.56456,-0.32894 1.24193,-0.73846 1.66568,0.78661 2.51795,0.84117 0.6382,0.96057 1.6809,0.53908 0.68735,0.62523 3.28648,-0.11734 0.55458,-0.29484 0.5422,-1.583 1.41908,0.17554 1.18181,-1.56179 0.41995,-1.34204 1.19799,0.44117 2.28566,-0.63868 1.17796,-1.2006 1.41032,-0.76842 1.46016,0.15583 1.01141,-0.34241 1.05174,-1.08298 3.03179,2.23685 2.7948,-0.12739 1.45494,-0.36513 1.29706,1.01157 0.24424,1.22678 1.3231,-0.52571 1.41099,0.99349 0.50146,0.75588 1.72512,0.02 0.53984,-1.05157 2.25224,0.85514 1.24968,1.79087 -0.006,0.70057 1.18677,0.61318 1.44123,-0.21326 2.32601,0.72288 0.0836,1.38581 0.68314,1.45873 -0.36582,0.92217 0.88731,0.82569 0.498,-1.44881 0.81003,0.03 -0.10296,2.68721 -1.22013,0.83266 0.0649,1.0253 -1.64006,1.30709 0.36614,1.20044 0.82872,0.97209 -0.58868,1.90554 -0.0312,2.91881 0.96924,1.97936 -0.51274,0.79664 1.13509,0.42721 -0.70318,2.36977 1.4211,0.26344 -0.25402,1.6283 0.67861,1.58048 -0.78267,1.12176 0.11735,1.54731 -1.77152,1.56247 -1.15866,1.42782 0.42626,0.96325 -1.59966,1.04181 -2.46239,-0.36464 -1.1569,0.10959 -0.47375,0.90457 -1.21938,1.14284 -0.9257,1.87313 -1.01241,1.48247 -3.61442,2.69148 -0.81245,-0.0716 -1.094,1.71755 -1.68824,0.14305 -1.91877,1.56522 0.43014,1.41469 -0.2625,1.18393 1.35617,1.32941 1.15858,0.3244 0.62521,2.10802 0.94044,0.22842 0.0765,1.617 1.22398,0.36355 1.17087,2.12108 1.28623,-0.72499 0.62976,2.70731 2.01154,-0.21999 0.76228,-0.63624 0.80194,0.3158 0.47687,1.4157 0.92705,0.60847 0.595,1.11118 -0.13108,0.88243 0.33693,2.7446 0.84101,2.07309 0.7685,0.2263 1.2922,1.98393 -0.99381,0.91182 -0.36581,1.34448 2.29021,0.93832 0.89683,1.0717 0.52923,1.47472 0.74434,0.62801 0.0804,1.1259 -0.4671,0.93286 0.47863,0.55283 0.0747,1.34051 0.64592,1.73791 1.09124,-0.0495 -0.11747,0.93773 -0.75689,0.52386 0.72145,0.84479 0.56932,1.86318 1.01696,0.51433 1.10209,-1.06554 0.38097,1.30314 -0.14027,2.08756 1.36529,1.40568 0.65401,1.08896 -1.73354,3.76041 0.23364,0.71176 2.09378,0.91896 0.19719,1.33841 -1.06378,3.59717 -1.31535,0.80141 -0.50886,-0.26376 -1.41941,0.53983 1.39617,2.25133 -1.56413,0.78865 -1.1207,0.57125 -1.7417,-0.87916 -0.16299,-1.00661 -1.5681,-0.0673 -2.3953,-1.18419 -1.2261,-0.12322 -3.03524,1.44476 -1.99041,0.21538 -1.54031,-1.07549 -1.6464,0.93337 -0.79529,2.35116 -1.91985,0.85187 -0.71546,-0.74536 -1.23631,-0.19802 -0.47653,-0.58969 -1.37934,0.27465 -0.71546,1.0604 -1.66964,1.72755 -1.51396,1.01218 -0.58303,1.96212 0.23481,2.19709 -1.30205,0.62893 -0.997,-1.1334 0.14446,-0.77946 -1.60463,-1.47844 -1.82001,-2.29156 -1.11571,1.89375 -1.65035,-0.52924 -2.4357,0.22001 -0.87216,0.64137 -1.18823,-1.07944 -3.66289,-0.83023 -1.52129,-0.61915 -2.49683,1.18005 -1.74338,1.56819 -0.59776,-0.18237 -0.80271,-1.37076 0.20736,-1.1057 -0.0326,-3.53425 0.32295,-1.75955 -0.15365,-1.20261 -0.72179,-1.4904 -1.16952,-1.4146 -1.44997,-0.26024 -1.1787,0.51568 -1.81336,-0.69771 -1.9563,1.34398 -1.89873,0.2604 -3.53812,1.5479 -1.68091,1.17566 -2.09482,-1.09804 -1.52447,0.7526 -1.88433,-0.41878 -2.56469,0.32389 -0.60939,-2.04707 -1.23343,0.88437 0.0687,0.76101 -1.04971,1.56121 -0.96535,0.43258 z"
       id="id58"
       class="svgpath mahajanga"
       inkscape:label="#path109" />
    <path
       inkscape:connector-curvature="0"
       d="m 374.89126,400.63393 1.56414,-0.78865 -1.39617,-2.25132 1.41941,-0.53984 0.50886,0.26377 1.31535,-0.80143 1.06378,-3.59716 -0.19719,-1.33842 -2.09378,-0.91895 -0.23364,-0.71177 1.73354,-3.76041 -0.65401,-1.08895 -1.36529,-1.40568 0.14027,-2.08755 -0.38097,-1.30314 -1.10209,1.06553 -1.01696,-0.51433 -0.56932,-1.86319 -0.72145,-0.84478 0.75689,-0.52386 0.11747,-0.93775 -1.09124,0.0495 -0.64592,-1.7379 -0.0747,-1.34052 -0.47863,-0.55282 0.4671,-0.93286 -0.0804,-1.12591 -0.74434,-0.628 -0.52923,-1.47473 -0.89683,-1.07168 -2.29021,-0.93834 0.36581,-1.34447 0.99381,-0.91183 -1.2922,-1.98392 -0.7685,-0.2263 -0.84101,-2.0731 -0.33693,-2.74459 0.13108,-0.88243 -0.595,-1.11119 -0.92705,-0.60846 -0.47687,-1.4157 -0.80194,-0.31581 -0.76228,0.63625 -2.01154,0.21999 -0.62976,-2.70732 -1.28623,0.72499 -1.17087,-2.12106 -1.22398,-0.36355 -0.0765,-1.61702 -0.94044,-0.22843 -0.62521,-2.10801 -1.15858,-0.3244 -1.35617,-1.32941 0.2625,-1.18391 -0.43014,-1.4147 1.91877,-1.56523 1.68824,-0.14304 1.094,-1.71755 0.81245,0.0716 3.61442,-2.69148 1.01241,-1.48248 0.9257,-1.87313 1.21938,-1.14283 0.47375,-0.90457 1.1569,-0.10959 2.46238,0.36464 1.59967,-1.04181 -0.42626,-0.96325 1.15866,-1.42784 1.77152,-1.56245 -0.11735,-1.5473 0.78267,-1.12178 -0.67861,-1.58047 0.25402,-1.6283 -1.4211,-0.26344 0.70318,-2.36977 -1.13509,-0.42721 0.51274,-0.79663 -0.96924,-1.97938 0.0312,-2.91882 0.58868,-1.90553 -0.82872,-0.97209 -0.36614,-1.20042 1.64006,-1.30709 -0.0649,-1.02531 1.22013,-0.83267 0.10296,-2.6872 1.38952,-3.05157 0.72676,-0.57724 -0.62379,-1.43531 0.56367,-0.65931 -1.61407,-2.99535 -3.6453,-0.32035 -0.59709,-0.81346 -4.52807,-2.28097 -1.29567,0.20822 0.31659,-1.30796 -0.69157,-0.96012 -0.94819,-0.29763 -0.44411,-1.23436 -1.21172,0.48176 -0.99734,-0.6626 -0.65999,-1.64589 0.75732,-2.15366 1.10554,0.18902 1.26516,-1.56027 0.81844,-0.50272 1.13753,0.66875 1.47919,-0.32768 -0.0341,-1.88701 0.34612,-1.50353 2.1992,-1.8935 1.60775,-0.91526 1.50976,0.11909 -0.57142,-1.14056 0.5486,-1.224 0.54885,-2.36994 1.82286,-0.86365 1.25035,0.33701 2.50004,3.15294 2.28069,2.49002 0.72046,0.48427 1.43834,1.39307 2.0949,-0.31985 1.43482,0.47409 1.7912,0.16147 3.29178,1.19379 2.12149,-0.13016 -0.0643,-2.28407 2.59414,0.67471 1.21416,-0.32634 0.32262,0.54069 1.8738,-0.0322 0.60796,-0.44051 3.39543,0.22379 0.39782,1.02707 0.90566,-0.0816 1.95529,0.91045 0.13951,1.11952 -0.94497,1.10907 0.33701,1.1564 -0.014,1.99655 1.88752,0.85995 1.41688,0.14498 2.3851,1.71786 1.76596,1.66107 1.46781,0.69281 1.35551,-1.60935 1.37758,0.51502 2.98076,2.07089 3.55564,0.57688 2.81179,1.74449 0.94877,-0.38148 1.46237,0.68668 0.1057,1.09502 1.05005,1.02513 0.27549,1.1894 1.2634,1.40744 -0.31033,1.3194 -0.73764,0.78299 -0.0864,0.93058 0.7457,1.53038 -0.14936,1.41824 -1.06901,0.55559 -0.61006,1.28251 1.54586,1.74095 0.20561,0.91231 1.18223,1.20009 1.21979,0.27161 0.89262,0.64626 0.73265,1.70862 2.11737,3.27006 -0.69022,1.95613 2.03966,0.8672 0.83782,0.96299 0.0449,1.40417 2.80794,1.29902 -0.0225,1.50479 -0.53058,1.45771 -0.99525,0.55491 0.25266,2.03629 1.00754,1.01176 -0.93126,1.03086 1.14209,1.82968 0.72995,0.4948 1.06368,1.76966 -0.0621,1.02732 1.76939,1.30785 1.09468,-0.72953 0.7366,0.52461 0.79842,1.35424 1.15159,0.21141 0.70915,-0.74131 1.29716,-0.45726 1.22956,-0.006 0.27767,0.54523 -0.64771,2.74091 0.8789,1.40762 -0.0165,1.51185 0.42062,1.52448 -0.20585,2.00136 0.94566,1.86849 -1.19345,1.59269 -0.15465,1.42513 -1.83229,1.17028 -1.2022,0.25199 -0.32927,2.10028 -0.66067,0.57773 0.86659,1.93965 -0.19507,2.99324 0.39185,0.49285 -1.52483,1.05991 -0.33315,0.6791 -2.28214,-0.39755 -0.79285,2.70957 0.65124,1.62047 0.24315,2.03032 -0.57244,0.88116 -1.25632,-0.22489 -1.67839,0.74714 -0.53419,-0.74014 -1.49428,-0.16915 -1.35432,-1.29506 -1.06555,0.0242 -0.44521,1.46141 -0.70217,0.48934 -1.16565,2.08487 -0.28432,0.96637 -1.57021,-0.33686 -0.54329,-0.48225 -1.04963,1.61566 -1.21558,0.49515 -0.72363,0.77608 -1.36597,-0.6658 -0.3099,1.47288 1.11294,4.01532 1.23342,1.41167 1.37867,2.00667 1.66366,-0.5955 0.53453,0.23472 -0.96678,1.75939 -0.35386,1.52431 1.41167,1.43867 1.27771,0.93254 0.18345,0.78056 1.86639,0.98783 0.44319,0.67825 2.49752,0.44312 -1.09637,2.74006 -1.12356,-0.14499 -0.89119,0.55704 -0.70882,-0.36128 -1.95816,1.29758 -0.23784,1.92776 0.94919,0.15248 0.1827,0.99794 -1.96583,0.20468 -0.16241,2.12579 -1.12246,0.9688 -0.59811,1.48955 -0.67016,0.50289 0.92991,2.53075 -0.52192,1.08432 -0.2551,1.52306 -0.65224,1.39498 -0.75278,0.7761 0.26782,1.44122 -1.9606,-0.53016 -0.42207,-1.19167 -0.86802,-0.009 -0.79032,-1.71107 -0.7447,-0.82711 0.84765,-1.41916 -0.16264,-1.90596 -1.68691,-0.72885 -1.2106,-1.7833 -1.30239,-0.5124 -1.15866,-1.27721 -2.33761,1.01579 -1.97963,-0.96342 -1.59084,2.00608 -1.01738,0.531 -1.61197,-0.0665 -0.46878,-0.76345 -2.81037,-0.65731 -2.92386,2.83385 -0.15036,1.32731 -1.39837,2.12807 -1.86983,1.20506 -0.78797,1.30338 -0.99272,0.27204 -1.75366,1.4136 -2.37416,-0.0681 -1.09753,0.44015 -1.01664,-0.16307 -0.84867,0.55878 -1.86959,-0.24897 -2.22446,0.79716 -0.80868,0.63295 -0.21755,0.87082 -0.57806,-0.29469 -2.11132,0.3697 -2.06955,-0.87839 -0.89228,-0.0487 0.19751,-1.18131 -2.27792,-0.5544 -2.4315,-1.28497 -0.95516,-0.85978 -1.52415,-2.05002 -0.68701,-1.99798 0.31311,-2.66311 0.25973,-0.5039 z"
       id="id59"
       class="svgpath mahajanga"
       inkscape:label="#path111" />
  </g>
</svg>
