<?xml version="1.0" encoding="UTF-8" standalone="no"?>
<svg
   xmlns:dc="http://purl.org/dc/elements/1.1/"
   xmlns:cc="http://creativecommons.org/ns#"
   xmlns:rdf="http://www.w3.org/1999/02/22-rdf-syntax-ns#"
   xmlns:svg="http://www.w3.org/2000/svg"
   xmlns="http://www.w3.org/2000/svg"
   xmlns:sodipodi="http://sodipodi.sourceforge.net/DTD/sodipodi-0.dtd"
   xmlns:inkscape="http://www.inkscape.org/namespaces/inkscape"
   version="1.2"
   width="300.23077"
   height="563.72198"
   viewBox="0 0 300.23078 563.72199"
   id="svg2"
   inkscape:version="0.91 r13725"
   sodipodi:docname="PROVINCES.svg"
   style="stroke-linecap:round;stroke-linejoin:round">
  <metadata
     id="metadata21">
    <rdf:RDF>
      <cc:Work
         rdf:about="">
        <dc:format>image/svg+xml</dc:format>
        <dc:type
           rdf:resource="http://purl.org/dc/dcmitype/StillImage" />
        <dc:title></dc:title>
      </cc:Work>
    </rdf:RDF>
  </metadata>
  <defs
     id="defs19" />
  <sodipodi:namedview
     pagecolor="#ffffff"
     bordercolor="#666666"
     borderopacity="1"
     objecttolerance="10"
     gridtolerance="10"
     guidetolerance="10"
     inkscape:pageopacity="0"
     inkscape:pageshadow="2"
     inkscape:window-width="1366"
     inkscape:window-height="715"
     id="namedview17"
     showgrid="false"
     inkscape:zoom="0.34648829"
     inkscape:cx="-352.50715"
     inkscape:cy="435.80576"
     inkscape:window-x="-8"
     inkscape:window-y="-8"
     inkscape:window-maximized="1"
     inkscape:current-layer="gadm36_MDG_1"
     fit-margin-top="0"
     fit-margin-left="0"
     fit-margin-right="0"
     fit-margin-bottom="0" />
  <g
     id="gadm36_MDG_1"
     transform="translate(-251.76872,-466.01638)">
    <path
       d="m 357.10359,793.49432 1.80728,-10.96118 -5.12342,-4.848 5.42971,-2.54968 -1.09794,-9.64805 -3.09631,1.72443 -3.88098,-2.76758 -0.50132,-3.43529 -2.89906,-3.02648 -3.24989,-12.24663 5.78712,-6.19142 -1.77672,-11.22919 2.11937,-7.51604 11.47922,-4.35963 2.08382,-6.38779 4.58168,-1.05405 4.02645,2.01244 3.89897,-1.12132 8.66511,-4.54847 7.29822,0.43069 4.06389,-1.9383 5.2086,4.36853 5.07451,0.9838 4.90057,-2.14935 7.14836,-1.49559 3.01366,1.37478 1.27783,3.39068 3.34718,1.76825 5.88784,-1.29654 4.42338,-4.69503 5.29216,-0.49373 4.2364,5.32624 -1.17772,3.1009 3.90541,4.01915 -0.67125,4.47509 1.96952,9.06386 -1.8518,2.42596 -0.10874,4.76655 -2.12364,3.43925 0.21878,13.87699 -2.02669,5.30569 1.95553,6.92326 -0.004,4.67832 -1.8279,1.08199 -1.64235,5.1733 -0.83701,7.52502 0.82962,6.22113 -6.231,3.41194 0.0334,4.43045 -5.04393,-1.07848 -5.24588,1.95199 -6.49586,-1.43372 -5.49316,2.34829 -5.54743,3.79618 -3.70331,-1.07637 -5.72988,4.0869 -4.5565,0.42589 -2.70929,-1.78061 -4.6017,1.2669 -3.10664,-2.13724 -2.98847,1.45022 -3.23639,-4.08328 -1.26931,-4.97201 -3.9624,1.3301 -4.3738,-4.57007 -11.77195,-2.86404 z"
       id="id1"
       inkscape:label="ANTANANARIVO"
       class="svgpath neutral"
       inkscape:connector-curvature="0" />
    <path
       d="m 463.34187,523.23793 0.24068,2.99118 -6.60132,-0.5501 0.28661,-4.5727 3.94241,-0.8481 2.13162,2.97972 z m -14.12849,27.36612 -0.0158,-0.0196 -0.01,-0.0122 -4.63002,-3.85149 -1.37527,-5.59274 1.60441,-7.14 7.0483,-1.54706 3.99968,5.30614 2.50986,5.29482 3.63314,-0.99703 0.3895,-9.03094 5.06569,-0.33239 5.94798,-4.19454 7.0598,-2.12024 1.55859,-4.98538 0.2751,-6.22308 5.4667,-10.16565 -3.24329,-14.01623 -4.92809,-4.77915 4.58421,-0.67612 3.64448,3.05988 0.53872,-4.76753 2.73904,-2.70466 4.9166,-1.50143 3.38083,-6.86485 -1.74196,-3.32361 2.72754,-3.02554 3.98837,4.61853 -1.05435,4.06854 -3.81651,0.68765 1.21491,4.74472 3.97687,0.51568 7.73591,3.47262 2.08585,6.36064 -1.75347,3.56421 7.1857,5.68445 8.69863,11.40332 -0.424,5.822 2.22325,4.13728 2.10885,9.44356 4.79058,11.56376 -0.10328,8.66426 1.16909,2.46397 -0.95126,6.47523 2.42958,3.28921 -1.04285,6.87639 3.61003,16.56048 2.8767,6.48677 4.02269,4.83636 2.29203,4.99679 -1.05435,7.96517 -6.67006,16.78978 -3.22048,5.06564 -8.13692,-4.27483 -0.51578,-2.20628 2.32573,-0.71665 -2.53456,-7.45979 0.49151,-6.28941 1.4385,-3.72314 -2.67618,-6.08821 -3.78363,1.06121 -7.50895,-7.38177 -9.73345,-11.70045 -7.74756,-14.39074 -6.09153,-6.27829 -2.59991,-4.15605 -6.11057,-1.74661 -4.92481,4.18 -3.64683,-2.29911 -2.44391,1.34917 -4.94038,-2.18573 -6.85987,-0.90673 -0.69833,-2.33437 -4.33667,-1.48858 -2.12239,-4.36959 1.43854,-3.76507 -9.74668,4.8247 z"
       id="id3"
       inkscape:label="ANTSIRANANA"
       class="svgpath neutral"
       inkscape:connector-curvature="0" />
    <path
       d="m 357.10359,793.49432 11.77195,2.86404 4.3738,4.57007 3.9624,-1.3301 1.26931,4.97201 3.23639,4.08328 2.98847,-1.45022 3.10664,2.13724 4.6017,-1.2669 2.70929,1.78061 4.5565,-0.42589 5.72988,-4.0869 3.70331,1.07637 5.54743,-3.79618 5.49316,-2.34829 6.49586,1.43372 5.24588,-1.95199 5.04393,1.07848 -1.71584,7.83232 0.25814,4.57799 4.0096,4.19078 12.73154,-2.89217 2.79409,-5.07417 5.45176,1.88394 3.37519,-0.6435 0.79904,3.80383 8.57794,1.20631 -3.5069,12.03879 -2.42977,11.67832 -3.83932,9.90189 -1.61587,7.1745 -7.39203,20.19351 -7.19731,16.51474 -2.52136,7.3921 -1.62738,11.34602 -1.9598,9.07675 -2.14316,6.08564 -1.89099,8.64128 -3.32356,8.99666 -1.5816,9.97063 -4.82486,10.61253 -2.46404,3.82851 -8.27813,-5.76531 -7.75164,4.24619 0.53148,4.78975 -6.27551,3.2305 0.35822,-4.87354 -1.77673,-2.68492 -4.87116,-0.73079 -0.68448,-3.96602 -7.81257,-2.63076 -5.57638,-5.16324 3.90665,-9.42805 -3.584,-6.06845 1.88943,-1.42115 0.71658,-8.84063 -5.41269,-3.40698 -4.72494,-9.94641 -4.0677,-1.65438 -1.04142,-2.92591 -3.92808,-2.19203 -5.95239,-0.83196 -8.5754,2.53324 -10.36274,5.59199 -1.39537,8.75263 -2.44033,1.08715 -9.4163,-2.53346 -4.02239,-4.26665 2.81537,-8.61009 -0.73751,-2.51733 4.97658,-10.46771 3.58985,-3.06188 -0.13174,-3.78039 3.68604,-4.93684 -4.37569,-7.06937 -0.53008,-2.87885 7.28166,-1.26208 1.24178,-7.16586 5.36677,-0.63208 -0.74364,-7.08125 2.59044,-7.78854 6.47459,-3.06268 0.4972,-7.30877 1.70626,-3.17987 -1.20813,-6.28055 1.00949,-4.76569 2.12646,-0.34679 -0.90813,-6.31268 0.62985,-9.21713 -3.16535,-9.41865 1.21517,-4.49009 -0.65866,-4.94219 z"
       id="id2"
       inkscape:label="FIANARANTSOA"
       class="svgpath neutral"
       inkscape:connector-curvature="0" />
    <path
       d="m 449.21338,550.60405 9.74669,-4.8247 -1.43854,3.76507 2.12238,4.36959 4.33667,1.48858 0.69833,2.33437 6.85987,0.90673 4.94038,2.18573 2.44392,-1.34917 3.64682,2.29911 4.92481,-4.18 6.11057,1.74661 2.59991,4.15605 6.09153,6.27829 7.74756,14.39074 -1.1554,11.9121 -3.91911,-0.7576 0.5271,6.57443 -13.92438,5.10207 -0.16512,3.77514 3.63993,0.58736 -2.95356,12.25545 2.77886,5.82494 5.52571,6.47041 -2.30746,1.45147 1.02521,6.39862 -2.71035,3.83758 0.2466,4.84966 -4.02264,1.13602 -5.05498,8.05375 -9.37181,-0.0434 -1.97427,-1.09047 -2.81329,-8.61452 -7.52234,-4.2999 -5.14815,-4.07468 -6.99573,1.51162 -6.34963,-1.49149 -2.188,4.12088 1.00884,3.36157 -1.58408,5.50874 2.32792,3.32229 -0.99297,3.5021 4.53606,6.69118 2.79081,6.86327 3.14269,0.07 0.13647,6.54669 -4.70556,8.34414 -6.19115,2.55135 2.91306,8.82547 -2.06428,7.66748 -4.2364,-5.32624 -5.29216,0.49373 -4.42338,4.69503 -5.88784,1.29653 -3.34718,-1.76824 -1.27783,-3.39068 -3.01366,-1.37479 -7.14836,1.4956 -4.90057,2.14934 -5.07451,-0.9838 -5.2086,-4.36853 -4.06389,1.93831 -7.29822,-0.43069 -8.66511,4.54847 -3.89897,1.12132 -4.02645,-2.01244 -4.58168,1.05405 -2.08382,6.38779 -11.47922,4.35963 -2.11937,7.51604 -9.48086,-0.93912 -6.67308,-2.9209 -3.13265,2.08114 -3.40114,-2.98436 -3.98837,4.72885 -4.76475,2.66762 2.0555,3.39827 3.81428,12.09924 2.60696,3.16165 -1.26382,3.06098 3.59834,7.60597 -1.20902,4.22981 3.38634,2.54745 -11.99924,2.64821 -3.57978,-4.71667 -5.29626,-0.91695 -12.31729,-0.15573 -2.50198,-2.30361 -0.69911,-5.77611 0.66465,-7.20873 -5.67288,-12.25135 -2.86523,-4.06857 0,-7.72441 -1.27219,-7.10557 0.99723,-9.46646 -3.20898,-3.63305 -1.23787,-8.68725 2.88806,-6.65852 3.66744,-4.72177 2.04008,-5.21451 2.93387,-2.6131 5.67303,-10.03952 3.25475,-3.49539 0.19487,-6.01679 1.70765,-2.88814 -2.63595,-6.32625 1.87952,-6.61278 12.85872,0.67619 3.06011,1.99411 5.52397,-3.91959 6.15431,-5.81043 5.28337,-3.25475 1.78792,4.10285 3.82782,1.26068 1.61588,-3.35804 8.56111,-2.70465 -0.88247,-3.04858 2.49835,-2.14308 8.79026,-1.24926 5.1,1.70766 3.42677,-3.51843 5.84493,-0.0572 -0.0115,4.27479 2.89956,0.1834 2.7505,-3.67884 -1.81074,-3.06006 4.57271,-4.4582 9.28319,-6.08553 8.66417,-7.34622 2.99119,-1.27218 1.11178,3.75912 4.14873,2.07431 -3.47262,3.59867 2.80782,2.54422 3.51839,-5.375 -3.9424,-7.12845 2.44109,-3.23194 3.88509,-2.25772 3.59867,-4.90513 -0.26361,-3.02557 7.11704,-7.58701 2.61314,5.95955 -4.79058,6.72738 -0.0803,4.99683 3.06011,-0.6303 7.01379,-11.35751 2.07439,-4.93952 4.3206,-4.41234 -3.33507,-1.20333 -0.75639,-6.60132 0.93976,-2.40678 5.16878,-3.40376 6.46388,-1.78785 1.84505,-3.96541 -1.72809,-5.17051 z"
       id="id4"
       inkscape:label="MAHAJANGA"
       class="svgpath neutral"
       inkscape:connector-curvature="0" />
    <path
       d="m 523.71935,678.66665 1.93381,-6.94517 2.70473,0.41265 -4.63854,6.53252 z m -50.4984,137.05235 -8.57794,-1.20631 -0.79904,-3.80383 -3.37519,0.6435 -5.45176,-1.88394 -2.79409,5.07417 -12.73154,2.89217 -4.0096,-4.19078 -0.25814,-4.57799 1.71584,-7.83232 -0.0334,-4.43045 6.231,-3.41194 -0.82962,-6.22113 0.83701,-7.52502 1.64235,-5.1733 1.8279,-1.08199 0.004,-4.67832 -1.95553,-6.92326 2.02669,-5.30569 -0.21878,-13.87699 2.12364,-3.43925 0.10874,-4.76655 1.8518,-2.42596 -1.96952,-9.06386 0.67125,-4.47509 -3.90541,-4.01915 1.17772,-3.1009 2.06428,-7.66747 -2.91306,-8.82548 6.19115,-2.55134 4.70556,-8.34415 -0.13647,-6.54669 -3.14269,-0.07 -2.79081,-6.86327 -4.53606,-6.69118 0.99297,-3.5021 -2.32792,-3.32229 1.58408,-5.50873 -1.00884,-3.36158 2.188,-4.12087 6.34963,1.49148 6.99573,-1.51162 5.14815,4.07469 7.52234,4.29989 2.81329,8.61452 1.97427,1.09047 9.37181,0.0434 5.05498,-8.05375 4.02264,-1.13602 -0.2466,-4.84966 2.71035,-3.83758 -1.02521,-6.39862 2.30746,-1.45147 -5.52571,-6.4704 -2.77886,-5.82495 2.95356,-12.25545 -3.63993,-0.58735 0.16512,-3.77515 13.92438,-5.10206 -0.5271,-6.57444 3.91911,0.7576 1.1554,-11.9121 9.73345,11.70046 7.50896,7.38176 3.78362,-1.06121 2.67618,6.08821 -1.4385,3.72314 -0.49151,6.28942 2.53456,7.45978 -2.32573,0.71665 -1.95976,-3.71884 0.12605,-4.58425 -3.16317,-2.89952 0.57303,-4.74473 -7.20866,-0.0458 -4.68745,4.46958 3.59864,13.16829 1.11181,1.59076 -2.29222,5.29705 2.08589,4.44674 5.52397,3.17459 -1.78793,4.44666 1.90252,4.77907 -1.1804,5.26037 -4.09146,8.22876 2.93387,3.15171 -7.49512,1.59306 -3.85081,6.2804 -4.51544,11.25431 3.19748,14.54359 0.91679,1.2835 -3.72472,11.35751 -3.80486,17.97018 -4.7103,10.0624 -4.67599,12.66397 -4.20601,9.83323 -0.96272,5.46673 -4.93949,11.93042 -2.15462,9.7301 0.42401,2.18894 -5.54697,11.2543 -4.24032,9.81667 z"
       id="id6"
       inkscape:label="TOAMASINA"
       class="svgpath neutral"
       inkscape:connector-curvature="0" />
    <path
       d="m 296.85722,763.91071 12.31729,0.15573 5.29626,0.91695 3.57978,4.71667 11.99924,-2.64821 -3.38634,-2.54744 1.20902,-4.22982 -3.59834,-7.60597 1.26382,-3.06098 -2.60696,-3.16165 -3.81428,-12.09924 -2.0555,-3.39826 4.76475,-2.66762 3.98837,-4.72886 3.40114,2.98436 3.13265,-2.08114 6.67308,2.9209 9.48086,0.93912 1.77672,11.22919 -5.78712,6.19142 3.24989,12.24663 2.89906,3.02648 0.50132,3.43529 3.88098,2.76758 3.09631,-1.72443 1.09794,9.64805 -5.42971,2.54968 5.12342,4.848 -1.80728,10.96118 0.65866,4.94219 -1.21517,4.49009 3.16535,9.41865 -0.62985,9.21713 0.90813,6.31268 -2.12646,0.34679 -1.00949,4.76569 1.20813,6.28055 -1.70626,3.17987 -0.4972,7.30877 -6.47459,3.06268 -2.59044,7.78854 0.74364,7.08125 -5.36677,0.63208 -1.24178,7.16586 -7.28166,1.26208 0.53008,2.87885 4.37569,7.06937 -3.68604,4.93684 0.13174,3.78039 -3.58985,3.06188 -4.97658,10.46771 0.73751,2.51733 -2.81537,8.61009 4.02239,4.26665 9.4163,2.53346 2.44033,-1.08715 1.39537,-8.75263 10.36274,-5.59199 8.5754,-2.53324 5.95239,0.83196 3.92808,2.19203 1.04142,2.92591 4.0677,1.65438 4.72494,9.94641 5.41269,3.40698 -0.71658,8.84063 -1.88943,1.42115 3.584,6.06845 -3.90665,9.42805 5.57638,5.16324 7.81257,2.63076 0.68448,3.96602 4.87116,0.73079 1.77673,2.68492 -0.35822,4.87354 6.27551,-3.2305 -0.53148,-4.78975 7.75164,-4.24619 8.27813,5.76531 -2.76201,6.53189 -2.71619,9.99366 -3.49543,6.99097 0.13756,2.77344 -3.04858,3.48405 -0.67616,3.27772 -6.2681,4.6756 -13.5931,5.9713 -4.84785,-1.3523 -7.3119,0.8824 -10.01663,3.3121 -9.0079,4.0685 -11.27727,7.438 -5.00841,1.4211 -13.97034,0.722 -0.63035,-2.2463 -6.20027,-2.6474 -1.44401,-2.3494 -6.38349,-3.656 -14.54356,-2.613 -4.45816,-4.6415 -11.28877,-6.143 -1.30649,-5.68436 -4.05696,-5.51252 -0.13755,-5.4438 -9.6614,-9.45498 -0.61884,-2.36093 -0.30942,-16.73244 -0.97407,-6.50968 0.87098,-5.84498 4.17155,-1.75339 0.30942,-4.50402 -6.08553,-6.18871 -0.35523,-8.54958 -4.95095,-3.82793 -4.97391,-6.86492 -3.25494,-10.33736 -1.24918,-9.21431 -1.36377,-1.8796 0.19487,-7.4838 1.79924,-9.83308 8.03398,-11.9421 -0.82517,-6.78458 2.52136,-6.05122 5.39792,-1.40974 2.93387,0.73351 3.54136,-2.55568 1.61592,-3.58717 1.87951,-9.89053 3.59864,-6.38357 3.01415,-1.24918 2.83044,-9.4206 5.46703,-4.1717 1.85671,-4.6186 5.8792,-8.44645 2.23491,-4.89375 -1.35246,-5.03118 -2.63591,-1.97111 0.77939,-4.37807 2.3723,-2.21182 0,-6.70449 -4.85934,-6.44084 -1.56649,-5.76473 z"
       id="id5"
       inkscape:label="TOLIARY"
       class="svgpath neutral"
       inkscape:connector-curvature="0" />
       <ellipse
            class="svg-ellipse hidden"
            id="circle_province_5"
            cx="299"
            cy="893"
            rx="15"
            ry="15" />
    <text
            class="svg-text-inside-ellipse hidden"
            x="293"
            y="900"
            id="text_province_5"><tspan
            class="svg-text-21"
         id="textspan_province_5"
         x="293"
         y="900" ></tspan></text>
    <ellipse
            class="svg-ellipse hidden"
            id="circle_province_3"
            cx="500"
            cy="521"
            rx="15"
            ry="15" />
    <text
            class="svg-text-inside-ellipse hidden"
            x="495"
            y="528"
            id="text_province_3"><tspan
         id="textspan_province_3"
         x="495"
         y="528"
         class="svg-text-21"></tspan></text>
    <ellipse
            class="svg-ellipse hidden"
            id="circle_province_4"
            cx="397"
            cy="649"
            rx="15"
            ry="15" />
    <text
            class="svg-text-inside-ellipse hidden"
            x="392"
            y="655"
            id="text_province_4"><tspan
         id="textspan_province_4"
         x="392"
         y="655"
         class="svg-text-21"></tspan></text>
    <ellipse
            class="svg-ellipse hidden"
            id="circle_province_1"
            cx="398"
            cy="758"
            rx="15"
            ry="15" />
    <text
            class="svg-text-inside-ellipse hidden"
            x="393"
            y="763"
            id="text_province_1"><tspan
         id="textspan_province_1"
         x="393"
         y="763"
         class="svg-text-21">20</tspan></text>
    <ellipse
            class="svg-ellipse hidden"
            id="circle_province_2"
            cx="400"
            cy="882"
            rx="15"
            ry="15" />
    <text
            class="svg-text-inside-ellipse hidden"
            x="395"
            y="888"
            id="text_province_2"><tspan
         id="textspan_province_2"
         x="395"
         y="888"
         class="svg-text-21"></tspan></text>
    <ellipse
            class="svg-ellipse hidden"
            id="circle_province_6"
            cx="484"
            cy="700"
            rx="15"
            ry="15" />
    <text
            class="svg-text-inside-ellipse hidden"
            x="479"
            y="708"
            id="text_province_6"><tspan
         id="textspan_province_6"
         x="479"
         y="708"
         class="svg-text-21"></tspan></text>
  </g>
</svg>
