<?xml version="1.0" encoding="UTF-8" standalone="no"?>
<!-- Created with Inkscape (http://www.inkscape.org/) -->

<svg
   xmlns:dc="http://purl.org/dc/elements/1.1/"
   xmlns:cc="http://creativecommons.org/ns#"
   xmlns:rdf="http://www.w3.org/1999/02/22-rdf-syntax-ns#"
   xmlns:svg="http://www.w3.org/2000/svg"
   xmlns="http://www.w3.org/2000/svg"
   xmlns:sodipodi="http://sodipodi.sourceforge.net/DTD/sodipodi-0.dtd"
   xmlns:inkscape="http://www.inkscape.org/namespaces/inkscape"
   width="56.490448mm"
   height="99.997581mm"
   viewBox="0 0 200.163 354.32214"
   id="svg3457"
   version="1.1"
   inkscape:version="0.91 r13725"
   sodipodi:docname="region_5.svg">
  <defs
     id="defs3459" />
  <sodipodi:namedview
     id="base"
     pagecolor="#ffffff"
     bordercolor="#666666"
     borderopacity="1.0"
     inkscape:pageopacity="0.0"
     inkscape:pageshadow="2"
     inkscape:zoom="0.35"
     inkscape:cx="-328.7759"
     inkscape:cy="345.51231"
     inkscape:document-units="px"
     inkscape:current-layer="layer1"
     showgrid="false"
     fit-margin-top="0"
     fit-margin-left="0"
     fit-margin-right="0"
     fit-margin-bottom="0"
     inkscape:window-width="1366"
     inkscape:window-height="715"
     inkscape:window-x="-8"
     inkscape:window-y="-8"
     inkscape:window-maximized="1" />
  <metadata
     id="metadata3462">
    <rdf:RDF>
      <cc:Work
         rdf:about="">
        <dc:format>image/svg+xml</dc:format>
        <dc:type
           rdf:resource="http://purl.org/dc/dcmitype/StillImage" />
        <dc:title></dc:title>
      </cc:Work>
    </rdf:RDF>
  </metadata>
  <g
     inkscape:label="Calque 1"
     inkscape:groupmode="layer"
     id="layer1"
     transform="translate(-108.06161,-523.55238)">
    <path
       inkscape:connector-curvature="0"
       d="m 169.71459,863.17532 1.91455,-6.07598 12.00901,-10.81139 4.98373,-2.49788 2.97679,-5.08679 3.47588,-1.90673 0.26658,-5.84264 2.06134,-4.68844 -2.10931,-5.22127 0.75825,-6.38874 3.83933,-4.71453 0.54064,-8.63559 2.31045,-8.38888 10.54397,-2.70915 3.46107,5.33919 -1.09902,4.66524 13.80867,1.3767 2.23618,9.85847 9.39038,12.93092 -5.08076,0.16558 2.97185,6.06082 0.66777,5.44705 2.54842,3.8508 -2.08926,2.54939 8.77714,8.52156 4.54392,1.94884 -0.3886,6.32269 -18.50559,7.52901 -13.06627,8.61789 -5.80293,1.64656 -16.18657,0.8365 -0.73034,-2.60259 -7.18387,-3.06739 -1.67308,-2.72213 -7.39615,-4.23601 -12.77417,-2.07108 z"
       id="id15"
       class="svgpath toliary"
       inkscape:label="#ANDROY" />
    <path
       inkscape:connector-curvature="0"
       d="m 253.03356,859.24456 0.3886,-6.32269 -4.54392,-1.94884 -8.77714,-8.52156 2.08926,-2.54939 -2.54842,-3.8508 -0.66777,-5.44705 -2.97185,-6.06082 5.08076,-0.16558 -9.39038,-12.93092 -2.23618,-9.85847 -13.80867,-1.3767 1.09902,-4.66524 -3.46107,-5.33919 0.64025,-13.58345 -4.86944,-2.15444 -4.81803,1.5318 -0.90574,-3.77379 4.11049,-4.19149 1.83775,-8.70291 2.4596,-11.60743 12.00666,-6.4791 9.93579,-2.9351 6.89666,0.96394 4.55122,2.53976 1.20663,3.39008 4.713,1.91682 5.47448,11.52429 6.27135,3.94746 -0.83025,10.24304 -2.18917,1.64666 4.70273,8.68386 -5.07657,9.2709 6.461,5.98235 9.05194,3.04809 0.79307,4.59517 5.64391,0.84676 2.05858,3.11087 -0.41503,5.64661 7.27103,-3.7429 -0.61579,-5.54962 8.98133,-4.91978 9.59136,6.67989 -3.20016,7.56806 -3.14708,11.57903 -4.04994,8.10002 0.15937,3.21344 -3.53219,4.0367 -0.78342,3.79774 -7.26246,5.41733 -15.74947,6.91855 -5.6169,-1.56687 -12.0088,2.04491 z"
       id="id16"
       class="svgpath toliary"
       inkscape:label="#ANOSY" />
    <path
       inkscape:connector-curvature="0"
       d="m 122.14346,673.03749 9.33053,11.17073 2.57013,7.47602 5.21917,7.79166 5.36217,1.96086 8.94013,-5.06875 12.06773,1.72808 7.91364,-3.88707 7.99958,-0.99045 -4.00726,-8.64346 1.67946,-13.34697 -1.54582,-3.4342 9.30707,0.40438 2.74043,3.48645 7.80005,0.007 0.89391,-2.59172 5.20423,-4.009 6.78705,-0.32775 6.61623,-7.77301 6.73362,0.31268 1.76958,-3.53953 4.34423,0.74886 0.77796,4.45392 -2.80902,2.8781 0.38987,7.9333 -7.5017,3.54853 -3.00138,9.02411 1.27849,5.31057 -0.41688,2.89403 -6.21814,0.73235 -1.43878,8.30264 -8.4368,1.46228 0.61416,3.33556 5.06985,8.19084 -4.27079,5.72 0.15265,4.3801 -4.15934,3.54762 -5.76606,12.12828 0.8545,2.91667 -3.26198,9.97598 4.66049,4.9435 2.6146,-0.1353 10.28006,3.27735 -1.83775,8.70291 -4.11049,4.19149 0.90574,3.77379 4.81803,-1.53179 4.86944,2.15444 -0.64025,13.58345 -10.54397,2.70915 -2.31045,8.38888 -0.54064,8.63558 -3.83933,4.71453 -0.75825,6.38874 2.10931,5.22127 -2.06134,4.68844 -0.26658,5.84264 -3.47588,1.90673 -2.97679,5.0868 -4.98373,2.49787 -12.00901,10.81139 -1.91455,6.07598 -4.07655,-0.95637 -5.16539,-5.3778 -13.07959,-7.11751 -1.51376,-6.58613 -4.70054,-6.38709 -0.15938,-6.3074 -11.19405,-10.95486 -0.71701,-2.73545 -0.35851,-19.38686 -1.1286,-7.54233 1.00916,-6.7722 4.83332,-2.03155 0.3585,-5.21851 -7.05093,-7.1705 -0.41158,-9.90587 -5.73635,-4.43518 -5.76296,-7.95396 -3.7713,-11.97726 -1.44734,-10.67604 -1.58012,-2.17777 0.22578,-8.67102 2.08467,-11.39297 9.30847,-13.83658 -0.95607,-7.86087 3.419,-6.70574 z"
       id="id17"
       class="svgpath toliary"
       inkscape:label="#ATSIMO_ANDREFANA" />
    <path
       inkscape:connector-curvature="0"
       d="m 122.14346,673.03749 2.62277,-1.65981 6.53309,0.57088 4.10316,-2.9611 1.87226,-4.15623 2.17768,-11.45955 4.16952,-7.39624 3.4923,-1.44735 3.27945,-10.91506 6.33432,-4.83349 2.15125,-5.35128 6.81186,-9.78638 2.58945,-5.67007 -1.56701,-5.82933 -3.05407,-2.2838 0.90304,-5.07259 2.74864,-2.5627 0,-7.76807 -5.63023,-7.46261 -1.81499,-6.67923 14.27128,0.18044 6.13645,1.06241 4.14767,5.46491 13.90277,-3.06831 -3.92355,-2.95157 1.40082,-4.90082 -4.16917,-8.81256 1.4643,-3.54657 -3.02051,-3.66321 -4.41938,-14.01863 -2.38157,-3.93736 5.52062,-3.09081 4.62107,-5.47902 3.94068,3.45778 3.62962,-2.41128 7.73168,3.38427 10.98487,1.08809 2.05859,13.01057 -6.70518,7.17361 3.76545,14.18941 3.35896,3.50658 0.58084,3.98026 4.49665,3.20663 3.5875,-1.99799 1.67859,6.14164 -1.28618,5.23979 -5.41136,2.75131 5.93618,5.61708 1.23511,3.4764 -2.45781,2.51614 -0.87127,6.70749 0.76314,5.72622 -1.40794,5.20239 3.6675,10.91279 -0.72977,10.67932 1.05219,7.31411 -2.4638,0.40179 -0.68167,9.68581 -4.34423,-0.74885 -1.76958,3.53952 -6.73362,-0.31267 -6.61623,7.77301 -6.78705,0.32775 -5.20423,4.009 -0.89391,2.59171 -7.80005,-0.007 -2.74043,-3.48645 -9.30707,-0.40438 1.54582,3.4342 -1.67946,13.34698 4.00726,8.64344 -7.99958,0.99046 -7.91364,3.88707 -12.06773,-1.72808 -8.94013,5.06874 -5.36217,-1.96085 -5.21917,-7.79167 -2.57013,-7.47601 -9.33053,-11.17073 z"
       id="id18"
       class="svgpath toliary"
       inkscape:label="#MENABE" />
  </g>
</svg>
